https://www.CryptoDataDownload.com
unix,date,symbol,open,high,low,close,Volume EOS,Volume USDT,tradecount
1647302400000,2022-03-15 00:00:00,EOS/USDT,1.966,1.973,1.956,1.961,1239487.2,2437359.9127,4025
1647216000000,2022-03-14 00:00:00,EOS/USDT,1.905,1.976,1.882,1.966,37791028.3,73303094.5278,171183
1647129600000,2022-03-13 00:00:00,EOS/USDT,1.969,2.006,1.887,1.905,35283509.5,69079127.9604,154825
1647043200000,2022-03-12 00:00:00,EOS/USDT,1.973,2.008,1.964,1.968,23212900.0,46096681.9354,105987
1646956800000,2022-03-11 00:00:00,EOS/USDT,1.982,2.016,1.921,1.972,42916780.5,84454048.8342,194958
1646870400000,2022-03-10 00:00:00,EOS/USDT,2.065,2.100,1.929,1.983,52518555.5,104678392.6784,231164
1646784000000,2022-03-09 00:00:00,EOS/USDT,1.970,2.079,1.967,2.065,38773131.2,79358049.4816,203257
1646697600000,2022-03-08 00:00:00,EOS/USDT,1.919,1.994,1.909,1.969,43166759.4,84703276.5368,199059
1646611200000,2022-03-07 00:00:00,EOS/USDT,1.960,2.020,1.868,1.919,52454953.9,102257376.8769,216242
1646524800000,2022-03-06 00:00:00,EOS/USDT,2.042,2.057,1.944,1.960,40797808.5,81813363.4839,168962
1646438400000,2022-03-05 00:00:00,EOS/USDT,2.001,2.052,1.958,2.041,31643583.3,63629760.9530,147435
1646352000000,2022-03-04 00:00:00,EOS/USDT,2.154,2.164,1.970,2.000,60285572.1,124700674.8759,252230
1646265600000,2022-03-03 00:00:00,EOS/USDT,2.212,2.223,2.120,2.154,43655620.5,95063110.0661,215608
1646179200000,2022-03-02 00:00:00,EOS/USDT,2.265,2.284,2.177,2.212,48301294.6,107626769.0869,238980
1646092800000,2022-03-01 00:00:00,EOS/USDT,2.282,2.313,2.206,2.264,55239432.2,124851945.6766,270996
1646006400000,2022-02-28 00:00:00,EOS/USDT,2.090,2.284,2.060,2.282,71243439.6,153004041.6969,303048
1645920000000,2022-02-27 00:00:00,EOS/USDT,2.162,2.248,2.054,2.090,82675125.2,179005401.2174,333289
1645833600000,2022-02-26 00:00:00,EOS/USDT,2.145,2.396,2.133,2.161,53057579.7,115646277.5370,235448
1645747200000,2022-02-25 00:00:00,EOS/USDT,2.069,2.163,2.028,2.146,55433494.4,115781077.7310,236480
1645660800000,2022-02-24 00:00:00,EOS/USDT,2.103,2.122,1.857,2.069,121791192.4,240232185.1210,440334
1645574400000,2022-02-23 00:00:00,EOS/USDT,2.166,2.229,2.097,2.102,43913897.4,95482074.1870,193179
1645488000000,2022-02-22 00:00:00,EOS/USDT,2.070,2.178,2.026,2.166,55335378.4,116304889.0795,232258
1645401600000,2022-02-21 00:00:00,EOS/USDT,2.196,2.272,2.060,2.069,80369139.9,176672174.4357,317666
1645315200000,2022-02-20 00:00:00,EOS/USDT,2.287,2.297,2.167,2.197,45441932.9,100416636.5111,209414
1645228800000,2022-02-19 00:00:00,EOS/USDT,2.294,2.336,2.227,2.286,48763785.9,111388771.1327,192709
1645142400000,2022-02-18 00:00:00,EOS/USDT,2.325,2.379,2.271,2.294,53063896.0,123502959.2806,232268
1645056000000,2022-02-17 00:00:00,EOS/USDT,2.547,2.582,2.290,2.325,56657898.1,138245146.7316,285372
1644969600000,2022-02-16 00:00:00,EOS/USDT,2.529,2.580,2.457,2.547,56432945.9,141751504.2437,270877
1644883200000,2022-02-15 00:00:00,EOS/USDT,2.369,2.537,2.362,2.529,36541488.4,89668821.4899,210764
1644796800000,2022-02-14 00:00:00,EOS/USDT,2.378,2.394,2.306,2.368,38634343.1,90823696.8338,203093
1644710400000,2022-02-13 00:00:00,EOS/USDT,2.395,2.430,2.346,2.377,33710582.6,80732323.1440,177234
1644624000000,2022-02-12 00:00:00,EOS/USDT,2.411,2.434,2.327,2.395,47158615.9,112574918.5479,232916
1644537600000,2022-02-11 00:00:00,EOS/USDT,2.547,2.599,2.381,2.411,63288617.9,159973269.1930,305614
1644451200000,2022-02-10 00:00:00,EOS/USDT,2.669,2.766,2.543,2.547,76512427.2,203266372.2562,371359
1644364800000,2022-02-09 00:00:00,EOS/USDT,2.629,2.698,2.585,2.668,44383753.0,117596689.8423,228225
1644278400000,2022-02-08 00:00:00,EOS/USDT,2.694,2.767,2.540,2.630,71365428.0,188198159.9675,353439
1644192000000,2022-02-07 00:00:00,EOS/USDT,2.536,2.719,2.488,2.695,74092530.6,193175640.2240,329176
1644105600000,2022-02-06 00:00:00,EOS/USDT,2.475,2.549,2.429,2.536,40909035.9,101776025.2713,187785
1644019200000,2022-02-05 00:00:00,EOS/USDT,2.480,2.528,2.441,2.476,48043826.4,119628776.4855,209672
1643932800000,2022-02-04 00:00:00,EOS/USDT,2.309,2.486,2.288,2.480,72699613.6,173342592.3230,305566
1643846400000,2022-02-03 00:00:00,EOS/USDT,2.275,2.311,2.227,2.309,54711355.7,124115720.9017,265969
1643760000000,2022-02-02 00:00:00,EOS/USDT,2.353,2.456,2.258,2.275,70976747.8,167886089.2393,308460
1643673600000,2022-02-01 00:00:00,EOS/USDT,2.335,2.371,2.308,2.353,45583005.0,106536638.2418,214635
1643587200000,2022-01-31 00:00:00,EOS/USDT,2.315,2.348,2.204,2.335,56828406.4,129714444.8031,237303
1643500800000,2022-01-30 00:00:00,EOS/USDT,2.335,2.367,2.259,2.315,40875183.0,94938557.5697,199836
1643414400000,2022-01-29 00:00:00,EOS/USDT,2.307,2.381,2.285,2.336,40583947.2,94452036.9723,215910
1643328000000,2022-01-28 00:00:00,EOS/USDT,2.222,2.320,2.180,2.307,66817839.2,149290352.0606,295104
1643241600000,2022-01-27 00:00:00,EOS/USDT,2.211,2.246,2.122,2.221,73630788.3,160930623.0878,297766
1643155200000,2022-01-26 00:00:00,EOS/USDT,2.223,2.382,2.181,2.211,86121228.3,195084579.2183,357401
1643068800000,2022-01-25 00:00:00,EOS/USDT,2.196,2.235,2.155,2.223,62922104.3,137942181.5740,275564
1642982400000,2022-01-24 00:00:00,EOS/USDT,2.271,2.273,1.989,2.195,129375563.8,272772922.5630,526168
1642896000000,2022-01-23 00:00:00,EOS/USDT,2.220,2.290,2.157,2.271,80406851.9,179199501.2406,336518
1642809600000,2022-01-22 00:00:00,EOS/USDT,2.367,2.432,2.003,2.220,200067140.8,444699977.0246,735023
1642723200000,2022-01-21 00:00:00,EOS/USDT,2.632,2.666,2.291,2.368,133879866.3,334735878.2906,589814
1642636800000,2022-01-20 00:00:00,EOS/USDT,2.736,2.855,2.613,2.632,50369044.3,138780956.3649,304972
1642550400000,2022-01-19 00:00:00,EOS/USDT,2.824,2.873,2.701,2.738,60320949.7,167286850.5479,308444
1642464000000,2022-01-18 00:00:00,EOS/USDT,2.830,2.936,2.744,2.823,75336540.3,212793991.5087,353142
1642377600000,2022-01-17 00:00:00,EOS/USDT,2.904,2.908,2.774,2.830,48495937.4,138017532.9826,252650
1642291200000,2022-01-16 00:00:00,EOS/USDT,2.908,2.948,2.861,2.903,34230988.2,99584024.9335,189884
1642204800000,2022-01-15 00:00:00,EOS/USDT,2.860,2.954,2.844,2.909,45126171.8,130771405.6612,232838
1642118400000,2022-01-14 00:00:00,EOS/USDT,2.790,2.929,2.769,2.861,55378023.3,157956545.7399,282683
1642032000000,2022-01-13 00:00:00,EOS/USDT,2.885,2.904,2.781,2.790,40441818.7,115199346.5255,233873
1641945600000,2022-01-12 00:00:00,EOS/USDT,2.767,2.911,2.761,2.885,45456238.2,128828877.4269,252588
1641859200000,2022-01-11 00:00:00,EOS/USDT,2.700,2.800,2.686,2.768,49886452.0,136614695.8884,252618
1641772800000,2022-01-10 00:00:00,EOS/USDT,2.792,2.824,2.572,2.700,87235989.5,234375033.2038,408084
1641686400000,2022-01-09 00:00:00,EOS/USDT,2.749,2.841,2.736,2.792,38726897.5,108184625.2933,221519
1641600000000,2022-01-08 00:00:00,EOS/USDT,2.839,2.897,2.663,2.750,58877107.0,164721908.7828,354567
1641513600000,2022-01-07 00:00:00,EOS/USDT,2.920,2.927,2.698,2.838,98945657.4,279394943.3776,511358
1641427200000,2022-01-06 00:00:00,EOS/USDT,2.895,2.936,2.808,2.920,61449215.1,176561711.7187,353373
1641340800000,2022-01-05 00:00:00,EOS/USDT,3.166,3.234,2.775,2.894,81145598.6,248715443.0315,441886
1641254400000,2022-01-04 00:00:00,EOS/USDT,3.195,3.259,3.141,3.167,53181739.1,170412991.2746,264152
1641168000000,2022-01-03 00:00:00,EOS/USDT,3.251,3.252,3.133,3.194,43449098.9,138789164.2472,238506
1641081600000,2022-01-02 00:00:00,EOS/USDT,3.157,3.276,3.131,3.252,54031201.2,172792005.5498,299378
1640995200000,2022-01-01 00:00:00,EOS/USDT,3.033,3.160,3.032,3.158,32792996.4,101023702.1453,204789
1640908800000,2021-12-31 00:00:00,EOS/USDT,3.075,3.150,2.972,3.032,54246240.1,167038391.0404,298487
1640822400000,2021-12-30 00:00:00,EOS/USDT,3.027,3.115,2.956,3.076,53487599.7,162960786.6340,295574
1640736000000,2021-12-29 00:00:00,EOS/USDT,3.128,3.218,3.003,3.027,70912841.7,221089300.5382,350620
1640649600000,2021-12-28 00:00:00,EOS/USDT,3.391,3.392,3.101,3.127,77245826.8,250446472.4341,411841
1640563200000,2021-12-27 00:00:00,EOS/USDT,3.394,3.499,3.368,3.391,52228625.6,179657041.5068,290120
1640476800000,2021-12-26 00:00:00,EOS/USDT,3.407,3.415,3.310,3.393,43320130.9,145867763.1071,244321
1640390400000,2021-12-25 00:00:00,EOS/USDT,3.378,3.448,3.354,3.408,40094551.1,136580964.6186,235743
1640304000000,2021-12-24 00:00:00,EOS/USDT,3.501,3.520,3.351,3.378,52571376.9,181589651.8886,309996
1640217600000,2021-12-23 00:00:00,EOS/USDT,3.348,3.530,3.303,3.500,69670987.9,237143002.4318,405683
1640131200000,2021-12-22 00:00:00,EOS/USDT,3.311,3.430,3.282,3.349,65705041.4,220551357.8814,380218
1640044800000,2021-12-21 00:00:00,EOS/USDT,3.187,3.360,3.171,3.311,81253820.1,267446978.6796,446305
1639958400000,2021-12-20 00:00:00,EOS/USDT,3.187,3.339,3.088,3.187,102881786.6,328518311.9307,574327
1639872000000,2021-12-19 00:00:00,EOS/USDT,3.240,3.306,3.172,3.187,59808196.2,193822934.6952,321145
1639785600000,2021-12-18 00:00:00,EOS/USDT,3.151,3.309,3.107,3.240,56460108.4,182138742.2105,335166
1639699200000,2021-12-17 00:00:00,EOS/USDT,3.209,3.267,3.051,3.150,85581590.0,270709608.5058,471985
1639612800000,2021-12-16 00:00:00,EOS/USDT,3.362,3.400,3.190,3.209,87101420.6,288863104.4294,494635
1639526400000,2021-12-15 00:00:00,EOS/USDT,3.351,3.496,3.133,3.362,152862010.3,508670759.4722,815770
1639440000000,2021-12-14 00:00:00,EOS/USDT,3.092,3.429,3.042,3.350,240347614.0,791487807.2396,1106680
1639353600000,2021-12-13 00:00:00,EOS/USDT,3.330,3.396,3.005,3.091,151404306.9,483675283.8872,703257
1639267200000,2021-12-12 00:00:00,EOS/USDT,3.411,3.511,3.234,3.331,108710433.3,365945141.4031,490603
1639180800000,2021-12-11 00:00:00,EOS/USDT,3.036,3.567,2.982,3.412,244510388.2,832229730.5192,1004404
1639094400000,2021-12-10 00:00:00,EOS/USDT,3.219,3.343,3.020,3.037,121378690.1,387694065.8779,542836
1639008000000,2021-12-09 00:00:00,EOS/USDT,3.648,3.713,3.206,3.218,169556580.0,581741146.5968,801751
1638921600000,2021-12-08 00:00:00,EOS/USDT,3.219,3.888,3.116,3.649,338817314.3,1229776475.9604,1613952
1638835200000,2021-12-07 00:00:00,EOS/USDT,3.270,3.331,3.169,3.220,80157051.3,259873137.6317,419955
1638748800000,2021-12-06 00:00:00,EOS/USDT,3.031,3.295,2.806,3.270,180006414.5,555221708.9239,842511
1638662400000,2021-12-05 00:00:00,EOS/USDT,3.143,3.188,2.852,3.030,111344239.0,336132733.3390,527253
1638576000000,2021-12-04 00:00:00,EOS/USDT,3.791,3.807,2.366,3.142,278999269.8,847367278.1809,1093198
1638489600000,2021-12-03 00:00:00,EOS/USDT,3.966,4.172,3.642,3.791,87055948.4,342801302.1160,509575
1638403200000,2021-12-02 00:00:00,EOS/USDT,3.991,4.010,3.854,3.966,43904092.4,173531246.2052,306598
1638316800000,2021-12-01 00:00:00,EOS/USDT,4.006,4.119,3.932,3.992,49778772.1,201212341.7356,326312
1638230400000,2021-11-30 00:00:00,EOS/USDT,4.004,4.177,3.876,4.006,79586305.7,320705357.7269,493134
1638144000000,2021-11-29 00:00:00,EOS/USDT,3.966,4.045,3.902,4.004,47949803.1,190465037.2781,309873
1638057600000,2021-11-28 00:00:00,EOS/USDT,3.896,3.970,3.656,3.966,66305261.4,253202829.4121,428363
1637971200000,2021-11-27 00:00:00,EOS/USDT,3.852,3.977,3.832,3.896,44983003.6,175778437.7938,312753
1637884800000,2021-11-26 00:00:00,EOS/USDT,4.256,4.272,3.733,3.852,114886579.7,451907041.0137,618724
1637798400000,2021-11-25 00:00:00,EOS/USDT,4.122,4.318,4.097,4.256,46701440.7,197182657.9328,338297
1637712000000,2021-11-24 00:00:00,EOS/USDT,4.235,4.264,4.001,4.123,53134900.3,219160006.2996,379909
1637625600000,2021-11-23 00:00:00,EOS/USDT,4.136,4.255,4.054,4.235,54032204.9,225095920.4114,403826
1637539200000,2021-11-22 00:00:00,EOS/USDT,4.246,4.289,4.053,4.135,68595433.5,286007721.9766,458284
1637452800000,2021-11-21 00:00:00,EOS/USDT,4.343,4.385,4.230,4.244,38858075.5,166826353.9954,294790
1637366400000,2021-11-20 00:00:00,EOS/USDT,4.288,4.352,4.170,4.342,46144058.7,197869004.0128,325399
1637280000000,2021-11-19 00:00:00,EOS/USDT,4.087,4.319,4.047,4.287,63531272.6,267347747.4507,416517
1637193600000,2021-11-18 00:00:00,EOS/USDT,4.368,4.444,3.930,4.087,96318324.8,401051941.7073,629355
1637107200000,2021-11-17 00:00:00,EOS/USDT,4.327,4.413,4.170,4.368,68203257.3,293962424.1943,478940
1637020800000,2021-11-16 00:00:00,EOS/USDT,4.810,4.813,4.046,4.326,115698927.0,513509252.3532,811063
1636934400000,2021-11-15 00:00:00,EOS/USDT,4.956,5.100,4.761,4.810,55297554.2,274081820.6596,438417
1636848000000,2021-11-14 00:00:00,EOS/USDT,5.011,5.093,4.832,4.955,43445122.0,214601192.7025,339284
1636761600000,2021-11-13 00:00:00,EOS/USDT,4.850,5.073,4.797,5.011,47177039.1,233304641.8867,386436
1636675200000,2021-11-12 00:00:00,EOS/USDT,4.923,5.108,4.666,4.849,99781608.8,489736635.9265,603404
1636588800000,2021-11-11 00:00:00,EOS/USDT,4.841,5.030,4.795,4.924,59251161.3,291891523.5727,436449
1636502400000,2021-11-10 00:00:00,EOS/USDT,5.214,5.400,4.504,4.842,155921417.2,794224950.9611,1042020
1636416000000,2021-11-09 00:00:00,EOS/USDT,4.866,5.390,4.840,5.215,191135839.4,981075769.4677,1154760
1636329600000,2021-11-08 00:00:00,EOS/USDT,4.605,4.898,4.585,4.866,71559113.1,337330080.2763,444931
1636243200000,2021-11-07 00:00:00,EOS/USDT,4.450,4.606,4.420,4.605,34331254.1,154324694.8093,286937
1636156800000,2021-11-06 00:00:00,EOS/USDT,4.508,4.553,4.219,4.450,50738800.3,224227883.8262,349946
1636070400000,2021-11-05 00:00:00,EOS/USDT,4.546,4.603,4.460,4.508,43623340.3,197513214.6920,344556
1635984000000,2021-11-04 00:00:00,EOS/USDT,4.711,4.764,4.436,4.546,57274878.3,262348513.5431,418128
1635897600000,2021-11-03 00:00:00,EOS/USDT,4.705,4.878,4.511,4.711,93253446.5,437674254.6788,618015
1635811200000,2021-11-02 00:00:00,EOS/USDT,4.641,4.799,4.580,4.705,47338840.4,222542106.0668,375580
1635724800000,2021-11-01 00:00:00,EOS/USDT,4.638,4.720,4.459,4.641,67574017.2,311286178.2052,465356
1635638400000,2021-10-31 00:00:00,EOS/USDT,4.483,4.774,4.439,4.638,81013969.5,371440874.8715,510774
1635552000000,2021-10-30 00:00:00,EOS/USDT,4.502,4.524,4.351,4.485,45402175.1,202083225.0610,334453
1635465600000,2021-10-29 00:00:00,EOS/USDT,4.401,4.545,4.375,4.503,49643482.9,221430877.4923,371449
1635379200000,2021-10-28 00:00:00,EOS/USDT,4.149,4.496,4.131,4.402,88881270.9,386316150.0828,544369
1635292800000,2021-10-27 00:00:00,EOS/USDT,4.719,4.779,3.750,4.149,143061946.6,614218426.0186,788986
1635206400000,2021-10-26 00:00:00,EOS/USDT,4.824,4.940,4.655,4.720,62825170.6,303014303.9655,442535
1635120000000,2021-10-25 00:00:00,EOS/USDT,4.749,4.854,4.717,4.823,52285348.4,251396353.6466,379065
1635033600000,2021-10-24 00:00:00,EOS/USDT,4.752,5.094,4.660,4.748,123897193.0,603616434.4334,753476
1634947200000,2021-10-23 00:00:00,EOS/USDT,4.619,4.774,4.586,4.752,44556712.4,209105718.6835,350072
1634860800000,2021-10-22 00:00:00,EOS/USDT,4.672,4.794,4.555,4.618,56418766.6,264408255.3577,444244
1634774400000,2021-10-21 00:00:00,EOS/USDT,4.834,4.959,4.599,4.672,97767155.2,468388114.1422,644120
1634688000000,2021-10-20 00:00:00,EOS/USDT,4.462,4.898,4.450,4.834,75252855.0,350342632.2145,518021
1634601600000,2021-10-19 00:00:00,EOS/USDT,4.422,4.521,4.365,4.462,51980246.0,231553794.0747,407589
1634515200000,2021-10-18 00:00:00,EOS/USDT,4.412,4.570,4.359,4.423,70422152.8,314515212.7668,484183
1634428800000,2021-10-17 00:00:00,EOS/USDT,4.574,4.606,4.204,4.413,60225939.1,269091237.5204,435087
1634342400000,2021-10-16 00:00:00,EOS/USDT,4.649,4.723,4.527,4.573,61024558.9,282289241.7093,419399
1634256000000,2021-10-15 00:00:00,EOS/USDT,4.627,4.743,4.443,4.648,108225355.0,498272719.7814,612843
1634169600000,2021-10-14 00:00:00,EOS/USDT,4.607,4.739,4.551,4.628,69270174.8,320561033.0670,477490
1634083200000,2021-10-13 00:00:00,EOS/USDT,4.493,4.613,4.370,4.607,82870425.3,372970991.8482,535438
1633996800000,2021-10-12 00:00:00,EOS/USDT,4.549,4.551,4.257,4.493,104856185.8,463458435.2286,634827
1633910400000,2021-10-11 00:00:00,EOS/USDT,4.576,4.760,4.425,4.549,86458780.4,399054003.2596,578782
1633824000000,2021-10-10 00:00:00,EOS/USDT,5.006,5.013,4.560,4.576,80600287.0,388076460.8826,591852
1633737600000,2021-10-09 00:00:00,EOS/USDT,4.652,5.072,4.612,5.006,82952467.6,403431602.0498,548856
1633651200000,2021-10-08 00:00:00,EOS/USDT,4.725,4.838,4.569,4.651,74918560.6,353610203.0295,520361
1633564800000,2021-10-07 00:00:00,EOS/USDT,4.753,4.844,4.551,4.725,103804233.4,487454754.6574,666919
1633478400000,2021-10-06 00:00:00,EOS/USDT,4.734,4.929,4.370,4.753,129862755.2,607886773.3513,799897
1633392000000,2021-10-05 00:00:00,EOS/USDT,4.594,4.790,4.545,4.733,89279996.0,417084582.1944,639294
1633305600000,2021-10-04 00:00:00,EOS/USDT,4.641,4.746,4.330,4.593,114684203.7,519779815.5903,783214
1633219200000,2021-10-03 00:00:00,EOS/USDT,4.322,4.865,4.220,4.642,118573913.7,548475546.3772,808768
1633132800000,2021-10-02 00:00:00,EOS/USDT,4.275,4.463,4.188,4.322,61586481.1,265602869.6351,448981
1633046400000,2021-10-01 00:00:00,EOS/USDT,3.937,4.290,3.904,4.275,86543110.4,357128125.9877,554281
1632960000000,2021-09-30 00:00:00,EOS/USDT,3.741,3.946,3.717,3.936,60144786.2,233016152.2690,433536
1632873600000,2021-09-29 00:00:00,EOS/USDT,3.678,3.869,3.632,3.741,65233256.6,245851982.1815,466530
1632787200000,2021-09-28 00:00:00,EOS/USDT,3.825,3.899,3.652,3.678,72174040.4,274052037.2179,522342
1632700800000,2021-09-27 00:00:00,EOS/USDT,3.968,4.110,3.818,3.824,72904301.3,289064679.3461,536313
1632614400000,2021-09-26 00:00:00,EOS/USDT,4.008,4.154,3.670,3.969,114767427.2,448681724.8731,726552
1632528000000,2021-09-25 00:00:00,EOS/USDT,4.026,4.097,3.901,4.009,74544075.2,299064308.6331,551352
1632441600000,2021-09-24 00:00:00,EOS/USDT,4.370,4.388,3.781,4.025,127432483.9,513610597.4778,761042
1632355200000,2021-09-23 00:00:00,EOS/USDT,4.300,4.388,4.190,4.370,67690642.7,291091079.0085,497115
1632268800000,2021-09-22 00:00:00,EOS/USDT,3.885,4.329,3.804,4.300,96478928.1,395751457.8500,743127
1632182400000,2021-09-21 00:00:00,EOS/USDT,4.201,4.308,3.782,3.885,157421632.7,643785433.3303,1077518
1632096000000,2021-09-20 00:00:00,EOS/USDT,4.909,4.933,4.065,4.201,178758022.9,791757094.1518,1288757
1632009600000,2021-09-19 00:00:00,EOS/USDT,5.471,5.512,4.851,4.909,87032132.4,447608674.8191,848971
1631923200000,2021-09-18 00:00:00,EOS/USDT,5.255,5.507,5.105,5.472,108155323.0,576573521.3146,967539
1631836800000,2021-09-17 00:00:00,EOS/USDT,5.022,5.528,4.951,5.255,189146869.3,996043809.0399,1459610
1631750400000,2021-09-16 00:00:00,EOS/USDT,5.109,5.189,4.877,5.021,79200954.6,399671205.7563,760939
1631664000000,2021-09-15 00:00:00,EOS/USDT,4.866,5.162,4.768,5.109,72752686.8,360619166.7663,709499
1631577600000,2021-09-14 00:00:00,EOS/USDT,4.742,4.882,4.704,4.866,66718060.8,320720046.8076,721584
1631491200000,2021-09-13 00:00:00,EOS/USDT,4.883,4.949,4.482,4.742,110700091.2,518286974.2892,1009964
1631404800000,2021-09-12 00:00:00,EOS/USDT,4.677,4.950,4.575,4.883,76682243.6,368727487.0925,782330
1631318400000,2021-09-11 00:00:00,EOS/USDT,4.567,4.791,4.548,4.677,69727148.5,327180900.1095,716229
1631232000000,2021-09-10 00:00:00,EOS/USDT,4.819,5.059,4.450,4.566,111196157.0,525969289.9114,943386
1631145600000,2021-09-09 00:00:00,EOS/USDT,4.745,4.953,4.654,4.819,111751868.1,538367558.2368,909751
1631059200000,2021-09-08 00:00:00,EOS/USDT,4.885,4.963,4.420,4.745,153690989.6,724526333.5403,1114361
1630972800000,2021-09-07 00:00:00,EOS/USDT,6.223,6.264,3.930,4.886,312748063.0,1648396765.1666,1925205
1630886400000,2021-09-06 00:00:00,EOS/USDT,6.302,6.435,5.896,6.224,166789205.0,1034687710.7915,1230001
1630800000000,2021-09-05 00:00:00,EOS/USDT,5.699,6.343,5.504,6.301,169009715.5,1008287007.9376,1290517
1630713600000,2021-09-04 00:00:00,EOS/USDT,5.677,5.899,5.550,5.698,143621828.7,819887595.5846,1159425
1630627200000,2021-09-03 00:00:00,EOS/USDT,5.261,5.750,5.135,5.677,145824971.0,800826721.9546,1110001
1630540800000,2021-09-02 00:00:00,EOS/USDT,5.318,5.395,5.170,5.262,87161786.2,461546969.1617,768278
1630454400000,2021-09-01 00:00:00,EOS/USDT,5.040,5.341,4.908,5.317,91091397.2,466829952.2854,798336
1630368000000,2021-08-31 00:00:00,EOS/USDT,4.823,5.108,4.755,5.040,102349646.1,507357993.1583,826734
1630281600000,2021-08-30 00:00:00,EOS/USDT,5.061,5.083,4.800,4.822,73570725.6,363130364.0647,657407
1630195200000,2021-08-29 00:00:00,EOS/USDT,5.011,5.246,4.972,5.061,85157544.2,432832081.1504,732034
1630108800000,2021-08-28 00:00:00,EOS/USDT,5.092,5.106,4.880,5.011,59989904.6,299461050.8159,631367
1630022400000,2021-08-27 00:00:00,EOS/USDT,4.743,5.094,4.621,5.091,99467933.7,483546489.0689,799687
1629936000000,2021-08-26 00:00:00,EOS/USDT,5.211,5.282,4.650,4.743,112371369.2,553374541.6070,920164
1629849600000,2021-08-25 00:00:00,EOS/USDT,5.062,5.255,4.905,5.212,105736129.6,539457921.1120,847999
1629763200000,2021-08-24 00:00:00,EOS/USDT,5.601,5.700,4.867,5.062,137221427.9,731025912.5868,1019437
1629676800000,2021-08-23 00:00:00,EOS/USDT,5.420,5.717,5.363,5.601,103371429.5,574973619.3909,873258
1629590400000,2021-08-22 00:00:00,EOS/USDT,5.362,5.555,5.204,5.419,92128899.4,497034197.4273,793269
1629504000000,2021-08-21 00:00:00,EOS/USDT,5.460,5.656,5.275,5.362,101228183.6,551891790.8289,878134
1629417600000,2021-08-20 00:00:00,EOS/USDT,5.257,5.482,5.190,5.459,92280679.7,490586019.8244,770307
1629331200000,2021-08-19 00:00:00,EOS/USDT,4.981,5.261,4.813,5.256,108947224.6,543254582.2834,874533
1629244800000,2021-08-18 00:00:00,EOS/USDT,5.065,5.178,4.727,4.981,155088865.1,772950047.3327,1108487
1629158400000,2021-08-17 00:00:00,EOS/USDT,5.519,5.692,5.005,5.066,182090751.5,982856518.4101,1297743
1629072000000,2021-08-16 00:00:00,EOS/USDT,5.703,5.951,5.445,5.519,153308574.9,880241291.1002,1178635
1628985600000,2021-08-15 00:00:00,EOS/USDT,5.490,5.716,5.120,5.702,145806219.1,782978090.5694,1080133
1628899200000,2021-08-14 00:00:00,EOS/USDT,5.161,5.560,5.040,5.490,193375114.9,1024991250.1798,1279299
1628812800000,2021-08-13 00:00:00,EOS/USDT,4.663,5.165,4.607,5.161,122156576.5,599752134.6135,867801
1628726400000,2021-08-12 00:00:00,EOS/USDT,4.756,5.096,4.540,4.662,154701093.8,738567501.2080,1050699
1628640000000,2021-08-11 00:00:00,EOS/USDT,4.601,4.983,4.591,4.756,116698103.3,557712244.4597,878007
1628553600000,2021-08-10 00:00:00,EOS/USDT,4.538,4.724,4.405,4.601,108988059.9,497274365.4700,838495
1628467200000,2021-08-09 00:00:00,EOS/USDT,4.299,4.568,4.162,4.537,104405741.8,460306214.9659,822800
1628380800000,2021-08-08 00:00:00,EOS/USDT,4.594,4.671,4.230,4.298,102181107.1,453631370.6907,792509
1628294400000,2021-08-07 00:00:00,EOS/USDT,4.324,4.651,4.282,4.594,124490589.1,561305132.1162,936835
1628208000000,2021-08-06 00:00:00,EOS/USDT,4.192,4.356,4.103,4.324,81006673.7,342218457.4225,729964
1628121600000,2021-08-05 00:00:00,EOS/USDT,4.117,4.219,3.941,4.192,94498749.2,386748385.3240,770119
1628035200000,2021-08-04 00:00:00,EOS/USDT,4.025,4.155,3.926,4.117,65565190.5,266100189.8403,631934
1627948800000,2021-08-03 00:00:00,EOS/USDT,4.027,4.098,3.865,4.025,73448450.9,292795538.9689,683548
1627862400000,2021-08-02 00:00:00,EOS/USDT,3.937,4.160,3.889,4.028,91109878.5,368675587.9247,735086
1627776000000,2021-08-01 00:00:00,EOS/USDT,4.070,4.233,3.844,3.938,108565696.1,445442361.8881,903407
1627689600000,2021-07-31 00:00:00,EOS/USDT,4.066,4.200,4.000,4.069,86523745.8,352659500.7422,752254
1627603200000,2021-07-30 00:00:00,EOS/USDT,3.967,4.078,3.777,4.066,78901621.2,309091194.3105,732257
1627516800000,2021-07-29 00:00:00,EOS/USDT,3.920,3.988,3.801,3.966,63329652.7,245372767.0164,676702
1627430400000,2021-07-28 00:00:00,EOS/USDT,3.754,4.018,3.680,3.921,129269755.5,501498596.4199,1019129
1627344000000,2021-07-27 00:00:00,EOS/USDT,3.678,3.790,3.601,3.754,90764591.9,335563893.7363,810760
1627257600000,2021-07-26 00:00:00,EOS/USDT,3.656,4.000,3.627,3.678,144487394.0,554621761.3795,1020084
1627171200000,2021-07-25 00:00:00,EOS/USDT,3.664,3.696,3.545,3.656,61977395.3,224428702.3239,685791
1627084800000,2021-07-24 00:00:00,EOS/USDT,3.634,3.739,3.614,3.664,65749170.0,240971667.5114,671568
1626998400000,2021-07-23 00:00:00,EOS/USDT,3.562,3.664,3.451,3.634,66163790.7,234919357.7167,694045
1626912000000,2021-07-22 00:00:00,EOS/USDT,3.502,3.580,3.417,3.563,77402395.7,271515102.4006,731348
1626825600000,2021-07-21 00:00:00,EOS/USDT,3.257,3.570,3.207,3.502,109225103.9,373471095.8266,916498
1626739200000,2021-07-20 00:00:00,EOS/USDT,3.435,3.544,3.148,3.257,126701566.9,414717492.7575,971931
1626652800000,2021-07-19 00:00:00,EOS/USDT,3.636,3.683,3.397,3.435,84592866.3,298023318.7043,843184
1626566400000,2021-07-18 00:00:00,EOS/USDT,3.656,3.775,3.550,3.635,70640635.0,259433189.6294,780730
1626480000000,2021-07-17 00:00:00,EOS/USDT,3.652,3.780,3.580,3.655,115631768.4,423842428.5646,1013157
1626393600000,2021-07-16 00:00:00,EOS/USDT,3.671,3.836,3.528,3.652,118062938.3,433410985.1099,1009514
1626307200000,2021-07-15 00:00:00,EOS/USDT,3.797,3.917,3.550,3.671,104391482.4,387097421.1325,911296
1626220800000,2021-07-14 00:00:00,EOS/USDT,3.890,3.928,3.588,3.797,143864739.7,540205244.0954,1029241
1626134400000,2021-07-13 00:00:00,EOS/USDT,4.188,4.215,3.781,3.889,144226076.2,574583075.3736,1063118
1626048000000,2021-07-12 00:00:00,EOS/USDT,4.079,4.378,4.040,4.188,220764579.4,933767262.4116,1336216
1625961600000,2021-07-11 00:00:00,EOS/USDT,3.965,4.178,3.833,4.078,130420152.8,524696796.2623,962327
1625875200000,2021-07-10 00:00:00,EOS/USDT,4.220,4.420,3.870,3.965,188305614.8,768166021.3730,1234231
1625788800000,2021-07-09 00:00:00,EOS/USDT,3.595,4.328,3.452,4.220,289256697.9,1160171870.6902,1559941
1625702400000,2021-07-08 00:00:00,EOS/USDT,3.822,3.840,3.518,3.595,84333282.1,307847092.2379,859204
1625616000000,2021-07-07 00:00:00,EOS/USDT,3.876,3.980,3.812,3.822,56293271.9,220383606.3100,748245
1625529600000,2021-07-06 00:00:00,EOS/USDT,3.809,4.006,3.780,3.876,72089742.8,279578910.6444,829943
1625443200000,2021-07-05 00:00:00,EOS/USDT,4.061,4.061,3.756,3.808,77494593.6,302016277.9754,762087
1625356800000,2021-07-04 00:00:00,EOS/USDT,4.051,4.187,3.951,4.061,69432602.2,283683954.0461,654973
1625270400000,2021-07-03 00:00:00,EOS/USDT,3.922,4.064,3.850,4.051,59481129.6,236499842.8334,712778
1625184000000,2021-07-02 00:00:00,EOS/USDT,3.920,4.001,3.742,3.922,89771272.4,344265473.0453,889449
1625097600000,2021-07-01 00:00:00,EOS/USDT,4.137,4.209,3.850,3.920,104198409.0,413482237.6005,973737
1625011200000,2021-06-30 00:00:00,EOS/USDT,4.130,4.306,3.832,4.138,115209074.6,465215951.1752,1047227
1624924800000,2021-06-29 00:00:00,EOS/USDT,3.851,4.294,3.836,4.129,125541650.7,514528484.0709,1005381
1624838400000,2021-06-28 00:00:00,EOS/USDT,3.775,3.945,3.686,3.852,73495291.4,279252471.8702,818311
1624752000000,2021-06-27 00:00:00,EOS/USDT,3.569,3.779,3.486,3.774,70638659.4,253480251.3879,801615
1624665600000,2021-06-26 00:00:00,EOS/USDT,3.531,3.657,3.348,3.570,101389945.1,352996811.1289,929974
1624579200000,2021-06-25 00:00:00,EOS/USDT,3.923,4.024,3.504,3.530,130511693.1,488496476.8621,1056639
1624492800000,2021-06-24 00:00:00,EOS/USDT,3.671,3.930,3.513,3.923,113842839.5,430248962.5444,964295
1624406400000,2021-06-23 00:00:00,EOS/USDT,3.387,3.806,3.250,3.669,126707443.1,458436459.7994,1071081
1624320000000,2021-06-22 00:00:00,EOS/USDT,3.517,3.759,3.037,3.387,229855228.2,777553398.6699,1479304
1624233600000,2021-06-21 00:00:00,EOS/USDT,4.506,4.522,3.502,3.518,176308485.2,694931229.5697,1426119
1624147200000,2021-06-20 00:00:00,EOS/USDT,4.460,4.533,4.100,4.505,89701953.7,389026805.7617,1083222
1624060800000,2021-06-19 00:00:00,EOS/USDT,4.561,4.704,4.446,4.458,62712979.3,287013536.8997,966168
1623974400000,2021-06-18 00:00:00,EOS/USDT,4.870,4.894,4.383,4.563,90194588.8,422412625.5989,1109828
1623888000000,2021-06-17 00:00:00,EOS/USDT,4.864,5.084,4.751,4.871,63828829.3,314898621.9450,1007089
1623801600000,2021-06-16 00:00:00,EOS/USDT,5.181,5.232,4.812,4.865,81537653.6,409024722.7293,1091746
1623715200000,2021-06-15 00:00:00,EOS/USDT,5.296,5.396,5.105,5.182,72964877.8,382145841.7548,1067966
1623628800000,2021-06-14 00:00:00,EOS/USDT,5.090,5.324,4.953,5.295,78028751.9,399830510.6105,1091685
1623542400000,2021-06-13 00:00:00,EOS/USDT,4.829,5.109,4.655,5.089,76310170.3,369026044.4514,1052947
1623456000000,2021-06-12 00:00:00,EOS/USDT,4.916,4.916,4.582,4.829,98295905.8,467525886.1652,1219475
1623369600000,2021-06-11 00:00:00,EOS/USDT,5.079,5.393,4.855,4.915,124457945.2,633973023.9352,1284817
1623283200000,2021-06-10 00:00:00,EOS/USDT,5.338,5.471,4.923,5.079,110581310.9,572760487.8960,1054858
1623196800000,2021-06-09 00:00:00,EOS/USDT,5.049,5.400,4.766,5.338,139766608.8,708741358.4090,1164195
1623110400000,2021-06-08 00:00:00,EOS/USDT,5.188,5.254,4.502,5.050,180432875.9,887017854.8579,1330099
1623024000000,2021-06-07 00:00:00,EOS/USDT,5.845,5.972,5.070,5.188,96782772.9,544060677.6602,990031
1622937600000,2021-06-06 00:00:00,EOS/USDT,5.774,5.954,5.711,5.844,57149140.4,333439439.1143,820772
1622851200000,2021-06-05 00:00:00,EOS/USDT,6.016,6.222,5.632,5.775,83009207.2,491681718.4182,1007039
1622764800000,2021-06-04 00:00:00,EOS/USDT,6.534,6.545,5.775,6.016,113621344.7,686217930.7224,1201560
1622678400000,2021-06-03 00:00:00,EOS/USDT,6.373,6.700,6.223,6.535,90936933.5,587297355.3301,1027604
1622592000000,2021-06-02 00:00:00,EOS/USDT,6.303,6.548,6.123,6.373,91311107.4,579627008.0773,1041948
1622505600000,2021-06-01 00:00:00,EOS/USDT,6.628,6.756,6.060,6.303,122966435.3,777146739.2519,1261229
1622419200000,2021-05-31 00:00:00,EOS/USDT,6.034,6.684,5.736,6.625,147706297.7,908150689.6313,1423177
1622332800000,2021-05-30 00:00:00,EOS/USDT,6.023,6.378,5.528,6.034,161766447.8,978734221.0816,1599863
1622246400000,2021-05-29 00:00:00,EOS/USDT,6.114,6.814,5.745,6.023,209190651.2,1311606679.4174,1983924
1622160000000,2021-05-28 00:00:00,EOS/USDT,7.023,7.075,5.826,6.114,234514749.0,1475338882.7778,2264769
1622073600000,2021-05-27 00:00:00,EOS/USDT,6.433,7.671,6.049,7.022,267097832.4,1855322722.9435,2375802
1621987200000,2021-05-26 00:00:00,EOS/USDT,5.691,6.511,5.534,6.433,144984945.4,894962475.6071,1596780
1621900800000,2021-05-25 00:00:00,EOS/USDT,5.641,6.000,5.053,5.691,181365420.4,994324194.1534,1785639
1621814400000,2021-05-24 00:00:00,EOS/USDT,4.288,5.643,4.164,5.640,196462532.2,951932329.1074,1745386
1621728000000,2021-05-23 00:00:00,EOS/USDT,5.102,5.324,3.566,4.286,228964808.7,998427063.2748,1977829
1621641600000,2021-05-22 00:00:00,EOS/USDT,5.554,5.667,4.896,5.102,148064052.0,784259649.5805,1496132
1621555200000,2021-05-21 00:00:00,EOS/USDT,6.645,6.926,4.836,5.554,183316945.6,1087521542.8747,1899954
1621468800000,2021-05-20 00:00:00,EOS/USDT,5.683,7.011,5.095,6.643,240451532.6,1495531471.9891,2151407
1621382400000,2021-05-19 00:00:00,EOS/USDT,9.329,9.489,3.992,5.684,367881573.7,2567354334.3653,3269356
1621296000000,2021-05-18 00:00:00,EOS/USDT,9.146,10.031,8.950,9.330,145257696.3,1366170496.8086,1799826
1621209600000,2021-05-17 00:00:00,EOS/USDT,10.112,10.134,8.595,9.145,213166469.2,1972955449.1585,2382904
1621123200000,2021-05-16 00:00:00,EOS/USDT,10.237,11.236,9.425,10.113,146314883.4,1511309525.4861,1773868
1621036800000,2021-05-15 00:00:00,EOS/USDT,11.160,11.941,10.111,10.236,207118257.8,2246085190.4864,2448533
1620950400000,2021-05-14 00:00:00,EOS/USDT,10.614,11.671,10.516,11.161,163923202.5,1819271930.1030,1901541
1620864000000,2021-05-13 00:00:00,EOS/USDT,10.366,11.646,9.300,10.615,355033966.8,3729496127.2648,3499926
1620777600000,2021-05-12 00:00:00,EOS/USDT,14.523,14.927,10.150,10.377,442902309.7,5645688189.6886,4740420
1620691200000,2021-05-11 00:00:00,EOS/USDT,9.271,14.558,8.774,14.527,571866428.7,6845051473.1696,6000371
1620604800000,2021-05-10 00:00:00,EOS/USDT,10.539,11.019,8.058,9.271,213840034.3,2126362082.1081,2305405
1620518400000,2021-05-09 00:00:00,EOS/USDT,10.355,11.122,9.098,10.540,172805778.4,1738818402.6224,1969324
1620432000000,2021-05-08 00:00:00,EOS/USDT,10.379,11.222,9.611,10.354,187133463.0,1939403009.8854,2183362
1620345600000,2021-05-07 00:00:00,EOS/USDT,11.490,13.306,9.566,10.378,352197719.9,4012884625.0521,3936619
1620259200000,2021-05-06 00:00:00,EOS/USDT,8.732,12.885,8.409,11.489,541775976.8,5771638517.6995,5055067
1620172800000,2021-05-05 00:00:00,EOS/USDT,6.342,8.853,6.200,8.732,206413637.6,1592501120.8864,1795230
1620086400000,2021-05-04 00:00:00,EOS/USDT,6.819,7.099,6.139,6.342,146665766.7,970213683.3122,1293060
1620000000000,2021-05-03 00:00:00,EOS/USDT,6.535,6.908,6.528,6.817,67370061.0,453748056.7498,624905
1619913600000,2021-05-02 00:00:00,EOS/USDT,6.621,6.707,6.171,6.535,59507985.1,386024652.6026,599323
1619827200000,2021-05-01 00:00:00,EOS/USDT,6.457,6.668,6.297,6.620,49148236.8,318235772.3524,491304
1619740800000,2021-04-30 00:00:00,EOS/USDT,5.899,6.465,5.784,6.457,70442379.7,437842674.5245,697935
1619654400000,2021-04-29 00:00:00,EOS/USDT,5.960,6.064,5.613,5.899,61225782.6,359244029.7709,622595
1619568000000,2021-04-28 00:00:00,EOS/USDT,6.066,6.231,5.685,5.959,72921877.5,431630631.5672,727106
1619481600000,2021-04-27 00:00:00,EOS/USDT,5.867,6.113,5.751,6.066,73270033.3,436476554.8100,723630
1619395200000,2021-04-26 00:00:00,EOS/USDT,5.002,5.908,4.924,5.868,96699821.1,534933715.9330,923404
1619308800000,2021-04-25 00:00:00,EOS/USDT,5.089,5.469,4.610,5.001,69557882.6,356033003.2362,713304
1619222400000,2021-04-24 00:00:00,EOS/USDT,5.573,5.596,5.027,5.088,68049971.7,358051726.2286,746079
1619136000000,2021-04-23 00:00:00,EOS/USDT,5.862,6.008,4.441,5.574,176076940.6,912679913.9512,1278081
1619049600000,2021-04-22 00:00:00,EOS/USDT,6.323,6.833,5.587,5.864,103036217.8,655531891.2209,1055540
1618963200000,2021-04-21 00:00:00,EOS/USDT,6.699,6.861,6.227,6.323,71369452.2,468579829.6658,752551
1618876800000,2021-04-20 00:00:00,EOS/USDT,6.606,6.860,6.054,6.702,96613674.5,624108569.7613,924755
1618790400000,2021-04-19 00:00:00,EOS/USDT,7.290,7.502,6.482,6.606,111130204.6,775267555.9051,1014469
1618704000000,2021-04-18 00:00:00,EOS/USDT,7.794,7.956,5.629,7.292,206973939.8,1397102316.2059,1565025
1618617600000,2021-04-17 00:00:00,EOS/USDT,8.517,8.878,7.600,7.795,128785327.7,1061847281.5670,1239635
1618531200000,2021-04-16 00:00:00,EOS/USDT,7.900,8.774,7.050,8.516,194705859.3,1547638230.1250,1597966
1618444800000,2021-04-15 00:00:00,EOS/USDT,7.681,7.944,7.287,7.899,88382101.6,675643617.5375,831261
1618358400000,2021-04-14 00:00:00,EOS/USDT,7.394,8.112,7.020,7.680,178376988.0,1357660688.2952,1480992
1618272000000,2021-04-13 00:00:00,EOS/USDT,6.486,7.570,6.430,7.394,121541399.2,862907175.3819,1068530
1618185600000,2021-04-12 00:00:00,EOS/USDT,6.738,6.888,6.292,6.485,61601911.4,407072567.5643,611732
1618099200000,2021-04-11 00:00:00,EOS/USDT,6.626,7.092,6.566,6.738,75638409.4,514939795.9332,812700
1618012800000,2021-04-10 00:00:00,EOS/USDT,6.218,6.778,6.160,6.625,71665390.9,463514873.7506,702110
1617926400000,2021-04-09 00:00:00,EOS/USDT,6.451,6.613,6.075,6.217,54603895.8,346218694.9840,546848
1617840000000,2021-04-08 00:00:00,EOS/USDT,5.892,6.485,5.811,6.452,76208921.5,472272486.1975,681843
1617753600000,2021-04-07 00:00:00,EOS/USDT,6.655,7.060,5.733,5.891,163700875.0,1027759094.0263,1237521
1617667200000,2021-04-06 00:00:00,EOS/USDT,6.704,7.126,6.150,6.654,158143948.2,1053842993.3799,1173944
1617580800000,2021-04-05 00:00:00,EOS/USDT,6.288,7.105,5.835,6.702,173218992.3,1114060466.2871,1158506
1617494400000,2021-04-04 00:00:00,EOS/USDT,5.417,6.313,5.336,6.289,124928929.5,729837198.5509,836993
1617408000000,2021-04-03 00:00:00,EOS/USDT,6.265,6.510,5.217,5.418,180592868.9,1067074994.7393,1171558
1617321600000,2021-04-02 00:00:00,EOS/USDT,5.607,6.374,5.381,6.266,171248344.6,1005389329.9644,1217334
1617235200000,2021-04-01 00:00:00,EOS/USDT,4.813,6.003,4.720,5.606,191015381.4,1012127745.9947,1285398
1617148800000,2021-03-31 00:00:00,EOS/USDT,4.345,4.915,4.059,4.813,107190419.8,477276103.3368,995416
1617062400000,2021-03-30 00:00:00,EOS/USDT,4.282,4.417,4.210,4.344,41755499.2,179937805.9190,393029
1616976000000,2021-03-29 00:00:00,EOS/USDT,4.113,4.320,4.069,4.282,45188161.4,190843586.9727,408117
1616889600000,2021-03-28 00:00:00,EOS/USDT,4.095,4.221,4.034,4.113,44141705.6,182521681.7458,435342
1616803200000,2021-03-27 00:00:00,EOS/USDT,4.192,4.206,3.980,4.097,39147349.7,160376840.0192,401047
1616716800000,2021-03-26 00:00:00,EOS/USDT,3.676,4.197,3.673,4.191,81025730.2,323012469.7027,703881
1616630400000,2021-03-25 00:00:00,EOS/USDT,3.692,3.781,3.526,3.677,80382887.3,295763729.3225,754372
1616544000000,2021-03-24 00:00:00,EOS/USDT,4.093,4.313,3.443,3.694,82108425.1,328684630.5506,755199
1616457600000,2021-03-23 00:00:00,EOS/USDT,4.082,4.271,4.040,4.093,55325450.0,229080417.7623,572447
1616371200000,2021-03-22 00:00:00,EOS/USDT,4.160,4.354,4.002,4.082,69610668.1,292895705.3260,684957
1616284800000,2021-03-21 00:00:00,EOS/USDT,4.337,4.425,4.117,4.160,54523425.5,231148721.2525,515936
1616198400000,2021-03-20 00:00:00,EOS/USDT,4.144,4.512,4.130,4.337,69338361.3,303452085.9889,524631
1616112000000,2021-03-19 00:00:00,EOS/USDT,4.150,4.271,4.027,4.144,44686032.9,187011254.6503,396600
1616025600000,2021-03-18 00:00:00,EOS/USDT,4.093,4.337,4.061,4.150,67706560.6,282893656.3860,516817
1615939200000,2021-03-17 00:00:00,EOS/USDT,4.072,4.100,3.860,4.093,40854508.7,162505099.3558,387507
1615852800000,2021-03-16 00:00:00,EOS/USDT,3.817,4.144,3.671,4.071,74870602.5,297111321.8212,584697
1615766400000,2021-03-15 00:00:00,EOS/USDT,3.927,4.042,3.720,3.819,63201428.1,244061235.4040,493908
1615680000000,2021-03-14 00:00:00,EOS/USDT,4.293,4.395,3.928,3.928,61118759.3,253178180.4617,505158
1615593600000,2021-03-13 00:00:00,EOS/USDT,3.786,4.392,3.680,4.292,67773292.4,273227167.2363,541663
1615507200000,2021-03-12 00:00:00,EOS/USDT,3.958,4.000,3.672,3.786,61832235.7,237491424.5561,475408
1615420800000,2021-03-11 00:00:00,EOS/USDT,3.994,4.054,3.809,3.958,64584427.3,254656147.9827,464209
1615334400000,2021-03-10 00:00:00,EOS/USDT,4.173,4.197,3.900,3.995,68529798.9,276944129.4463,483101
1615248000000,2021-03-09 00:00:00,EOS/USDT,3.904,4.194,3.850,4.173,63013616.8,253553745.0793,468354
1615161600000,2021-03-08 00:00:00,EOS/USDT,3.835,3.928,3.737,3.904,46002198.9,176661000.2877,387772
1615075200000,2021-03-07 00:00:00,EOS/USDT,3.723,3.850,3.715,3.835,27680579.0,104419115.8817,232469
1614988800000,2021-03-06 00:00:00,EOS/USDT,3.693,3.773,3.600,3.722,29717009.3,110073995.1025,234701
1614902400000,2021-03-05 00:00:00,EOS/USDT,3.752,3.760,3.557,3.693,39204014.3,143431205.4148,311026
1614816000000,2021-03-04 00:00:00,EOS/USDT,3.829,3.931,3.640,3.752,50578283.7,192023659.9249,402316
1614729600000,2021-03-03 00:00:00,EOS/USDT,3.672,4.073,3.644,3.828,69825458.0,271954459.9655,490267
1614643200000,2021-03-02 00:00:00,EOS/USDT,3.710,3.856,3.565,3.672,52845082.1,195237368.3566,397216
1614556800000,2021-03-01 00:00:00,EOS/USDT,3.479,3.763,3.451,3.708,45906882.4,165186329.6182,347623
1614470400000,2021-02-28 00:00:00,EOS/USDT,3.674,3.704,3.243,3.479,68600603.0,236930609.6666,524717
1614384000000,2021-02-27 00:00:00,EOS/USDT,3.550,3.843,3.541,3.674,60846533.3,226008641.4279,439501
1614297600000,2021-02-26 00:00:00,EOS/USDT,3.670,3.773,3.391,3.549,83103505.1,299009676.9256,549892
1614211200000,2021-02-25 00:00:00,EOS/USDT,3.887,4.099,3.623,3.672,78319641.2,306224994.0684,541561
1614124800000,2021-02-24 00:00:00,EOS/USDT,3.849,4.139,3.672,3.887,89973247.0,353917394.3827,599371
1614038400000,2021-02-23 00:00:00,EOS/USDT,4.691,4.724,3.140,3.848,206944519.9,798237846.4867,1359537
1613952000000,2021-02-22 00:00:00,EOS/USDT,5.109,5.316,3.800,4.689,163903452.3,783750843.9737,1105436
1613865600000,2021-02-21 00:00:00,EOS/USDT,4.843,5.373,4.734,5.110,81790887.8,413382534.8106,599659
1613779200000,2021-02-20 00:00:00,EOS/USDT,5.234,5.475,4.510,4.848,101171949.0,521946669.5622,725833
1613692800000,2021-02-19 00:00:00,EOS/USDT,4.826,5.400,4.654,5.232,89241254.6,456076460.6030,620485
1613606400000,2021-02-18 00:00:00,EOS/USDT,4.849,5.004,4.658,4.825,61013167.5,297062444.8189,446295
1613520000000,2021-02-17 00:00:00,EOS/USDT,4.646,4.909,4.421,4.847,68709920.1,325039778.8019,481725
1613433600000,2021-02-16 00:00:00,EOS/USDT,4.719,4.981,4.405,4.647,97147767.0,457734107.0580,686158
1613347200000,2021-02-15 00:00:00,EOS/USDT,5.076,5.257,4.097,4.720,155437816.5,733096586.9658,949742
1613260800000,2021-02-14 00:00:00,EOS/USDT,5.572,5.648,4.857,5.077,110853479.2,581472507.0739,778489
1613174400000,2021-02-13 00:00:00,EOS/USDT,4.761,5.580,4.501,5.571,172222107.6,866988245.6111,1061668
1613088000000,2021-02-12 00:00:00,EOS/USDT,4.592,4.861,4.224,4.760,108867266.7,498477060.7910,731883
1613001600000,2021-02-11 00:00:00,EOS/USDT,4.134,4.688,4.005,4.593,127266642.3,552483086.5900,800071
1612915200000,2021-02-10 00:00:00,EOS/USDT,4.176,4.570,3.564,4.134,209661476.0,866595518.5672,1197593
1612828800000,2021-02-09 00:00:00,EOS/USDT,3.604,4.327,3.484,4.177,148919620.9,578380742.8039,1046421
1612742400000,2021-02-08 00:00:00,EOS/USDT,3.444,3.607,3.353,3.601,86807692.1,301669422.5281,691494
1612656000000,2021-02-07 00:00:00,EOS/USDT,3.217,3.600,3.019,3.444,155836527.3,521272947.4993,1221528
1612569600000,2021-02-06 00:00:00,EOS/USDT,3.319,3.337,3.129,3.215,54549765.1,175842451.1200,510828
1612483200000,2021-02-05 00:00:00,EOS/USDT,3.028,3.390,3.016,3.320,76824280.0,245180760.0980,733699
1612396800000,2021-02-04 00:00:00,EOS/USDT,3.070,3.157,2.981,3.028,57640878.1,176207768.2615,522570
1612310400000,2021-02-03 00:00:00,EOS/USDT,3.001,3.150,2.989,3.072,48778892.4,149363946.3699,400075
1612224000000,2021-02-02 00:00:00,EOS/USDT,3.060,3.085,2.960,3.001,44963712.4,135649676.3722,400569
1612137600000,2021-02-01 00:00:00,EOS/USDT,2.933,3.293,2.892,3.060,140308269.8,434562944.7090,1073253
1612051200000,2021-01-31 00:00:00,EOS/USDT,2.934,3.084,2.804,2.934,79448281.9,233183967.5579,818362
1611964800000,2021-01-30 00:00:00,EOS/USDT,2.728,3.110,2.690,2.934,81628095.6,236617828.6799,927751
1611878400000,2021-01-29 00:00:00,EOS/USDT,2.711,2.909,2.652,2.729,66982216.7,185154036.3255,894549
1611792000000,2021-01-28 00:00:00,EOS/USDT,2.503,2.800,2.477,2.710,57923055.9,155169405.3155,772862
1611705600000,2021-01-27 00:00:00,EOS/USDT,2.632,2.632,2.465,2.502,26352733.8,66969075.8052,624938
1611619200000,2021-01-26 00:00:00,EOS/USDT,2.652,2.678,2.556,2.632,22850326.4,59763881.5424,322645
1611532800000,2021-01-25 00:00:00,EOS/USDT,2.717,2.773,2.631,2.652,27923410.2,75841308.2872,324255
1611446400000,2021-01-24 00:00:00,EOS/USDT,2.705,2.779,2.648,2.717,26732599.7,72777319.7645,346540
1611360000000,2021-01-23 00:00:00,EOS/USDT,2.626,2.789,2.576,2.705,39045070.3,104722380.6834,413895
1611273600000,2021-01-22 00:00:00,EOS/USDT,2.547,2.679,2.429,2.626,43472228.1,111863444.7154,425386
1611187200000,2021-01-21 00:00:00,EOS/USDT,2.780,2.788,2.496,2.548,42192875.1,111486410.7575,468771
1611100800000,2021-01-20 00:00:00,EOS/USDT,2.794,2.829,2.660,2.779,37585273.7,103221767.1251,396437
1611014400000,2021-01-19 00:00:00,EOS/USDT,2.820,2.938,2.781,2.793,52162104.8,149511210.4530,459778
1610928000000,2021-01-18 00:00:00,EOS/USDT,2.768,2.843,2.705,2.819,31686331.5,88041577.4112,367392
1610841600000,2021-01-17 00:00:00,EOS/USDT,2.780,2.808,2.683,2.768,30747017.8,84568719.5763,365147
1610755200000,2021-01-16 00:00:00,EOS/USDT,2.759,2.893,2.706,2.780,49224673.6,138213141.6240,447428
1610668800000,2021-01-15 00:00:00,EOS/USDT,2.813,2.944,2.579,2.760,66582083.0,184086637.5673,526389
1610582400000,2021-01-14 00:00:00,EOS/USDT,2.771,2.864,2.694,2.812,46900836.2,130018810.7781,389464
1610496000000,2021-01-13 00:00:00,EOS/USDT,2.597,2.795,2.525,2.771,49544886.0,132715219.1656,405761
1610409600000,2021-01-12 00:00:00,EOS/USDT,2.670,2.775,2.531,2.596,62179254.3,165037076.2070,486286
1610323200000,2021-01-11 00:00:00,EOS/USDT,3.063,3.078,2.384,2.670,170879075.9,458110114.2607,949275
1610236800000,2021-01-10 00:00:00,EOS/USDT,3.626,3.938,2.840,3.062,266200631.7,891395038.7212,1304986
1610150400000,2021-01-09 00:00:00,EOS/USDT,3.113,3.758,3.016,3.627,123650226.0,427866845.2097,752851
1610064000000,2021-01-08 00:00:00,EOS/USDT,3.202,3.262,2.898,3.112,81000796.0,250228208.0210,596681
1609977600000,2021-01-07 00:00:00,EOS/USDT,3.380,3.462,3.040,3.201,131158512.1,430482642.3865,695423
1609891200000,2021-01-06 00:00:00,EOS/USDT,2.888,3.470,2.852,3.379,120258713.8,383457832.3943,663784
1609804800000,2021-01-05 00:00:00,EOS/USDT,2.823,2.958,2.714,2.888,59609880.6,169407069.3818,399179
1609718400000,2021-01-04 00:00:00,EOS/USDT,2.806,3.132,2.610,2.822,120902355.4,347577275.0061,665750
1609632000000,2021-01-03 00:00:00,EOS/USDT,2.633,2.859,2.579,2.804,78744991.8,214940426.1914,457260
1609545600000,2021-01-02 00:00:00,EOS/USDT,2.640,2.728,2.564,2.633,36301804.4,95517518.5325,334774
1609459200000,2021-01-01 00:00:00,EOS/USDT,2.593,2.736,2.570,2.640,24442169.3,64634287.4460,349489
1609372800000,2020-12-31 00:00:00,EOS/USDT,2.616,2.660,2.510,2.593,33262356.7,86221375.6634,345952
1609286400000,2020-12-30 00:00:00,EOS/USDT,2.643,2.677,2.536,2.615,33254095.9,86404034.5709,322754
1609200000000,2020-12-29 00:00:00,EOS/USDT,2.767,2.799,2.503,2.643,46546468.2,122744657.9030,387264
1609113600000,2020-12-28 00:00:00,EOS/USDT,2.720,2.898,2.686,2.768,41093387.5,114887529.0541,343102
1609027200000,2020-12-27 00:00:00,EOS/USDT,2.614,2.877,2.479,2.719,64028682.0,172916599.1603,454143
1608940800000,2020-12-26 00:00:00,EOS/USDT,2.667,2.697,2.525,2.614,35751133.8,93458401.8262,323860
1608854400000,2020-12-25 00:00:00,EOS/USDT,2.667,2.745,2.540,2.666,56371404.8,148888062.9074,373179
1608768000000,2020-12-24 00:00:00,EOS/USDT,2.312,2.695,2.248,2.667,79553875.8,196762390.3602,460432
1608681600000,2020-12-23 00:00:00,EOS/USDT,2.899,2.918,1.963,2.312,105082627.5,265041451.8169,525199
1608595200000,2020-12-22 00:00:00,EOS/USDT,2.933,2.956,2.770,2.900,40869344.9,117469739.8479,305080
1608508800000,2020-12-21 00:00:00,EOS/USDT,3.138,3.283,2.904,2.932,59984428.3,184349765.2672,380519
1608422400000,2020-12-20 00:00:00,EOS/USDT,3.056,3.340,3.005,3.139,65213171.9,207807026.8367,390460
1608336000000,2020-12-19 00:00:00,EOS/USDT,3.063,3.127,3.029,3.056,23722212.0,73173473.2676,217333
1608249600000,2020-12-18 00:00:00,EOS/USDT,3.045,3.135,2.986,3.063,31922366.1,97656396.9054,253770
1608163200000,2020-12-17 00:00:00,EOS/USDT,3.105,3.266,2.977,3.045,72489999.6,226286631.7591,438423
1608076800000,2020-12-16 00:00:00,EOS/USDT,2.863,3.119,2.816,3.104,29489308.3,87421133.4921,288406
1607990400000,2020-12-15 00:00:00,EOS/USDT,2.849,2.906,2.807,2.863,18210102.1,52064075.9452,227589
1607904000000,2020-12-14 00:00:00,EOS/USDT,2.853,2.866,2.801,2.849,15505789.8,43907871.5610,252501
1607817600000,2020-12-13 00:00:00,EOS/USDT,2.769,2.901,2.753,2.853,14424231.0,40909207.9303,246477
1607731200000,2020-12-12 00:00:00,EOS/USDT,2.696,2.788,2.679,2.769,10787853.1,29699437.8452,242342
1607644800000,2020-12-11 00:00:00,EOS/USDT,2.742,2.753,2.648,2.696,15824884.1,42668338.2561,244145
1607558400000,2020-12-10 00:00:00,EOS/USDT,2.811,2.817,2.702,2.741,12422944.0,34334980.7627,218619
1607472000000,2020-12-09 00:00:00,EOS/USDT,2.804,2.840,2.662,2.810,19382068.9,53645161.8476,189967
1607385600000,2020-12-08 00:00:00,EOS/USDT,2.953,2.964,2.744,2.803,19756458.2,56624660.3685,246301
1607299200000,2020-12-07 00:00:00,EOS/USDT,3.000,3.013,2.909,2.952,14258214.9,42314364.7753,249119
1607212800000,2020-12-06 00:00:00,EOS/USDT,3.011,3.039,2.910,3.000,17110021.7,50854379.2264,250469
1607126400000,2020-12-05 00:00:00,EOS/USDT,2.845,3.015,2.820,3.010,17988149.6,52592305.1708,236508
1607040000000,2020-12-04 00:00:00,EOS/USDT,3.084,3.153,2.796,2.846,34377963.6,103476007.6028,295827
1606953600000,2020-12-03 00:00:00,EOS/USDT,3.057,3.140,3.012,3.084,20826340.3,64049080.7680,227857
1606867200000,2020-12-02 00:00:00,EOS/USDT,2.995,3.088,2.958,3.058,25187518.4,76410251.0612,248762
1606780800000,2020-12-01 00:00:00,EOS/USDT,3.263,3.345,2.909,2.995,63411733.4,199442619.4090,375749
1606694400000,2020-11-30 00:00:00,EOS/USDT,3.033,3.290,2.996,3.263,50693037.0,159656064.4529,306441
1606608000000,2020-11-29 00:00:00,EOS/USDT,2.997,3.101,2.903,3.032,36348077.5,108697435.6352,248813
1606521600000,2020-11-28 00:00:00,EOS/USDT,2.873,3.072,2.822,2.998,39620549.4,116923749.3139,237203
1606435200000,2020-11-27 00:00:00,EOS/USDT,2.952,3.028,2.750,2.873,46443455.2,133954581.8018,285638
1606348800000,2020-11-26 00:00:00,EOS/USDT,3.429,3.539,2.704,2.951,117543658.0,358627522.4329,646952
1606262400000,2020-11-25 00:00:00,EOS/USDT,3.607,3.891,3.300,3.429,99487732.6,356396661.0920,504252
1606176000000,2020-11-24 00:00:00,EOS/USDT,3.383,3.798,3.333,3.606,126298499.7,447516163.9966,599476
1606089600000,2020-11-23 00:00:00,EOS/USDT,3.069,3.406,2.998,3.384,93030955.0,299797990.3019,426906
1606003200000,2020-11-22 00:00:00,EOS/USDT,3.241,3.324,2.898,3.069,85667753.5,264885826.9468,405319
1605916800000,2020-11-21 00:00:00,EOS/USDT,2.784,3.269,2.684,3.240,90047331.5,271183849.6138,417918
1605830400000,2020-11-20 00:00:00,EOS/USDT,2.639,2.834,2.636,2.784,39590129.6,108380064.5226,304791
1605744000000,2020-11-19 00:00:00,EOS/USDT,2.639,2.703,2.559,2.639,21411338.9,56315059.7836,284838
1605657600000,2020-11-18 00:00:00,EOS/USDT,2.720,2.737,2.440,2.639,40597694.8,105745791.2413,319020
1605571200000,2020-11-17 00:00:00,EOS/USDT,2.584,2.757,2.577,2.720,34664550.8,93059003.3030,290547
1605484800000,2020-11-16 00:00:00,EOS/USDT,2.499,2.609,2.487,2.584,18727202.4,47897869.1248,274548
1605398400000,2020-11-15 00:00:00,EOS/USDT,2.538,2.550,2.470,2.499,11599347.2,29166035.7769,307751
1605312000000,2020-11-14 00:00:00,EOS/USDT,2.602,2.614,2.495,2.537,14046374.8,35771409.5592,286446
1605225600000,2020-11-13 00:00:00,EOS/USDT,2.465,2.644,2.456,2.602,21951757.8,55942781.8296,300784
1605139200000,2020-11-12 00:00:00,EOS/USDT,2.500,2.506,2.433,2.465,14027436.1,34727669.5528,280115
1605052800000,2020-11-11 00:00:00,EOS/USDT,2.501,2.542,2.493,2.501,11193999.8,28154562.3406,224735
1604966400000,2020-11-10 00:00:00,EOS/USDT,2.500,2.531,2.477,2.501,11519772.9,28846209.5005,225178
1604880000000,2020-11-09 00:00:00,EOS/USDT,2.537,2.561,2.457,2.500,13184550.8,33134956.0482,242358
1604793600000,2020-11-08 00:00:00,EOS/USDT,2.499,2.566,2.484,2.537,9644836.9,24371595.1013,248698
1604707200000,2020-11-07 00:00:00,EOS/USDT,2.537,2.633,2.446,2.499,30488146.1,77873180.1452,279361
1604620800000,2020-11-06 00:00:00,EOS/USDT,2.449,2.549,2.439,2.537,26596593.4,66560124.4706,272080
1604534400000,2020-11-05 00:00:00,EOS/USDT,2.351,2.491,2.350,2.449,23405424.9,56376550.1229,294084
1604448000000,2020-11-04 00:00:00,EOS/USDT,2.364,2.376,2.289,2.350,14312922.3,33467027.8007,270437
1604361600000,2020-11-03 00:00:00,EOS/USDT,2.432,2.444,2.210,2.364,24760068.8,57602619.3397,326796
1604275200000,2020-11-02 00:00:00,EOS/USDT,2.518,2.553,2.408,2.432,17329102.9,42787431.8495,290158
1604188800000,2020-11-01 00:00:00,EOS/USDT,2.528,2.540,2.453,2.519,8243845.4,20650042.2339,316752
1604102400000,2020-10-31 00:00:00,EOS/USDT,2.505,2.566,2.494,2.528,12270524.7,31047150.5085,309876
1604016000000,2020-10-30 00:00:00,EOS/USDT,2.640,2.649,2.400,2.505,24488746.8,61816739.5116,314878
1603929600000,2020-10-29 00:00:00,EOS/USDT,2.656,2.683,2.601,2.640,14737845.3,39030633.0951,248915
1603843200000,2020-10-28 00:00:00,EOS/USDT,2.674,2.758,2.621,2.656,30874251.8,82560844.6499,300489
1603756800000,2020-10-27 00:00:00,EOS/USDT,2.631,2.699,2.629,2.675,14432947.7,38383551.7087,287686
1603670400000,2020-10-26 00:00:00,EOS/USDT,2.711,2.754,2.589,2.632,25205779.9,67477259.5935,273760
1603584000000,2020-10-25 00:00:00,EOS/USDT,2.664,2.741,2.620,2.711,13190883.7,35233691.8094,262388
1603497600000,2020-10-24 00:00:00,EOS/USDT,2.643,2.674,2.617,2.664,8130951.0,21548194.3449,302878
1603411200000,2020-10-23 00:00:00,EOS/USDT,2.673,2.688,2.600,2.643,14538346.9,38570009.7982,258535
1603324800000,2020-10-22 00:00:00,EOS/USDT,2.608,2.708,2.607,2.673,22070221.8,58932805.5322,248575
1603238400000,2020-10-21 00:00:00,EOS/USDT,2.528,2.659,2.522,2.608,19620918.6,50971119.0365,268663
1603152000000,2020-10-20 00:00:00,EOS/USDT,2.583,2.589,2.502,2.528,14118802.9,35925233.3619,264288
1603065600000,2020-10-19 00:00:00,EOS/USDT,2.547,2.614,2.525,2.584,11069512.8,28373837.4919,253138
1602979200000,2020-10-18 00:00:00,EOS/USDT,2.524,2.561,2.519,2.547,4609287.8,11698118.5071,248413
1602892800000,2020-10-17 00:00:00,EOS/USDT,2.539,2.553,2.505,2.523,5994500.9,15154446.6018,245624
1602806400000,2020-10-16 00:00:00,EOS/USDT,2.600,2.612,2.484,2.538,16170277.8,41070937.4666,272420
1602720000000,2020-10-15 00:00:00,EOS/USDT,2.608,2.631,2.583,2.600,9843432.0,25637160.7464,244127
1602633600000,2020-10-14 00:00:00,EOS/USDT,2.641,2.654,2.572,2.608,11721025.9,30704368.0169,255516
1602547200000,2020-10-13 00:00:00,EOS/USDT,2.646,2.668,2.611,2.641,12356840.5,32619996.4910,256813
1602460800000,2020-10-12 00:00:00,EOS/USDT,2.659,2.685,2.607,2.646,15857674.9,42083325.9193,257418
1602374400000,2020-10-11 00:00:00,EOS/USDT,2.643,2.689,2.614,2.658,8246783.2,21923406.0518,267910
1602288000000,2020-10-10 00:00:00,EOS/USDT,2.641,2.721,2.634,2.643,13267578.6,35549750.5969,285382
1602201600000,2020-10-09 00:00:00,EOS/USDT,2.606,2.657,2.580,2.642,12946941.5,33981471.3294,249744
1602115200000,2020-10-08 00:00:00,EOS/USDT,2.643,2.654,2.485,2.607,22288490.3,57750049.5824,298620
1602028800000,2020-10-07 00:00:00,EOS/USDT,2.696,2.718,2.588,2.643,43141088.5,114299524.0262,315055
1601942400000,2020-10-06 00:00:00,EOS/USDT,2.527,2.973,2.485,2.696,106360686.1,294454374.5699,542930
1601856000000,2020-10-05 00:00:00,EOS/USDT,2.517,2.539,2.491,2.526,6437534.3,16193677.4717,228954
1601769600000,2020-10-04 00:00:00,EOS/USDT,2.477,2.536,2.464,2.518,6337450.5,15866496.4222,229199
1601683200000,2020-10-03 00:00:00,EOS/USDT,2.479,2.503,2.467,2.477,4486738.9,11144921.7648,204104
1601596800000,2020-10-02 00:00:00,EOS/USDT,2.545,2.558,2.412,2.479,13709561.6,34029930.4691,247024
1601510400000,2020-10-01 00:00:00,EOS/USDT,2.579,2.627,2.484,2.545,12011756.4,30807465.2909,228266
1601424000000,2020-09-30 00:00:00,EOS/USDT,2.601,2.602,2.557,2.579,6537792.6,16844399.1498,179659
1601337600000,2020-09-29 00:00:00,EOS/USDT,2.562,2.605,2.554,2.601,6796888.3,17541881.7182,228941
1601251200000,2020-09-28 00:00:00,EOS/USDT,2.591,2.635,2.551,2.562,11683651.5,30372749.7019,226718
1601164800000,2020-09-27 00:00:00,EOS/USDT,2.566,2.604,2.526,2.591,8482115.8,21758095.8593,266486
1601078400000,2020-09-26 00:00:00,EOS/USDT,2.546,2.607,2.503,2.566,11741293.9,30054886.7472,318260
1600992000000,2020-09-25 00:00:00,EOS/USDT,2.534,2.561,2.463,2.546,12425560.0,31326377.0825,302604
1600905600000,2020-09-24 00:00:00,EOS/USDT,2.442,2.562,2.423,2.534,10591459.8,26399555.9218,283600
1600819200000,2020-09-23 00:00:00,EOS/USDT,2.570,2.579,2.389,2.442,13839462.2,34617127.9604,279126
1600732800000,2020-09-22 00:00:00,EOS/USDT,2.506,2.586,2.488,2.570,11112154.1,28245547.4245,244750
1600646400000,2020-09-21 00:00:00,EOS/USDT,2.674,2.690,2.483,2.506,19338083.3,49883720.6214,288732
1600560000000,2020-09-20 00:00:00,EOS/USDT,2.704,2.704,2.622,2.673,9864024.2,26288071.2430,308926
1600473600000,2020-09-19 00:00:00,EOS/USDT,2.692,2.739,2.681,2.704,8188135.0,22185260.6847,265995
1600387200000,2020-09-18 00:00:00,EOS/USDT,2.739,2.751,2.650,2.692,10289191.8,27892329.3521,235854
1600300800000,2020-09-17 00:00:00,EOS/USDT,2.714,2.779,2.692,2.739,13076826.1,35695972.7459,254790
1600214400000,2020-09-16 00:00:00,EOS/USDT,2.704,2.750,2.574,2.714,20753520.8,55475908.2785,299897
1600128000000,2020-09-15 00:00:00,EOS/USDT,2.733,2.784,2.698,2.704,14694663.3,40263145.9784,261636
1600041600000,2020-09-14 00:00:00,EOS/USDT,2.727,2.768,2.686,2.733,11461212.8,31331171.8771,260505
1599955200000,2020-09-13 00:00:00,EOS/USDT,2.806,2.830,2.672,2.727,14945579.3,41132930.9099,292505
1599868800000,2020-09-12 00:00:00,EOS/USDT,2.785,2.832,2.742,2.806,9234742.8,25757824.5733,272420
1599782400000,2020-09-11 00:00:00,EOS/USDT,2.776,2.823,2.716,2.785,13189060.2,36670261.8350,283594
1599696000000,2020-09-10 00:00:00,EOS/USDT,2.750,2.842,2.737,2.776,14236339.4,39593524.0156,247329
1599609600000,2020-09-09 00:00:00,EOS/USDT,2.761,2.816,2.696,2.750,12806931.0,35373272.1127,199354
1599523200000,2020-09-08 00:00:00,EOS/USDT,2.854,2.862,2.667,2.762,21196241.4,58496102.5451,230641
1599436800000,2020-09-07 00:00:00,EOS/USDT,2.903,2.941,2.655,2.854,26162716.9,73283018.2479,261179
1599350400000,2020-09-06 00:00:00,EOS/USDT,2.940,3.035,2.807,2.902,26266416.2,76352011.6935,316782
1599264000000,2020-09-05 00:00:00,EOS/USDT,2.994,3.152,2.771,2.940,84125244.9,250925387.9768,618557
1599177600000,2020-09-04 00:00:00,EOS/USDT,2.612,3.245,2.577,2.995,90795079.9,267335993.0751,627067
1599091200000,2020-09-03 00:00:00,EOS/USDT,3.106,3.162,2.477,2.612,44164427.5,127358192.4662,365228
1599004800000,2020-09-02 00:00:00,EOS/USDT,3.475,3.506,2.873,3.105,36792945.9,118033539.4250,322005
1598918400000,2020-09-01 00:00:00,EOS/USDT,3.213,3.560,3.154,3.475,28813487.3,96729860.0434,247454
1598832000000,2020-08-31 00:00:00,EOS/USDT,3.266,3.298,3.195,3.211,15101556.1,49015157.3355,200769
1598745600000,2020-08-30 00:00:00,EOS/USDT,3.129,3.278,3.129,3.265,19532475.1,62612275.1483,198832
1598659200000,2020-08-29 00:00:00,EOS/USDT,3.120,3.210,3.086,3.129,16602960.9,52226627.2913,197417
1598572800000,2020-08-28 00:00:00,EOS/USDT,2.983,3.177,2.940,3.120,23120525.1,71139945.9276,255644
1598486400000,2020-08-27 00:00:00,EOS/USDT,3.121,3.152,2.851,2.982,31072565.2,93697258.7092,319016
1598400000000,2020-08-26 00:00:00,EOS/USDT,3.122,3.170,3.062,3.120,19422123.7,60600647.4476,206622
1598313600000,2020-08-25 00:00:00,EOS/USDT,3.388,3.398,2.950,3.123,30509177.5,97385770.3647,281415
1598227200000,2020-08-24 00:00:00,EOS/USDT,3.325,3.427,3.287,3.389,16960135.8,57227486.9507,203941
1598140800000,2020-08-23 00:00:00,EOS/USDT,3.364,3.392,3.229,3.324,14831866.3,49160244.6680,195745
1598054400000,2020-08-22 00:00:00,EOS/USDT,3.256,3.383,3.168,3.365,18540639.4,60708175.4557,213907
1597968000000,2020-08-21 00:00:00,EOS/USDT,3.447,3.631,3.220,3.254,44899692.5,154656249.9884,323985
1597881600000,2020-08-20 00:00:00,EOS/USDT,3.352,3.463,3.350,3.448,26039991.2,88837440.6486,210016
1597795200000,2020-08-19 00:00:00,EOS/USDT,3.581,3.636,3.215,3.351,51636728.0,175848599.3233,334196
1597708800000,2020-08-18 00:00:00,EOS/USDT,3.781,3.827,3.511,3.582,45551580.6,167262938.7396,301997
1597622400000,2020-08-17 00:00:00,EOS/USDT,3.885,3.928,3.666,3.780,56074678.1,214991911.0853,364621
1597536000000,2020-08-16 00:00:00,EOS/USDT,3.728,3.956,3.500,3.885,77094108.2,290815650.6002,457731
1597449600000,2020-08-15 00:00:00,EOS/USDT,3.268,3.857,3.267,3.729,87106196.6,309247472.1231,463405
1597363200000,2020-08-14 00:00:00,EOS/USDT,3.142,3.300,3.088,3.266,33340472.4,106500784.4793,241564
1597276800000,2020-08-13 00:00:00,EOS/USDT,3.029,3.153,2.920,3.140,28326245.0,86233412.0606,227658
1597190400000,2020-08-12 00:00:00,EOS/USDT,3.009,3.054,2.890,3.030,21321381.7,63985793.8001,216264
1597104000000,2020-08-11 00:00:00,EOS/USDT,3.242,3.303,2.867,3.009,44662215.5,138304548.9866,290389
1597017600000,2020-08-10 00:00:00,EOS/USDT,3.031,3.300,2.963,3.242,37492739.1,118244488.5597,264365
1596931200000,2020-08-09 00:00:00,EOS/USDT,3.068,3.088,2.931,3.031,14811141.8,44787368.3281,187993
1596844800000,2020-08-08 00:00:00,EOS/USDT,3.013,3.094,2.976,3.068,15420088.7,46778355.8510,203916
1596758400000,2020-08-07 00:00:00,EOS/USDT,3.093,3.257,2.755,3.012,41220991.2,127007053.0129,245978
1596672000000,2020-08-06 00:00:00,EOS/USDT,3.057,3.188,3.004,3.094,24081128.1,74177874.4340,159380
1596585600000,2020-08-05 00:00:00,EOS/USDT,3.042,3.107,2.979,3.057,22035272.9,67322108.0390,132955
1596499200000,2020-08-04 00:00:00,EOS/USDT,3.050,3.108,2.963,3.042,21529811.4,65503995.4262,156714
1596412800000,2020-08-03 00:00:00,EOS/USDT,2.948,3.129,2.902,3.051,28649444.9,86834555.3882,166560
1596326400000,2020-08-02 00:00:00,EOS/USDT,3.307,3.504,2.510,2.947,57909740.5,177460601.2101,329249
1596240000000,2020-08-01 00:00:00,EOS/USDT,3.098,3.332,3.074,3.305,36478761.5,117015927.7286,197326
1596153600000,2020-07-31 00:00:00,EOS/USDT,3.050,3.151,3.015,3.096,19824649.9,60967264.3677,157865
1596067200000,2020-07-30 00:00:00,EOS/USDT,3.028,3.108,2.957,3.051,23026671.3,69499096.3077,165871
1595980800000,2020-07-29 00:00:00,EOS/USDT,3.001,3.158,2.955,3.029,42592802.3,130992411.3797,217748
1595894400000,2020-07-28 00:00:00,EOS/USDT,2.851,3.085,2.780,3.000,48009235.2,140983798.4497,239536
1595808000000,2020-07-27 00:00:00,EOS/USDT,2.715,2.936,2.635,2.851,49622658.6,138848201.2651,296906
1595721600000,2020-07-26 00:00:00,EOS/USDT,2.732,2.814,2.678,2.716,22605912.4,61909968.4914,147365
1595635200000,2020-07-25 00:00:00,EOS/USDT,2.598,2.752,2.595,2.731,17171820.4,46052629.9045,143166
1595548800000,2020-07-24 00:00:00,EOS/USDT,2.656,2.659,2.558,2.596,11220327.5,29266867.6815,133164
1595462400000,2020-07-23 00:00:00,EOS/USDT,2.662,2.694,2.626,2.657,13797462.1,36719131.3519,144601
1595376000000,2020-07-22 00:00:00,EOS/USDT,2.624,2.673,2.578,2.663,10515515.9,27519571.2868,116865
1595289600000,2020-07-21 00:00:00,EOS/USDT,2.564,2.636,2.556,2.625,11544603.0,30093780.9042,152785
1595203200000,2020-07-20 00:00:00,EOS/USDT,2.586,2.615,2.533,2.563,14607904.6,37724579.1561,168198
1595116800000,2020-07-19 00:00:00,EOS/USDT,2.502,2.612,2.466,2.586,11454264.1,29121942.5865,164149
1595030400000,2020-07-18 00:00:00,EOS/USDT,2.496,2.522,2.480,2.502,4771405.9,11947918.1830,123362
1594944000000,2020-07-17 00:00:00,EOS/USDT,2.502,2.525,2.472,2.496,5000722.1,12494743.5830,114304
1594857600000,2020-07-16 00:00:00,EOS/USDT,2.538,2.561,2.428,2.502,10985492.2,27372582.1417,146702
1594771200000,2020-07-15 00:00:00,EOS/USDT,2.560,2.569,2.508,2.537,8196982.9,20802364.7420,116842
1594684800000,2020-07-14 00:00:00,EOS/USDT,2.554,2.578,2.504,2.560,7803505.9,19866030.3081,145464
1594598400000,2020-07-13 00:00:00,EOS/USDT,2.620,2.651,2.436,2.554,17249884.8,44601895.6499,173043
1594512000000,2020-07-12 00:00:00,EOS/USDT,2.623,2.663,2.561,2.620,10735848.0,28079055.4484,119887
1594425600000,2020-07-11 00:00:00,EOS/USDT,2.624,2.643,2.590,2.622,8233211.5,21554168.6237,103351
1594339200000,2020-07-10 00:00:00,EOS/USDT,2.650,2.652,2.573,2.624,11301739.1,29536888.4959,120590
1594252800000,2020-07-09 00:00:00,EOS/USDT,2.680,2.728,2.579,2.650,20291643.3,53921709.7891,147638
1594166400000,2020-07-08 00:00:00,EOS/USDT,2.560,2.712,2.540,2.680,19358871.5,51219647.8860,145615
1594080000000,2020-07-07 00:00:00,EOS/USDT,2.610,2.629,2.522,2.560,11587400.7,29633869.2676,116481
1593993600000,2020-07-06 00:00:00,EOS/USDT,2.408,2.641,2.400,2.611,17584985.0,44391793.7117,162966
1593907200000,2020-07-05 00:00:00,EOS/USDT,2.459,2.471,2.317,2.407,12197108.3,29465174.6437,130669
1593820800000,2020-07-04 00:00:00,EOS/USDT,2.416,2.505,2.409,2.459,13295508.0,32692714.6726,139859
1593734400000,2020-07-03 00:00:00,EOS/USDT,2.358,2.452,2.349,2.416,10757193.9,25907487.0858,130144
1593648000000,2020-07-02 00:00:00,EOS/USDT,2.376,2.387,2.299,2.358,9683277.8,22748087.0408,122079
1593561600000,2020-07-01 00:00:00,EOS/USDT,2.367,2.404,2.353,2.378,6447052.7,15338637.7027,106049
1593475200000,2020-06-30 00:00:00,EOS/USDT,2.379,2.388,2.342,2.366,4596802.7,10872144.9034,92573
1593388800000,2020-06-29 00:00:00,EOS/USDT,2.367,2.414,2.324,2.379,9851822.4,23272747.9911,112640
1593302400000,2020-06-28 00:00:00,EOS/USDT,2.331,2.402,2.301,2.366,8961984.7,21116202.8469,103404
1593216000000,2020-06-27 00:00:00,EOS/USDT,2.481,2.486,2.190,2.331,13799397.5,32518290.0580,143579
1593129600000,2020-06-26 00:00:00,EOS/USDT,2.479,2.518,2.388,2.481,11043481.8,27107233.7596,152080
1593043200000,2020-06-25 00:00:00,EOS/USDT,2.501,2.534,2.429,2.479,6842784.3,17000616.5059,121614
1592956800000,2020-06-24 00:00:00,EOS/USDT,2.572,2.602,2.456,2.502,11223345.7,28352924.3099,131651
1592870400000,2020-06-23 00:00:00,EOS/USDT,2.585,2.597,2.554,2.572,6117049.6,15747129.4634,111882
1592784000000,2020-06-22 00:00:00,EOS/USDT,2.515,2.605,2.509,2.585,8130549.4,20837903.2678,133898
1592697600000,2020-06-21 00:00:00,EOS/USDT,2.534,2.554,2.510,2.515,5997827.8,15196089.2839,127505
1592611200000,2020-06-20 00:00:00,EOS/USDT,2.524,2.557,2.446,2.534,8626985.0,21653683.9564,143207
1592524800000,2020-06-19 00:00:00,EOS/USDT,2.537,2.559,2.501,2.524,6372596.4,16111363.4874,129914
1592438400000,2020-06-18 00:00:00,EOS/USDT,2.568,2.577,2.494,2.537,7196331.5,18297622.9068,141181
1592352000000,2020-06-17 00:00:00,EOS/USDT,2.554,2.607,2.516,2.568,12880928.4,33013131.4930,174099
1592265600000,2020-06-16 00:00:00,EOS/USDT,2.532,2.566,2.521,2.554,7344308.8,18692822.5093,131416
1592179200000,2020-06-15 00:00:00,EOS/USDT,2.568,2.570,2.420,2.531,16183905.9,40361542.7398,194883
1592092800000,2020-06-14 00:00:00,EOS/USDT,2.606,2.608,2.526,2.568,6770547.2,17378022.6622,145626
1592006400000,2020-06-13 00:00:00,EOS/USDT,2.598,2.622,2.551,2.606,8537204.9,22079346.8867,166466
1591920000000,2020-06-12 00:00:00,EOS/USDT,2.515,2.626,2.487,2.598,10929998.5,28071118.2737,191408
1591833600000,2020-06-11 00:00:00,EOS/USDT,2.757,2.776,2.424,2.514,20455887.4,53756893.5677,238890
1591747200000,2020-06-10 00:00:00,EOS/USDT,2.752,2.789,2.700,2.757,10151976.7,27947233.2494,188797
1591660800000,2020-06-09 00:00:00,EOS/USDT,2.790,2.804,2.679,2.753,13641796.8,37489571.2887,215943
1591574400000,2020-06-08 00:00:00,EOS/USDT,2.809,2.819,2.754,2.790,10803400.7,30064887.9699,195698
1591488000000,2020-06-07 00:00:00,EOS/USDT,2.801,2.831,2.732,2.809,15640907.9,43619359.1891,222995
1591401600000,2020-06-06 00:00:00,EOS/USDT,2.818,2.848,2.771,2.799,16816827.0,47377297.4559,224907
1591315200000,2020-06-05 00:00:00,EOS/USDT,2.724,2.871,2.707,2.818,22008211.9,61391388.9731,231612
1591228800000,2020-06-04 00:00:00,EOS/USDT,2.696,2.750,2.661,2.724,12573684.3,34182416.3361,199786
1591142400000,2020-06-03 00:00:00,EOS/USDT,2.677,2.712,2.634,2.696,11127572.1,29764455.3656,177139
1591056000000,2020-06-02 00:00:00,EOS/USDT,2.823,2.900,2.394,2.677,20896299.0,57594562.7054,212134
1590969600000,2020-06-01 00:00:00,EOS/USDT,2.673,2.834,2.663,2.823,14882134.7,40621601.1556,208944
1590883200000,2020-05-31 00:00:00,EOS/USDT,2.773,2.775,1.960,2.674,16922097.9,45864599.0433,209780
1590796800000,2020-05-30 00:00:00,EOS/USDT,2.616,2.784,2.597,2.773,13043480.8,35151327.6659,169241
1590710400000,2020-05-29 00:00:00,EOS/USDT,2.613,2.671,2.587,2.614,8193972.4,21547723.2219,152158
1590624000000,2020-05-28 00:00:00,EOS/USDT,2.573,2.620,2.516,2.612,7925006.1,20318437.6875,141337
1590537600000,2020-05-27 00:00:00,EOS/USDT,2.503,2.578,2.497,2.574,8035953.4,20394903.7236,160330
1590451200000,2020-05-26 00:00:00,EOS/USDT,2.528,2.537,2.455,2.504,6281152.0,15733295.8732,148719
1590364800000,2020-05-25 00:00:00,EOS/USDT,2.486,2.548,2.443,2.530,6873299.0,17275059.9562,139479
1590278400000,2020-05-24 00:00:00,EOS/USDT,2.561,2.616,2.483,2.487,12824369.3,32847608.4854,158683
1590192000000,2020-05-23 00:00:00,EOS/USDT,2.595,2.623,2.542,2.561,7915431.8,20397433.6895,136782
1590105600000,2020-05-22 00:00:00,EOS/USDT,2.461,2.637,2.438,2.595,9916007.9,25148302.3442,146921
1590019200000,2020-05-21 00:00:00,EOS/USDT,2.598,2.617,2.404,2.460,11253627.9,28318721.6015,153371
1589932800000,2020-05-20 00:00:00,EOS/USDT,2.655,2.679,2.524,2.596,13214650.7,34643267.1846,157832
1589846400000,2020-05-19 00:00:00,EOS/USDT,2.666,2.669,2.570,2.653,8741728.7,22976929.8872,139628
1589760000000,2020-05-18 00:00:00,EOS/USDT,2.618,2.750,2.607,2.666,11617148.7,31045369.2150,188916
1589673600000,2020-05-17 00:00:00,EOS/USDT,2.634,2.675,2.593,2.618,7956125.9,21008877.4547,185429
1589587200000,2020-05-16 00:00:00,EOS/USDT,2.583,2.684,2.569,2.635,9934769.3,26169160.3280,185852
1589500800000,2020-05-15 00:00:00,EOS/USDT,2.622,2.666,2.531,2.583,15515986.2,40354798.5452,219337
1589414400000,2020-05-14 00:00:00,EOS/USDT,2.524,2.652,2.465,2.622,11165483.3,28543475.4300,153596
1589328000000,2020-05-13 00:00:00,EOS/USDT,2.440,2.558,2.420,2.524,7553251.7,18782899.6966,127050
1589241600000,2020-05-12 00:00:00,EOS/USDT,2.397,2.468,2.394,2.440,8701105.9,21184932.0477,123054
1589155200000,2020-05-11 00:00:00,EOS/USDT,2.443,2.494,2.261,2.398,16786102.6,40254451.2543,153718
1589068800000,2020-05-10 00:00:00,EOS/USDT,2.753,2.758,2.238,2.443,27183818.1,66516522.0185,198833
1588982400000,2020-05-09 00:00:00,EOS/USDT,2.756,2.843,2.728,2.755,14363640.4,40035134.3914,118232
1588896000000,2020-05-08 00:00:00,EOS/USDT,2.758,2.828,2.698,2.756,12090264.9,33375769.5916,108283
1588809600000,2020-05-07 00:00:00,EOS/USDT,2.653,2.807,2.587,2.759,19122954.1,51997105.5405,116494
1588723200000,2020-05-06 00:00:00,EOS/USDT,2.772,2.824,2.618,2.653,10953241.2,30268421.8913,69654
1588636800000,2020-05-05 00:00:00,EOS/USDT,2.772,2.830,2.715,2.772,8738408.0,24190296.2632,97877
1588550400000,2020-05-04 00:00:00,EOS/USDT,2.838,2.848,2.626,2.771,14578293.0,39759917.8804,117041
1588464000000,2020-05-03 00:00:00,EOS/USDT,2.944,3.017,2.756,2.838,13239811.7,38279959.1774,109118
1588377600000,2020-05-02 00:00:00,EOS/USDT,2.874,2.953,2.853,2.944,8502862.4,24642306.0114,92432
1588291200000,2020-05-01 00:00:00,EOS/USDT,2.822,2.931,2.819,2.876,10487709.0,30164990.2446,86954
1588204800000,2020-04-30 00:00:00,EOS/USDT,3.011,3.123,2.749,2.823,23966365.9,70380527.1804,135925
1588118400000,2020-04-29 00:00:00,EOS/USDT,2.764,3.096,2.754,3.008,28433215.5,82723694.2513,130142
1588032000000,2020-04-28 00:00:00,EOS/USDT,2.745,2.778,2.684,2.764,9985469.5,27269145.6665,56160
1587945600000,2020-04-27 00:00:00,EOS/USDT,2.739,2.820,2.680,2.747,12264142.1,33653827.8262,69850
1587859200000,2020-04-26 00:00:00,EOS/USDT,2.705,2.786,2.665,2.737,11734662.2,31944614.8860,69604
1587772800000,2020-04-25 00:00:00,EOS/USDT,2.708,2.810,2.633,2.703,14962321.1,40654195.6187,76335
1587686400000,2020-04-24 00:00:00,EOS/USDT,2.682,2.744,2.656,2.708,8751817.5,23685808.9152,53790
1587600000000,2020-04-23 00:00:00,EOS/USDT,2.625,2.765,2.575,2.682,9761610.6,25934347.2109,67669
1587513600000,2020-04-22 00:00:00,EOS/USDT,2.520,2.654,2.505,2.625,7539414.8,19430890.2249,53531
1587427200000,2020-04-21 00:00:00,EOS/USDT,2.507,2.569,2.473,2.518,9694743.5,24484228.1295,59704
1587340800000,2020-04-20 00:00:00,EOS/USDT,2.597,2.707,2.430,2.507,19822821.6,51262145.6562,121899
1587254400000,2020-04-19 00:00:00,EOS/USDT,2.730,2.737,2.537,2.599,13587783.9,35871123.3693,80148
1587168000000,2020-04-18 00:00:00,EOS/USDT,2.614,2.766,2.612,2.728,8624401.3,23157733.4437,57726
1587081600000,2020-04-17 00:00:00,EOS/USDT,2.659,2.674,2.581,2.614,8500620.5,22317010.0656,61039
1586995200000,2020-04-16 00:00:00,EOS/USDT,2.399,2.722,2.326,2.659,19536795.8,50546239.7678,130148
1586908800000,2020-04-15 00:00:00,EOS/USDT,2.465,2.501,2.386,2.399,7519975.3,18397642.7779,50733
1586822400000,2020-04-14 00:00:00,EOS/USDT,2.441,2.502,2.411,2.465,4959463.8,12201738.2915,42090
1586736000000,2020-04-13 00:00:00,EOS/USDT,2.498,2.499,2.322,2.441,9420703.3,22664299.8713,66117
1586649600000,2020-04-12 00:00:00,EOS/USDT,2.507,2.591,2.453,2.498,5697387.3,14406796.3049,49538
1586563200000,2020-04-11 00:00:00,EOS/USDT,2.492,2.546,2.421,2.508,5264702.3,13125091.2364,49579
1586476800000,2020-04-10 00:00:00,EOS/USDT,2.723,2.745,2.408,2.492,11225460.9,28411704.1236,92830
1586390400000,2020-04-09 00:00:00,EOS/USDT,2.749,2.761,2.665,2.724,5077295.5,13808211.4149,53144
1586304000000,2020-04-08 00:00:00,EOS/USDT,2.632,2.794,2.586,2.750,9706973.7,26257625.6716,86470
1586217600000,2020-04-07 00:00:00,EOS/USDT,2.759,2.829,2.550,2.632,13758730.2,37297907.3777,95483
1586131200000,2020-04-06 00:00:00,EOS/USDT,2.351,2.773,2.350,2.760,13138095.4,33722074.7762,94657
1586044800000,2020-04-05 00:00:00,EOS/USDT,2.358,2.395,2.314,2.350,4091774.2,9617986.3493,36894
1585958400000,2020-04-04 00:00:00,EOS/USDT,2.333,2.404,2.282,2.358,5867203.3,13674865.5913,49878
1585872000000,2020-04-03 00:00:00,EOS/USDT,2.291,2.386,2.268,2.334,6721974.7,15637080.3288,46270
1585785600000,2020-04-02 00:00:00,EOS/USDT,2.253,2.503,2.250,2.290,9372789.9,21885113.6447,65793
1585699200000,2020-04-01 00:00:00,EOS/USDT,2.210,2.300,2.121,2.255,6506923.9,14319053.3443,44049
1585612800000,2020-03-31 00:00:00,EOS/USDT,2.228,2.255,2.184,2.210,3881063.9,8599388.4023,29089
1585526400000,2020-03-30 00:00:00,EOS/USDT,2.115,2.284,2.107,2.228,5059150.2,11150784.7167,41747
1585440000000,2020-03-29 00:00:00,EOS/USDT,2.200,2.216,2.093,2.115,4690895.8,10106738.0489,41541
1585353600000,2020-03-28 00:00:00,EOS/USDT,2.192,2.243,2.087,2.199,9073108.7,19640268.6085,68367
1585267200000,2020-03-27 00:00:00,EOS/USDT,2.324,2.370,2.126,2.193,8844156.7,20302256.8482,58030
1585180800000,2020-03-26 00:00:00,EOS/USDT,2.298,2.344,2.261,2.324,4523122.3,10402266.4304,40747
1585094400000,2020-03-25 00:00:00,EOS/USDT,2.346,2.373,2.228,2.298,6746616.8,15537987.0399,56212
1585008000000,2020-03-24 00:00:00,EOS/USDT,2.288,2.379,2.272,2.346,8815546.8,20496197.6464,83272
1584921600000,2020-03-23 00:00:00,EOS/USDT,2.137,2.341,2.061,2.288,9608582.1,21287799.6312,98423
1584835200000,2020-03-22 00:00:00,EOS/USDT,2.275,2.396,2.111,2.137,14739634.1,32800197.3555,126363
1584748800000,2020-03-21 00:00:00,EOS/USDT,2.207,2.362,2.108,2.275,12751385.1,28252287.3801,115519
1584662400000,2020-03-20 00:00:00,EOS/USDT,2.280,2.524,1.908,2.207,20257880.9,46029282.4738,173693
1584576000000,2020-03-19 00:00:00,EOS/USDT,2.001,2.402,1.971,2.280,12599426.3,27410270.1208,84963
1584489600000,2020-03-18 00:00:00,EOS/USDT,1.968,2.007,1.871,2.001,10482177.8,20412023.9646,70714
1584403200000,2020-03-17 00:00:00,EOS/USDT,1.893,2.035,1.867,1.968,13023458.3,25665403.6046,89286
1584316800000,2020-03-16 00:00:00,EOS/USDT,2.047,2.052,1.702,1.892,32991560.8,61485722.8940,136669
1584230400000,2020-03-15 00:00:00,EOS/USDT,1.961,2.153,1.942,2.047,18963117.3,38507283.5957,56973
1584144000000,2020-03-14 00:00:00,EOS/USDT,2.112,2.129,1.936,1.960,23315977.4,47335765.6058,71441
1584057600000,2020-03-13 00:00:00,EOS/USDT,1.759,2.297,1.351,2.114,83519481.8,156077232.3907,359905
1583971200000,2020-03-12 00:00:00,EOS/USDT,3.068,3.085,1.661,1.761,67259529.2,158081854.5380,218902
1583884800000,2020-03-11 00:00:00,EOS/USDT,3.074,3.119,2.847,3.067,16919190.1,50893527.3108,66781
1583798400000,2020-03-10 00:00:00,EOS/USDT,3.061,3.155,2.995,3.074,14566718.1,44816342.2559,51941
1583712000000,2020-03-09 00:00:00,EOS/USDT,3.045,3.169,2.848,3.061,30829464.4,93443291.2918,89852
1583625600000,2020-03-08 00:00:00,EOS/USDT,3.644,3.646,2.971,3.044,28976942.7,94655701.9112,95899
1583539200000,2020-03-07 00:00:00,EOS/USDT,3.841,3.849,3.603,3.644,12309431.4,46041955.5155,48650
1583452800000,2020-03-06 00:00:00,EOS/USDT,3.767,3.862,3.713,3.842,12646701.1,47883704.3366,41767
1583366400000,2020-03-05 00:00:00,EOS/USDT,3.597,3.844,3.595,3.768,14378151.7,53446516.8213,43841
1583280000000,2020-03-04 00:00:00,EOS/USDT,3.628,3.674,3.523,3.596,10048626.5,36256774.5819,34074
1583193600000,2020-03-03 00:00:00,EOS/USDT,3.716,3.720,3.558,3.627,14254633.2,51962107.0601,46951
1583107200000,2020-03-02 00:00:00,EOS/USDT,3.513,3.763,3.494,3.713,14198885.8,51662405.3457,48284
1583020800000,2020-03-01 00:00:00,EOS/USDT,3.515,3.657,3.421,3.513,17935588.4,63570581.3784,57623
1582934400000,2020-02-29 00:00:00,EOS/USDT,3.516,3.662,3.502,3.515,16912077.7,60412077.1092,52560
1582848000000,2020-02-28 00:00:00,EOS/USDT,3.620,3.687,3.351,3.517,22956396.1,80844840.4177,67803
1582761600000,2020-02-27 00:00:00,EOS/USDT,3.539,3.736,3.384,3.621,23029750.1,82760299.4451,74028
1582675200000,2020-02-26 00:00:00,EOS/USDT,4.081,4.113,3.322,3.538,46944004.8,174028014.4326,149442
1582588800000,2020-02-25 00:00:00,EOS/USDT,4.126,4.248,3.910,4.080,34128261.5,139700068.7383,103227
1582502400000,2020-02-24 00:00:00,EOS/USDT,4.384,4.408,3.910,4.126,23659478.3,97788418.5548,82234
1582416000000,2020-02-23 00:00:00,EOS/USDT,4.105,4.407,4.092,4.385,13397022.2,57432807.5715,46130
1582329600000,2020-02-22 00:00:00,EOS/USDT,4.055,4.166,3.972,4.106,9566316.8,39012218.5254,38478
1582243200000,2020-02-21 00:00:00,EOS/USDT,4.001,4.197,3.952,4.055,11820638.1,48305229.7268,56000
1582156800000,2020-02-20 00:00:00,EOS/USDT,3.977,4.068,3.784,4.000,18045566.6,71701489.1876,79725
1582070400000,2020-02-19 00:00:00,EOS/USDT,4.588,4.618,3.586,3.980,24707377.1,101510772.6064,96097
1581984000000,2020-02-18 00:00:00,EOS/USDT,4.360,4.657,4.254,4.587,13245680.6,59136679.9496,61797
1581897600000,2020-02-17 00:00:00,EOS/USDT,4.385,4.420,4.033,4.358,25331671.3,107071527.7394,101542
1581811200000,2020-02-16 00:00:00,EOS/USDT,4.751,4.869,4.025,4.384,24367605.5,108232938.1418,105189
1581724800000,2020-02-15 00:00:00,EOS/USDT,5.384,5.406,4.496,4.753,20962147.3,102060423.8673,94735
1581638400000,2020-02-14 00:00:00,EOS/USDT,5.366,5.456,5.244,5.382,8578407.2,45885638.7823,46922
1581552000000,2020-02-13 00:00:00,EOS/USDT,5.344,5.517,5.179,5.368,12755501.7,68054489.1730,63322
1581465600000,2020-02-12 00:00:00,EOS/USDT,5.246,5.482,5.246,5.341,11739643.1,62953592.6623,53608
1581379200000,2020-02-11 00:00:00,EOS/USDT,4.901,5.360,4.800,5.252,10117217.0,51549529.0034,49588
1581292800000,2020-02-10 00:00:00,EOS/USDT,5.019,5.069,4.741,4.901,13488374.4,65772755.4175,49772
1581206400000,2020-02-09 00:00:00,EOS/USDT,4.766,5.049,4.766,5.020,11460912.5,56752655.4983,43080
1581120000000,2020-02-08 00:00:00,EOS/USDT,4.593,4.855,4.434,4.766,10070738.6,47407362.3909,38293
1581033600000,2020-02-07 00:00:00,EOS/USDT,4.607,4.714,4.521,4.598,9066770.4,41843299.4777,37134
1580947200000,2020-02-06 00:00:00,EOS/USDT,4.535,4.688,4.407,4.609,11827598.4,53978841.3226,43041
1580860800000,2020-02-05 00:00:00,EOS/USDT,4.234,4.599,4.175,4.535,11866358.7,52366799.5191,37339
1580774400000,2020-02-04 00:00:00,EOS/USDT,4.208,4.277,4.064,4.231,4863430.6,20247382.0289,18779
1580688000000,2020-02-03 00:00:00,EOS/USDT,4.217,4.381,4.140,4.203,5682392.7,24148557.1760,34584
1580601600000,2020-02-02 00:00:00,EOS/USDT,4.157,4.338,4.049,4.217,6967069.9,29374648.6134,46673
1580515200000,2020-02-01 00:00:00,EOS/USDT,4.149,4.274,4.070,4.157,6631746.0,27639325.8436,41900
1580428800000,2020-01-31 00:00:00,EOS/USDT,4.332,4.378,4.030,4.151,8274121.1,34617690.6491,46006
1580342400000,2020-01-30 00:00:00,EOS/USDT,3.973,4.414,3.893,4.328,11216758.7,46941736.9520,59332
1580256000000,2020-01-29 00:00:00,EOS/USDT,4.042,4.126,3.961,3.969,6857524.5,27750011.6163,44121
1580169600000,2020-01-28 00:00:00,EOS/USDT,3.967,4.138,3.880,4.045,8407430.1,33777371.6772,56591
1580083200000,2020-01-27 00:00:00,EOS/USDT,3.651,4.065,3.645,3.965,8631565.8,33580248.8746,47882
1579996800000,2020-01-26 00:00:00,EOS/USDT,3.501,3.670,3.430,3.649,4965353.9,17759716.8795,41647
1579910400000,2020-01-25 00:00:00,EOS/USDT,3.638,3.638,3.489,3.501,3232995.0,11518239.9065,37956
1579824000000,2020-01-24 00:00:00,EOS/USDT,3.573,3.707,3.353,3.635,6304838.3,22316572.2788,50915
1579737600000,2020-01-23 00:00:00,EOS/USDT,3.655,3.659,3.489,3.572,5211926.8,18527596.3853,41109
1579651200000,2020-01-22 00:00:00,EOS/USDT,3.656,3.750,3.587,3.655,3800954.1,13903794.8017,38590
1579564800000,2020-01-21 00:00:00,EOS/USDT,3.623,3.695,3.553,3.654,3890984.7,14163557.0863,38859
1579478400000,2020-01-20 00:00:00,EOS/USDT,3.613,3.707,3.487,3.621,5555972.7,20039489.2365,46420
1579392000000,2020-01-19 00:00:00,EOS/USDT,3.807,3.944,3.426,3.613,10758121.7,39812984.7950,65781
1579305600000,2020-01-18 00:00:00,EOS/USDT,3.907,4.013,3.703,3.808,9526489.0,36763833.9782,59353
1579219200000,2020-01-17 00:00:00,EOS/USDT,3.839,4.088,3.744,3.904,14000552.1,54926568.6873,56739
1579132800000,2020-01-16 00:00:00,EOS/USDT,3.769,3.960,3.521,3.838,11755586.7,43809943.6709,51599
1579046400000,2020-01-15 00:00:00,EOS/USDT,3.811,3.955,3.569,3.768,15189203.9,57112595.6056,53327
1578960000000,2020-01-14 00:00:00,EOS/USDT,3.105,4.093,3.105,3.816,23670369.4,84558697.5042,63556
1578873600000,2020-01-13 00:00:00,EOS/USDT,3.206,3.209,3.064,3.105,11295750.7,35158339.5658,36521
1578787200000,2020-01-12 00:00:00,EOS/USDT,2.992,3.214,2.932,3.207,11263428.0,35223202.3814,37061
1578700800000,2020-01-11 00:00:00,EOS/USDT,2.988,3.128,2.941,2.992,6997566.2,21171135.0409,31741
1578614400000,2020-01-10 00:00:00,EOS/USDT,2.741,3.006,2.650,2.983,7255081.9,20450725.3926,32979
1578528000000,2020-01-09 00:00:00,EOS/USDT,2.777,2.799,2.695,2.745,5378993.3,14755554.8912,31109
1578441600000,2020-01-08 00:00:00,EOS/USDT,2.884,2.914,2.685,2.778,4425075.7,12497579.2548,20647
