https://www.CryptoDataDownload.com
unix,date,symbol,open,high,low,close,Volume ETH,Volume USDT,tradecount
1647302400000,2022-03-15 00:00:00,ETH/USDT,2588.96,2598.27,2575.65,2580.53,42046.628,108789718.55171,38168
1647216000000,2022-03-14 00:00:00,ETH/USDT,2513.77,2609.32,2496.85,2588.96,1700607.097,4359481633.20476,1842745
1647129600000,2022-03-13 00:00:00,ETH/USDT,2567.63,2604.13,2490.25,2514.07,1153034.412,2952206474.62885,1402184
1647043200000,2022-03-12 00:00:00,ETH/USDT,2555.90,2620.00,2552.22,2567.64,835243.910,2158684698.28486,1104040
1646956800000,2022-03-11 00:00:00,ETH/USDT,2605.43,2676.20,2520.50,2555.89,2046135.535,5300909392.69620,2361963
1646870400000,2022-03-10 00:00:00,ETH/USDT,2726.37,2733.37,2546.83,2605.44,2036842.087,5317486921.07739,2321357
1646784000000,2022-03-09 00:00:00,ETH/USDT,2575.50,2773.17,2566.41,2726.37,2075382.606,5619678231.05178,2445604
1646697600000,2022-03-08 00:00:00,ETH/USDT,2489.84,2623.00,2478.35,2575.49,2643188.688,6770376286.07039,2835027
1646611200000,2022-03-07 00:00:00,ETH/USDT,2549.36,2650.00,2431.62,2489.90,2690724.432,6844133016.58346,2883213
1646524800000,2022-03-06 00:00:00,ETH/USDT,2663.55,2674.61,2529.00,2549.37,1394552.348,3653497883.30399,1799383
1646438400000,2022-03-05 00:00:00,ETH/USDT,2620.25,2684.87,2588.00,2663.55,1085460.560,2866022819.73462,1606329
1646352000000,2022-03-04 00:00:00,ETH/USDT,2832.98,2835.90,2570.65,2620.25,2431616.203,6556161324.43909,3013013
1646265600000,2022-03-03 00:00:00,ETH/USDT,2947.48,2970.00,2781.77,2832.97,2068430.471,5935025460.83803,2528238
1646179200000,2022-03-02 00:00:00,ETH/USDT,2975.61,3046.46,2912.96,2947.47,2628094.604,7817489406.51165,3202125
1646092800000,2022-03-01 00:00:00,ETH/USDT,2920.05,3036.00,2852.20,2975.61,2903119.452,8544403642.44822,3339956
1646006400000,2022-02-28 00:00:00,ETH/USDT,2615.99,2966.00,2565.00,2920.10,3405929.703,9267533739.81621,3736110
1645920000000,2022-02-27 00:00:00,ETH/USDT,2778.15,2836.21,2553.68,2615.99,2948786.157,7998715417.35802,3578220
1645833600000,2022-02-26 00:00:00,ETH/USDT,2766.42,2882.00,2726.00,2778.15,1852287.146,5167387400.86429,2447336
1645747200000,2022-02-25 00:00:00,ETH/USDT,2595.47,2835.00,2571.68,2766.36,2936418.882,7859621309.73445,3391355
1645660800000,2022-02-24 00:00:00,ETH/USDT,2578.02,2777.33,2298.72,2595.47,6227786.305,15271087886.32285,5736440
1645574400000,2022-02-23 00:00:00,ETH/USDT,2635.57,2752.38,2573.39,2578.02,2704599.315,7224805564.13842,2817096
1645488000000,2022-02-22 00:00:00,ETH/USDT,2566.88,2670.00,2495.00,2635.57,3195802.792,8250350069.89216,3451981
1645401600000,2022-02-21 00:00:00,ETH/USDT,2620.72,2758.00,2555.56,2566.88,3985389.094,10607780731.93246,4153367
1645315200000,2022-02-20 00:00:00,ETH/USDT,2761.90,2762.89,2573.33,2620.72,2242471.273,5933481403.70280,2530352
1645228800000,2022-02-19 00:00:00,ETH/USDT,2778.46,2829.99,2691.00,2761.89,1546343.886,4270584831.58429,1936132
1645142400000,2022-02-18 00:00:00,ETH/USDT,2890.75,2941.94,2750.00,2778.46,2162941.471,6148632292.71915,2608990
1645056000000,2022-02-17 00:00:00,ETH/USDT,3121.80,3158.68,2850.00,2890.80,2632604.386,7919238051.35232,3010625
1644969600000,2022-02-16 00:00:00,ETH/USDT,3183.74,3186.79,3040.42,3121.80,1733462.418,5408024225.21039,2169230
1644883200000,2022-02-15 00:00:00,ETH/USDT,2928.87,3198.00,2911.85,3183.73,1856076.117,5714091348.62078,2335370
1644796800000,2022-02-14 00:00:00,ETH/USDT,2870.33,2964.44,2829.80,2928.87,1815960.443,5263552192.95742,2201211
1644710400000,2022-02-13 00:00:00,ETH/USDT,2917.04,2952.66,2830.31,2870.32,1277486.697,3707939332.48070,1711130
1644624000000,2022-02-12 00:00:00,ETH/USDT,2926.03,2983.62,2855.00,2916.93,1869241.526,5450989532.57656,2296999
1644537600000,2022-02-11 00:00:00,ETH/USDT,3070.89,3136.55,2873.50,2926.04,2333468.434,7077554747.74226,2928823
1644451200000,2022-02-10 00:00:00,ETH/USDT,3241.79,3282.96,3055.24,3070.90,2672791.971,8499639525.52764,3068978
1644364800000,2022-02-09 00:00:00,ETH/USDT,3115.23,3269.16,3052.50,3241.82,1571485.369,4964808230.62457,2034483
1644278400000,2022-02-08 00:00:00,ETH/USDT,3138.55,3246.65,3023.28,3115.23,2122006.982,6598768727.89174,2441605
1644192000000,2022-02-07 00:00:00,ETH/USDT,3054.26,3185.99,2990.83,3138.55,1920591.918,5945879846.53350,2234372
1644105600000,2022-02-06 00:00:00,ETH/USDT,3011.58,3075.00,2948.00,3054.26,1151529.849,3460851097.78940,1457326
1644019200000,2022-02-05 00:00:00,ETH/USDT,2993.64,3059.91,2958.01,3011.59,1557391.545,4687429957.09237,2014040
1643932800000,2022-02-04 00:00:00,ETH/USDT,2694.20,2995.00,2670.14,2993.65,2953883.898,8398868704.49046,3399565
1643846400000,2022-02-03 00:00:00,ETH/USDT,2678.47,2722.99,2572.64,2694.37,2171742.641,5720509414.67786,2508451
1643760000000,2022-02-02 00:00:00,ETH/USDT,2786.37,2810.00,2610.40,2678.00,2354857.007,6390741360.31646,2588322
1643673600000,2022-02-01 00:00:00,ETH/USDT,2685.34,2812.94,2672.61,2786.38,2054796.845,5668520842.67734,2514252
1643587200000,2022-01-31 00:00:00,ETH/USDT,2600.45,2706.47,2475.33,2685.34,2119778.986,5497599951.88833,2511180
1643500800000,2022-01-30 00:00:00,ETH/USDT,2599.93,2644.93,2541.46,2600.45,1322236.477,3431223524.16989,1713681
1643414400000,2022-01-29 00:00:00,ETH/USDT,2543.34,2658.41,2519.21,2599.94,1522389.395,3909322807.94748,1950275
1643328000000,2022-01-28 00:00:00,ETH/USDT,2422.61,2556.93,2357.00,2543.34,2394675.788,5832709367.68838,2814629
1643241600000,2022-01-27 00:00:00,ETH/USDT,2461.62,2520.00,2314.33,2422.61,2706734.602,6551124353.29313,3054308
1643155200000,2022-01-26 00:00:00,ETH/USDT,2457.37,2720.06,2400.01,2461.61,3370868.336,8579635823.06901,3854865
1643068800000,2022-01-25 00:00:00,ETH/USDT,2437.87,2504.98,2349.60,2457.37,2325976.562,5636577032.24078,2812723
1642982400000,2022-01-24 00:00:00,ETH/USDT,2538.40,2539.59,2151.00,2438.13,4694300.254,10840194199.53302,5281222
1642896000000,2022-01-23 00:00:00,ETH/USDT,2410.57,2549.00,2368.00,2538.41,2371974.868,5833997685.39064,2629510
1642809600000,2022-01-22 00:00:00,ETH/USDT,2566.91,2625.60,2293.56,2410.96,4662398.873,11407543010.03600,5193460
1642723200000,2022-01-21 00:00:00,ETH/USDT,2999.92,3031.90,2460.00,2566.91,4517274.359,12514701125.46148,4897029
1642636800000,2022-01-20 00:00:00,ETH/USDT,3082.80,3272.24,2985.00,2999.92,1880719.448,5926009927.59850,2206660
1642550400000,2022-01-19 00:00:00,ETH/USDT,3159.31,3174.60,3045.00,3082.81,1668517.082,5189639864.18362,2154279
1642464000000,2022-01-18 00:00:00,ETH/USDT,3208.60,3243.95,3080.50,3159.32,1589444.667,5010157515.14645,1918856
1642377600000,2022-01-17 00:00:00,ETH/USDT,3345.50,3355.30,3139.37,3208.61,1440138.934,4673076476.50251,1905930
1642291200000,2022-01-16 00:00:00,ETH/USDT,3324.06,3394.62,3269.01,3345.49,934941.801,3112687274.02912,1443664
1642204800000,2022-01-15 00:00:00,ETH/USDT,3305.61,3372.00,3257.59,3324.05,809020.133,2687321901.17641,1399475
1642118400000,2022-01-14 00:00:00,ETH/USDT,3240.32,3342.63,3181.20,3305.60,1309794.267,4271754423.42846,1677945
1642032000000,2022-01-13 00:00:00,ETH/USDT,3369.92,3408.89,3230.97,3240.36,1374273.064,4558640511.93513,1775539
1641945600000,2022-01-12 00:00:00,ETH/USDT,3236.86,3411.00,3203.85,3369.93,1435454.649,4753099829.92951,1901450
1641859200000,2022-01-11 00:00:00,ETH/USDT,3081.25,3262.66,3050.58,3236.86,1533503.746,4836151992.53377,1894382
1641772800000,2022-01-10 00:00:00,ETH/USDT,3149.99,3179.16,2924.78,3081.31,2322294.565,7079565083.20333,2638378
1641686400000,2022-01-09 00:00:00,ETH/USDT,3079.86,3209.40,3057.00,3150.00,1230848.792,3853748750.33209,1652895
1641600000000,2022-01-08 00:00:00,ETH/USDT,3196.58,3248.03,2996.45,3080.03,1859886.155,5808043464.37497,2323042
1641513600000,2022-01-07 00:00:00,ETH/USDT,3404.61,3415.35,3040.77,3196.58,2855226.352,9156175041.42808,3635807
1641427200000,2022-01-06 00:00:00,ETH/USDT,3537.81,3549.11,3292.31,3404.60,1840489.348,6279177286.15747,2474832
1641340800000,2022-01-05 00:00:00,ETH/USDT,3785.60,3847.18,3405.00,3537.71,1813981.948,6675092541.77517,2392846
1641254400000,2022-01-04 00:00:00,ETH/USDT,3764.07,3893.19,3711.00,3785.60,1253780.690,4775534414.28812,1702557
1641168000000,2022-01-03 00:00:00,ETH/USDT,3826.10,3850.00,3680.00,3764.07,999879.353,3777721163.97305,1481803
1641081600000,2022-01-02 00:00:00,ETH/USDT,3763.05,3860.00,3714.48,3826.21,740079.430,2798657676.16421,1251669
1640995200000,2022-01-01 00:00:00,ETH/USDT,3676.01,3776.33,3671.86,3763.06,755619.793,2815651909.34339,1253371
1640908800000,2021-12-31 00:00:00,ETH/USDT,3708.45,3814.95,3621.32,3676.02,1343940.174,5019121901.30920,1718536
1640822400000,2021-12-30 00:00:00,ETH/USDT,3628.49,3766.71,3580.00,3708.37,1023870.718,3783727767.90478,1468765
1640736000000,2021-12-29 00:00:00,ETH/USDT,3792.00,3825.91,3600.45,3628.55,1318187.731,4938307811.88661,1811791
1640649600000,2021-12-28 00:00:00,ETH/USDT,4037.35,4037.36,3756.26,3791.99,1675203.532,6515358318.89518,2329455
1640563200000,2021-12-27 00:00:00,ETH/USDT,4062.40,4126.00,4030.06,4037.36,837344.643,3412512083.97403,1346208
1640476800000,2021-12-26 00:00:00,ETH/USDT,4093.88,4104.84,4002.00,4062.24,767517.751,3110302732.49935,1214270
1640390400000,2021-12-25 00:00:00,ETH/USDT,4045.19,4138.47,4015.00,4093.87,890361.594,3621803415.02818,1550150
1640304000000,2021-12-24 00:00:00,ETH/USDT,4111.31,4133.38,4014.45,4045.00,1026594.079,4194323368.26720,1959357
1640217600000,2021-12-23 00:00:00,ETH/USDT,3978.63,4153.71,3888.87,4111.30,1586935.899,6342305120.28279,2574870
1640131200000,2021-12-22 00:00:00,ETH/USDT,4014.38,4074.99,3924.36,3978.62,1076095.044,4313444572.42589,1685371
1640044800000,2021-12-21 00:00:00,ETH/USDT,3943.64,4063.00,3912.26,4014.38,1246421.469,4984828563.72327,2100781
1639958400000,2021-12-20 00:00:00,ETH/USDT,3922.51,3981.48,3750.00,3943.48,1741509.419,6712525820.97073,2653960
1639872000000,2021-12-19 00:00:00,ETH/USDT,3957.65,4034.99,3881.89,3922.51,1402356.037,5534488536.14064,2030727
1639785600000,2021-12-18 00:00:00,ETH/USDT,3872.98,3997.39,3764.96,3957.64,1306368.673,5102991865.01633,2125631
1639699200000,2021-12-17 00:00:00,ETH/USDT,3958.70,3992.99,3694.20,3873.93,2112402.041,8150384191.83720,2881093
1639612800000,2021-12-16 00:00:00,ETH/USDT,4019.01,4118.47,3951.14,3958.67,1603846.854,6477885416.67551,2294353
1639526400000,2021-12-15 00:00:00,ETH/USDT,3856.67,4096.00,3639.39,4019.01,2415815.067,9333255722.11962,3239561
1639440000000,2021-12-14 00:00:00,ETH/USDT,3780.33,3879.13,3682.00,3856.66,1718001.410,6516584351.17794,2471176
1639353600000,2021-12-13 00:00:00,ETH/USDT,4129.16,4142.00,3668.34,3780.63,2252296.914,8753636591.89626,3204210
1639267200000,2021-12-12 00:00:00,ETH/USDT,4088.86,4173.37,3985.00,4129.00,1044691.201,4250371718.97262,1673043
1639180800000,2021-12-11 00:00:00,ETH/USDT,3895.85,4094.82,3831.01,4089.81,1729754.927,6927855786.59676,2513364
1639094400000,2021-12-10 00:00:00,ETH/USDT,4103.80,4232.00,3882.84,3895.95,2123045.506,8630315816.21057,2976443
1639008000000,2021-12-09 00:00:00,ETH/USDT,4435.70,4490.97,4075.00,4103.80,1905332.516,8128100154.37248,2592152
1638921600000,2021-12-08 00:00:00,ETH/USDT,4305.83,4454.60,4224.98,4435.33,1443466.295,6276303882.73508,2219642
1638835200000,2021-12-07 00:00:00,ETH/USDT,4345.44,4425.00,4255.27,4305.82,1388803.726,6040967486.57935,2183483
1638748800000,2021-12-06 00:00:00,ETH/USDT,4197.52,4377.58,3920.00,4345.20,2601175.770,10673116598.55363,3318691
1638662400000,2021-12-05 00:00:00,ETH/USDT,4115.79,4247.19,4033.00,4197.53,1909767.851,7920029236.98750,2872269
1638576000000,2021-12-04 00:00:00,ETH/USDT,4213.67,4237.20,3388.15,4115.79,3531695.892,13904957699.91255,4397362
1638489600000,2021-12-03 00:00:00,ETH/USDT,4514.32,4658.00,4004.00,4213.66,2648380.120,11599142242.40267,3359014
1638403200000,2021-12-02 00:00:00,ETH/USDT,4586.67,4636.86,4435.76,4514.32,1767131.692,8009972829.01313,2593287
1638316800000,2021-12-01 00:00:00,ETH/USDT,4631.43,4783.19,4528.50,4586.66,1861557.163,8721654100.22072,2896669
1638230400000,2021-11-30 00:00:00,ETH/USDT,4445.09,4757.80,4347.90,4631.51,2573876.207,11742857991.16934,3626412
1638144000000,2021-11-29 00:00:00,ETH/USDT,4297.01,4460.00,4280.00,4445.10,1432921.208,6245171955.45936,2026318
1638057600000,2021-11-28 00:00:00,ETH/USDT,4095.33,4301.07,3958.58,4296.60,1512818.390,6210487095.14454,2143420
1637971200000,2021-11-27 00:00:00,ETH/USDT,4040.66,4182.66,4027.32,4095.33,1008009.177,4148428146.16350,1684637
1637884800000,2021-11-26 00:00:00,ETH/USDT,4528.20,4555.00,3911.00,4040.66,2657050.069,11001572746.45120,3467510
1637798400000,2021-11-25 00:00:00,ETH/USDT,4271.29,4558.29,4250.34,4527.86,1247655.550,5497303917.35342,1984519
1637712000000,2021-11-24 00:00:00,ETH/USDT,4341.36,4377.00,4170.38,4271.29,1365898.959,5822609661.59857,2149379
1637625600000,2021-11-23 00:00:00,ETH/USDT,4086.41,4387.00,4059.55,4341.36,1636864.585,6895439496.10744,2491307
1637539200000,2021-11-22 00:00:00,ETH/USDT,4259.28,4327.75,4019.35,4086.57,1891091.913,7905984342.52000,2702558
1637452800000,2021-11-21 00:00:00,ETH/USDT,4412.37,4425.73,4242.00,4259.23,996488.568,4334385457.28967,1635793
1637366400000,2021-11-20 00:00:00,ETH/USDT,4293.44,4436.01,4202.24,4412.55,1143613.530,4931186882.83004,1814583
1637280000000,2021-11-19 00:00:00,ETH/USDT,3997.72,4309.04,3973.14,4293.44,1514406.552,6266188518.48803,2130976
1637193600000,2021-11-18 00:00:00,ETH/USDT,4288.00,4343.33,3957.96,3997.72,2286170.467,9439478791.19713,2883206
1637107200000,2021-11-17 00:00:00,ETH/USDT,4209.42,4300.00,4062.00,4287.99,1860601.927,7783640525.67040,2438404
1637020800000,2021-11-16 00:00:00,ETH/USDT,4567.01,4567.07,4077.00,4209.42,2734039.543,11760055645.26550,3378829
1636934400000,2021-11-15 00:00:00,ETH/USDT,4629.75,4771.83,4541.44,4567.01,1351110.691,6306501839.02235,1987809
1636848000000,2021-11-14 00:00:00,ETH/USDT,4644.42,4700.00,4515.84,4629.44,947148.676,4354962791.23766,1515170
1636761600000,2021-11-13 00:00:00,ETH/USDT,4665.99,4708.00,4585.11,4644.42,812743.805,3779188246.75865,1276335
1636675200000,2021-11-12 00:00:00,ETH/USDT,4721.19,4811.00,4508.00,4665.99,1671025.399,7762478251.17218,2375978
1636588800000,2021-11-11 00:00:00,ETH/USDT,4632.42,4783.12,4580.90,4721.19,1146003.874,5380011627.03747,1806373
1636502400000,2021-11-10 00:00:00,ETH/USDT,4734.99,4877.54,4450.00,4632.21,1848828.004,8703427804.71559,2683461
1636416000000,2021-11-09 00:00:00,ETH/USDT,4814.13,4844.97,4714.83,4734.98,1151973.219,5516088243.02753,1828390
1636329600000,2021-11-08 00:00:00,ETH/USDT,4616.51,4830.66,4615.21,4814.30,1214445.239,5753273555.99257,1852982
1636243200000,2021-11-07 00:00:00,ETH/USDT,4521.70,4642.76,4505.41,4616.50,832391.585,3816126139.59038,1498090
1636156800000,2021-11-06 00:00:00,ETH/USDT,4477.29,4538.29,4325.91,4521.40,1062427.875,4714538239.73170,1772519
1636070400000,2021-11-05 00:00:00,ETH/USDT,4535.38,4575.00,4445.10,4477.29,967384.995,4358883948.49716,1620292
1635984000000,2021-11-04 00:00:00,ETH/USDT,4606.59,4611.23,4423.09,4535.37,1202357.813,5431479120.96728,1818589
1635897600000,2021-11-03 00:00:00,ETH/USDT,4593.17,4676.00,4456.00,4606.59,1476260.698,6750265632.46388,2340677
1635811200000,2021-11-02 00:00:00,ETH/USDT,4322.72,4604.96,4286.67,4593.88,1477069.747,6575344469.33907,2278283
1635724800000,2021-11-01 00:00:00,ETH/USDT,4288.87,4385.57,4145.00,4322.72,1541230.772,6622171137.33538,2186831
1635638400000,2021-10-31 00:00:00,ETH/USDT,4324.82,4399.22,4161.00,4288.86,1308821.315,5597512700.72108,1990711
1635552000000,2021-10-30 00:00:00,ETH/USDT,4421.53,4438.85,4230.55,4324.82,1145688.807,4951230218.09777,1733391
1635465600000,2021-10-29 00:00:00,ETH/USDT,4288.91,4467.89,4269.16,4421.53,1862409.480,8133818992.52625,2761100
1635379200000,2021-10-28 00:00:00,ETH/USDT,3923.58,4300.00,3887.75,4288.96,2233903.498,9229357434.93807,2965480
1635292800000,2021-10-27 00:00:00,ETH/USDT,4133.37,4319.00,3900.00,3923.57,2642128.851,10763105133.42980,3282041
1635206400000,2021-10-26 00:00:00,ETH/USDT,4224.13,4306.61,4092.00,4133.39,1665700.699,6994107155.70646,2254733
1635120000000,2021-10-25 00:00:00,ETH/USDT,4084.60,4240.03,4071.37,4224.14,1389123.020,5782790674.75053,1960444
1635033600000,2021-10-24 00:00:00,ETH/USDT,4170.50,4191.72,3962.86,4084.61,1501860.773,6104092135.26068,2070642
1634947200000,2021-10-23 00:00:00,ETH/USDT,3975.55,4177.27,3940.60,4170.50,1494374.557,6054898527.29019,2032409
1634860800000,2021-10-22 00:00:00,ETH/USDT,4057.26,4172.52,3888.00,3975.56,2113125.983,8543803309.03356,2795912
1634774400000,2021-10-21 00:00:00,ETH/USDT,4164.13,4389.60,4006.83,4057.26,3807814.197,15910566499.34866,4598848
1634688000000,2021-10-20 00:00:00,ETH/USDT,3881.49,4173.50,3830.00,4164.14,2278334.962,9128464233.64793,2735839
1634601600000,2021-10-19 00:00:00,ETH/USDT,3748.10,3893.00,3734.93,3881.48,1769755.526,6744236733.28791,2184932
1634515200000,2021-10-18 00:00:00,ETH/USDT,3851.17,3898.94,3675.50,3748.31,1768303.025,6698042946.90319,2303134
1634428800000,2021-10-17 00:00:00,ETH/USDT,3833.29,3925.95,3634.32,3851.01,1611014.925,6142893874.59043,2079490
1634342400000,2021-10-16 00:00:00,ETH/USDT,3872.70,3980.00,3801.38,3833.30,1398494.278,5439841445.65477,1984170
1634256000000,2021-10-15 00:00:00,ETH/USDT,3794.18,3915.00,3737.13,3872.71,1828015.586,6986614680.17821,2438373
1634169600000,2021-10-14 00:00:00,ETH/USDT,3610.24,3830.00,3590.02,3794.19,1736537.630,6464841242.57513,2332774
1634083200000,2021-10-13 00:00:00,ETH/USDT,3492.90,3618.00,3412.29,3610.05,1635415.204,5716317657.28848,2084243
1633996800000,2021-10-12 00:00:00,ETH/USDT,3543.09,3549.82,3404.00,3492.91,1986800.415,6921948842.21512,2392794
1633910400000,2021-10-11 00:00:00,ETH/USDT,3415.01,3629.00,3368.00,3543.10,1874616.227,6627188014.14814,2262233
1633824000000,2021-10-10 00:00:00,ETH/USDT,3577.65,3607.55,3402.12,3415.01,1518799.428,5358091720.90991,2016636
1633737600000,2021-10-09 00:00:00,ETH/USDT,3563.82,3639.00,3538.10,3577.80,907875.164,3261401758.35606,1418747
1633651200000,2021-10-08 00:00:00,ETH/USDT,3589.85,3675.41,3531.00,3563.81,1501949.850,5420718273.95965,2075941
1633564800000,2021-10-07 00:00:00,ETH/USDT,3576.90,3659.98,3470.37,3589.85,1809003.003,6469443460.61853,2504305
1633478400000,2021-10-06 00:00:00,ETH/USDT,3517.64,3638.00,3339.67,3576.85,2134235.566,7490086402.70969,2853918
1633392000000,2021-10-05 00:00:00,ETH/USDT,3386.12,3549.90,3363.56,3517.64,1476768.109,5084407350.48579,2120567
1633305600000,2021-10-04 00:00:00,ETH/USDT,3418.21,3440.00,3268.81,3386.12,1961769.087,6593223607.91670,2748043
1633219200000,2021-10-03 00:00:00,ETH/USDT,3387.24,3489.22,3340.00,3418.25,1314004.609,4489154260.98601,2060929
1633132800000,2021-10-02 00:00:00,ETH/USDT,3308.59,3471.58,3257.05,3387.25,1587338.885,5321010602.50726,2257696
1633046400000,2021-10-01 00:00:00,ETH/USDT,2999.45,3331.56,2967.10,3308.58,2414202.176,7658451348.34575,3091228
1632960000000,2021-09-30 00:00:00,ETH/USDT,2848.38,3049.30,2835.29,2999.45,2159101.897,6442115144.18377,2898060
1632873600000,2021-09-29 00:00:00,ETH/USDT,2803.34,2949.00,2780.00,2848.38,1856317.865,5329924985.42150,2436419
1632787200000,2021-09-28 00:00:00,ETH/USDT,2923.59,2969.00,2781.00,2803.50,2369096.762,6842995160.86560,2966697
1632700800000,2021-09-27 00:00:00,ETH/USDT,3057.62,3163.90,2920.22,2923.60,2027218.619,6207785919.11740,2832962
1632614400000,2021-09-26 00:00:00,ETH/USDT,2921.08,3116.84,2737.19,3057.63,2764303.968,8086407799.82040,3532565
1632528000000,2021-09-25 00:00:00,ETH/USDT,2926.36,2967.32,2800.00,2921.08,2234473.056,6479851719.41051,2957595
1632441600000,2021-09-24 00:00:00,ETH/USDT,3150.70,3157.50,2731.00,2926.37,3728806.998,10865785866.61314,4408594
1632355200000,2021-09-23 00:00:00,ETH/USDT,3076.62,3173.99,3032.77,3150.70,1943658.778,6041895582.92996,2712607
1632268800000,2021-09-22 00:00:00,ETH/USDT,2765.47,3088.88,2736.57,3076.62,2674294.104,7869352817.07343,3650837
1632182400000,2021-09-21 00:00:00,ETH/USDT,2978.34,3108.17,2647.80,2765.48,4287819.594,12492102976.07246,5223380
1632096000000,2021-09-20 00:00:00,ETH/USDT,3328.99,3347.99,2907.07,2978.34,3894855.847,12039370935.18889,4649623
1632009600000,2021-09-19 00:00:00,ETH/USDT,3435.36,3459.00,3275.00,3328.72,1409270.892,4746244212.53249,2148573
1631923200000,2021-09-18 00:00:00,ETH/USDT,3401.00,3546.00,3370.25,3435.35,1392166.948,4822132415.09092,2152638
1631836800000,2021-09-17 00:00:00,ETH/USDT,3570.46,3597.52,3350.00,3400.99,1665745.301,5777910858.46376,2467615
1631750400000,2021-09-16 00:00:00,ETH/USDT,3614.71,3678.00,3482.00,3570.46,1879717.934,6749807268.03060,2648168
1631664000000,2021-09-15 00:00:00,ETH/USDT,3435.29,3620.00,3358.08,3614.72,1652816.482,5729547036.04413,2219716
1631577600000,2021-09-14 00:00:00,ETH/USDT,3284.17,3438.00,3269.25,3435.42,1536142.673,5132621489.63076,2284886
1631491200000,2021-09-13 00:00:00,ETH/USDT,3405.65,3432.12,3107.02,3284.41,2654865.254,8628300678.82541,3549751
1631404800000,2021-09-12 00:00:00,ETH/USDT,3267.28,3474.95,3230.84,3405.21,1518234.911,5125794285.18948,2511815
1631318400000,2021-09-11 00:00:00,ETH/USDT,3209.85,3349.17,3199.26,3267.23,1413713.591,4634941547.10116,2420923
1631232000000,2021-09-10 00:00:00,ETH/USDT,3426.43,3517.91,3143.20,3209.84,2299854.907,7664857100.21164,3428953
1631145600000,2021-09-09 00:00:00,ETH/USDT,3497.68,3570.34,3390.00,3426.42,1980923.900,6915562238.84697,2960337
1631059200000,2021-09-08 00:00:00,ETH/USDT,3435.00,3562.25,3217.01,3497.99,2986177.270,10180478366.96899,4117346
1630972800000,2021-09-07 00:00:00,ETH/USDT,3929.01,3952.53,2923.00,3435.00,4947996.791,17735945429.50642,5556239
1630886400000,2021-09-06 00:00:00,ETH/USDT,3952.56,3976.60,3864.27,3929.00,1471495.586,5785284739.10346,2207758
1630800000000,2021-09-05 00:00:00,ETH/USDT,3889.95,3991.25,3837.00,3952.56,1483337.994,5811218020.16181,2241970
1630713600000,2021-09-04 00:00:00,ETH/USDT,3942.83,3976.59,3835.00,3889.71,1508907.058,5898345690.61458,2318029
1630627200000,2021-09-03 00:00:00,ETH/USDT,3788.94,4036.44,3710.77,3942.79,2643680.210,10327395607.95398,3359042
1630540800000,2021-09-02 00:00:00,ETH/USDT,3831.42,3843.21,3723.87,3788.95,1997427.180,7549206070.15826,2756226
1630454400000,2021-09-01 00:00:00,ETH/USDT,3430.49,3849.00,3381.23,3831.44,3339812.397,12019155034.32282,3999484
1630368000000,2021-08-31 00:00:00,ETH/USDT,3230.42,3478.00,3187.85,3430.49,3605871.087,12096403303.17363,3916048
1630281600000,2021-08-30 00:00:00,ETH/USDT,3225.47,3350.00,3142.38,3230.43,2535431.803,8211167690.59126,2851387
1630195200000,2021-08-29 00:00:00,ETH/USDT,3247.47,3291.70,3150.50,3225.47,1642534.292,5275349676.12545,2127874
1630108800000,2021-08-28 00:00:00,ETH/USDT,3274.12,3288.22,3209.93,3247.29,1124796.339,3648997299.15339,1694830
1630022400000,2021-08-27 00:00:00,ETH/USDT,3093.81,3283.00,3061.44,3273.91,2227370.879,7072538774.15535,2685562
1629936000000,2021-08-26 00:00:00,ETH/USDT,3227.90,3254.00,3052.00,3093.77,2360877.641,7377079755.83256,2888145
1629849600000,2021-08-25 00:00:00,ETH/USDT,3173.99,3249.00,3078.52,3227.90,2405504.816,7633000732.16727,2892075
1629763200000,2021-08-24 00:00:00,ETH/USDT,3323.00,3362.00,3145.00,3173.98,2520587.128,8206532013.99988,2999337
1629676800000,2021-08-23 00:00:00,ETH/USDT,3241.29,3383.00,3233.07,3323.01,2430852.991,8087347064.89252,3053074
1629590400000,2021-08-22 00:00:00,ETH/USDT,3226.39,3276.42,3124.35,3241.29,1773220.917,5694971586.81129,2389513
1629504000000,2021-08-21 00:00:00,ETH/USDT,3286.65,3313.90,3207.12,3226.40,1838074.781,6008937521.27070,2562290
1629417600000,2021-08-20 00:00:00,ETH/USDT,3186.76,3308.26,3180.00,3286.62,2223015.324,7213472444.69804,2934913
1629331200000,2021-08-19 00:00:00,ETH/USDT,3014.31,3194.00,2958.80,3186.80,2795287.664,8517882649.26069,3542925
1629244800000,2021-08-18 00:00:00,ETH/USDT,3014.63,3125.92,2950.00,3014.25,2914764.091,8870183227.13909,3845910
1629158400000,2021-08-17 00:00:00,ETH/USDT,3146.82,3294.23,2992.00,3014.64,3583054.432,11313021664.72633,4538498
1629072000000,2021-08-16 00:00:00,ETH/USDT,3312.31,3343.00,3133.33,3146.83,2823441.625,9165693580.68069,3751738
1628985600000,2021-08-15 00:00:00,ETH/USDT,3266.31,3326.00,3109.00,3312.31,2863557.025,9176432710.68574,3847902
1628899200000,2021-08-14 00:00:00,ETH/USDT,3324.12,3337.99,3210.00,3266.31,2307338.730,7541715652.47723,3389219
1628812800000,2021-08-13 00:00:00,ETH/USDT,3046.63,3332.88,3034.35,3324.12,3291401.802,10556999488.07876,4036689
1628726400000,2021-08-12 00:00:00,ETH/USDT,3161.52,3241.57,2981.00,3046.74,3651234.966,11298867650.12576,4537077
1628640000000,2021-08-11 00:00:00,ETH/USDT,3143.97,3279.78,3120.69,3161.52,3248054.689,10431960240.70598,3926003
1628553600000,2021-08-10 00:00:00,ETH/USDT,3163.43,3239.13,3053.24,3143.98,4011325.684,12596399140.64382,4665614
1628467200000,2021-08-09 00:00:00,ETH/USDT,3014.06,3190.80,2890.03,3163.43,4997024.855,15308758012.82675,5388512
1628380800000,2021-08-08 00:00:00,ETH/USDT,3163.26,3195.67,2950.45,3014.06,4207474.000,12960508391.08436,4951334
1628294400000,2021-08-07 00:00:00,ETH/USDT,2892.29,3176.00,2865.45,3163.26,5211893.648,15898690989.95260,5830907
1628208000000,2021-08-06 00:00:00,ETH/USDT,2826.81,2948.36,2720.31,2892.30,3957430.190,11184522371.32228,4431054
1628121600000,2021-08-05 00:00:00,ETH/USDT,2725.00,2845.90,2527.00,2826.80,6430648.209,17419363268.20104,6217881
1628035200000,2021-08-04 00:00:00,ETH/USDT,2506.50,2775.06,2456.83,2725.00,4639321.233,12137903905.43098,4651056
1627948800000,2021-08-03 00:00:00,ETH/USDT,2607.09,2633.27,2441.00,2506.87,4035094.388,10108119599.97699,4142949
1627862400000,2021-08-02 00:00:00,ETH/USDT,2554.72,2666.91,2506.11,2607.09,3757454.702,9757084146.95917,3852144
1627776000000,2021-08-01 00:00:00,ETH/USDT,2530.37,2699.00,2511.88,2554.71,4203633.648,10920759980.85322,4097967
1627689600000,2021-07-31 00:00:00,ETH/USDT,2461.52,2553.80,2421.76,2530.49,2363945.704,5836744313.47873,2690844
1627603200000,2021-07-30 00:00:00,ETH/USDT,2382.45,2473.99,2316.03,2461.72,3555703.039,8490960948.10425,3527851
1627516800000,2021-07-29 00:00:00,ETH/USDT,2300.12,2406.44,2263.33,2382.45,2369811.378,5488185704.97631,2620977
1627430400000,2021-07-28 00:00:00,ETH/USDT,2298.05,2345.54,2242.20,2300.08,3309639.002,7597061765.53673,3719892
1627344000000,2021-07-27 00:00:00,ETH/USDT,2227.44,2319.00,2150.00,2298.04,4077823.745,9128465396.90154,4058565
1627257600000,2021-07-26 00:00:00,ETH/USDT,2188.15,2433.53,2170.03,2227.41,5648553.005,13069147530.17464,5017882
1627171200000,2021-07-25 00:00:00,ETH/USDT,2183.54,2197.00,2106.12,2188.11,2654022.719,5715783682.52749,2588512
1627084800000,2021-07-24 00:00:00,ETH/USDT,2124.34,2198.00,2105.40,2183.53,2900599.605,6230603831.28980,2827931
1626998400000,2021-07-23 00:00:00,ETH/USDT,2024.00,2131.96,1995.02,2124.33,3237000.868,6648633427.28004,3062474
1626912000000,2021-07-22 00:00:00,ETH/USDT,1995.50,2046.00,1945.00,2023.55,3739570.520,7466590230.05726,3437084
1626825600000,2021-07-21 00:00:00,ETH/USDT,1785.20,2038.00,1752.35,1995.49,5466949.512,10439929115.58029,4331017
1626739200000,2021-07-20 00:00:00,ETH/USDT,1818.40,1841.34,1715.00,1785.04,4510417.880,7956472622.46679,3712603
1626652800000,2021-07-19 00:00:00,ETH/USDT,1890.80,1917.82,1801.00,1818.40,3317206.573,6135968039.40363,2995048
1626566400000,2021-07-18 00:00:00,ETH/USDT,1898.55,1994.26,1875.00,1890.66,3350134.623,6490340037.90537,3000049
1626480000000,2021-07-17 00:00:00,ETH/USDT,1876.09,1919.00,1841.00,1898.55,3169044.845,5965787509.46470,2894663
1626393600000,2021-07-16 00:00:00,ETH/USDT,1919.36,1965.85,1846.00,1876.10,3797831.436,7227056616.37395,3347908
1626307200000,2021-07-15 00:00:00,ETH/USDT,1993.82,2042.10,1880.29,1919.35,3891662.256,7547129300.45538,3397840
1626220800000,2021-07-14 00:00:00,ETH/USDT,1940.31,2018.55,1862.32,1993.82,4274762.909,8306491741.37898,3557825
1626134400000,2021-07-13 00:00:00,ETH/USDT,2030.78,2048.97,1916.00,1940.32,3641617.739,7240764577.16506,3304763
1626048000000,2021-07-12 00:00:00,ETH/USDT,2140.26,2167.95,2003.40,2030.85,2941659.373,6135599771.18761,2856470
1625961600000,2021-07-11 00:00:00,ETH/USDT,2111.14,2175.00,2080.00,2140.27,2154716.197,4578291195.14697,2335825
1625875200000,2021-07-10 00:00:00,ETH/USDT,2147.40,2195.00,2073.00,2111.14,2803372.980,5940286610.76850,2901834
1625788800000,2021-07-09 00:00:00,ETH/USDT,2114.81,2189.27,2045.00,2147.53,4166847.297,8846405222.35686,3773678
1625702400000,2021-07-08 00:00:00,ETH/USDT,2314.64,2326.58,2082.07,2114.88,4154305.408,9080261738.94438,3793080
1625616000000,2021-07-07 00:00:00,ETH/USDT,2321.82,2410.00,2292.94,2314.65,3113882.674,7340606730.55211,3187956
1625529600000,2021-07-06 00:00:00,ETH/USDT,2195.38,2349.92,2191.24,2322.04,4197100.450,9626162967.33224,3956516
1625443200000,2021-07-05 00:00:00,ETH/USDT,2322.13,2324.22,2155.04,2195.38,4496599.633,10086981165.22405,3640844
1625356800000,2021-07-04 00:00:00,ETH/USDT,2226.71,2390.00,2188.00,2321.95,3200803.958,7390321295.61830,2845169
1625270400000,2021-07-03 00:00:00,ETH/USDT,2152.64,2239.00,2112.03,2226.63,2965805.065,6500249029.39124,2845458
1625184000000,2021-07-02 00:00:00,ETH/USDT,2105.23,2160.00,2016.43,2152.64,3889555.868,8073817364.15074,3627842
1625097600000,2021-07-01 00:00:00,ETH/USDT,2274.99,2275.68,2066.00,2105.24,4469383.028,9572977503.66685,3884220
1625011200000,2021-06-30 00:00:00,ETH/USDT,2165.03,2290.00,2087.23,2275.00,4574440.196,9905282259.92462,4069369
1624924800000,2021-06-29 00:00:00,ETH/USDT,2083.55,2244.33,2073.00,2165.15,4249854.368,9211767303.62075,3871897
1624838400000,2021-06-28 00:00:00,ETH/USDT,1981.00,2146.91,1960.31,2083.56,5085737.209,10414575455.76256,4329165
1624752000000,2021-06-27 00:00:00,ETH/USDT,1828.86,1984.61,1805.00,1980.83,3643084.635,6776865023.89345,3425455
1624665600000,2021-06-26 00:00:00,ETH/USDT,1808.00,1852.95,1715.00,1828.88,4547442.900,8078889026.41593,3987444
1624579200000,2021-06-25 00:00:00,ETH/USDT,1989.50,2020.00,1790.00,1808.00,4807609.447,9024571644.12839,4146621
1624492800000,2021-06-24 00:00:00,ETH/USDT,1966.48,2036.00,1883.47,1989.50,3069218.028,6018280271.63026,3138446
1624406400000,2021-06-23 00:00:00,ETH/USDT,1878.46,2044.35,1820.30,1966.51,4071236.262,8043287560.77444,3911111
1624320000000,2021-06-22 00:00:00,ETH/USDT,1884.75,1997.80,1698.64,1878.46,7629543.365,14223120472.28595,6312124
1624233600000,2021-06-21 00:00:00,ETH/USDT,2242.70,2259.27,1864.36,1884.77,8408243.758,16807647822.40997,7236677
1624147200000,2021-06-20 00:00:00,ETH/USDT,2163.36,2277.00,2038.94,2242.70,4117443.373,8843020670.45992,4022782
1624060800000,2021-06-19 00:00:00,ETH/USDT,2231.68,2280.00,2160.00,2163.36,2905034.112,6458695705.42715,3327674
1623974400000,2021-06-18 00:00:00,ETH/USDT,2372.50,2376.94,2135.04,2231.68,3783368.698,8552190538.28243,4084330
1623888000000,2021-06-17 00:00:00,ETH/USDT,2366.84,2459.77,2304.15,2372.51,2805257.770,6695512370.52803,3376157
1623801600000,2021-06-16 00:00:00,ETH/USDT,2544.28,2557.54,2350.00,2366.84,2715755.789,6669003234.20805,3397557
1623715200000,2021-06-15 00:00:00,ETH/USDT,2579.80,2639.99,2506.81,2544.17,2609572.986,6731794513.84064,3202340
1623628800000,2021-06-14 00:00:00,ETH/USDT,2508.56,2608.53,2460.00,2579.82,2592645.352,6555180132.71414,3222665
1623542400000,2021-06-13 00:00:00,ETH/USDT,2370.61,2548.00,2307.41,2508.71,2999871.755,7188328606.18587,3487459
1623456000000,2021-06-12 00:00:00,ETH/USDT,2354.25,2452.79,2255.42,2370.59,3349184.786,7889597212.00103,3729689
1623369600000,2021-06-11 00:00:00,ETH/USDT,2471.05,2497.94,2320.00,2354.25,2932342.336,7111141085.93231,3385342
1623283200000,2021-06-10 00:00:00,ETH/USDT,2610.20,2624.79,2423.36,2471.11,3151629.315,7963220022.58071,3512649
1623196800000,2021-06-09 00:00:00,ETH/USDT,2506.13,2627.38,2404.01,2610.20,5127988.288,12928474320.41501,4862437
1623110400000,2021-06-08 00:00:00,ETH/USDT,2592.51,2621.27,2305.50,2506.19,6567894.086,16237479290.57325,5951981
1623024000000,2021-06-07 00:00:00,ETH/USDT,2711.30,2849.65,2569.30,2592.96,4175255.701,11416987186.62013,4541784
1622937600000,2021-06-06 00:00:00,ETH/USDT,2627.44,2744.00,2613.11,2711.40,2719341.885,7316997901.78934,3156256
1622851200000,2021-06-05 00:00:00,ETH/USDT,2689.41,2817.43,2550.77,2627.45,3876375.640,10381974440.23042,4216220
1622764800000,2021-06-04 00:00:00,ETH/USDT,2858.34,2861.53,2540.61,2689.21,4343826.882,11593942225.54805,4514677
1622678400000,2021-06-03 00:00:00,ETH/USDT,2707.03,2892.23,2662.00,2858.34,3561113.235,9987629061.44338,3961169
1622592000000,2021-06-02 00:00:00,ETH/USDT,2634.61,2804.04,2551.03,2707.22,3026897.821,8165015125.37414,3628070
1622505600000,2021-06-01 00:00:00,ETH/USDT,2706.46,2741.45,2523.82,2634.63,3779985.270,9868610856.33613,4328581
1622419200000,2021-05-31 00:00:00,ETH/USDT,2386.11,2721.51,2271.46,2706.33,4203920.413,10502558832.11788,4606980
1622332800000,2021-05-30 00:00:00,ETH/USDT,2277.99,2476.83,2179.13,2386.11,3642984.366,8645260126.70548,4099827
1622246400000,2021-05-29 00:00:00,ETH/USDT,2411.65,2577.04,2208.04,2277.99,4468023.064,10655588004.12472,4840289
1622160000000,2021-05-28 00:00:00,ETH/USDT,2742.77,2763.57,2324.48,2411.66,4733066.731,11983057928.13767,5232829
1622073600000,2021-05-27 00:00:00,ETH/USDT,2884.16,2893.03,2634.00,2742.77,3441489.934,9494992137.75452,4319043
1621987200000,2021-05-26 00:00:00,ETH/USDT,2706.82,2913.00,2642.87,2884.27,4052111.799,11285324614.47753,5030449
1621900800000,2021-05-25 00:00:00,ETH/USDT,2649.49,2750.00,2380.60,2706.83,5322472.943,13694505271.63173,6447582
1621814400000,2021-05-24 00:00:00,ETH/USDT,2096.62,2675.00,2079.00,2649.27,5714266.276,13586348325.92198,6572796
1621728000000,2021-05-23 00:00:00,ETH/USDT,2295.46,2383.41,1728.85,2096.63,7797669.636,15783098848.93368,8787549
1621641600000,2021-05-22 00:00:00,ETH/USDT,2431.24,2489.65,2151.63,2295.15,4564819.521,10666152727.52536,5861628
1621555200000,2021-05-21 00:00:00,ETH/USDT,2768.42,2940.00,2097.99,2431.01,6041584.187,15265695041.77466,7619795
1621468800000,2021-05-20 00:00:00,ETH/USDT,2444.02,2990.85,2150.00,2768.42,6097256.740,16113950567.52409,8152933
1621382400000,2021-05-19 00:00:00,ETH/USDT,3377.03,3446.24,1400.73,2442.98,10144417.228,27803524889.35709,13310540
1621296000000,2021-05-18 00:00:00,ETH/USDT,3283.23,3570.27,3240.06,3376.35,3842243.270,13102791083.02771,4889289
1621209600000,2021-05-17 00:00:00,ETH/USDT,3581.39,3587.00,3125.00,3283.58,5745286.600,19279667315.49166,6763734
1621123200000,2021-05-16 00:00:00,ETH/USDT,3649.01,3882.76,3348.00,3581.39,4223938.158,15266100829.69663,5514066
1621036800000,2021-05-15 00:00:00,ETH/USDT,4079.98,4137.21,3634.44,3648.98,3321250.207,12859384950.05047,4473474
1620950400000,2021-05-14 00:00:00,ETH/USDT,3719.44,4175.00,3692.99,4079.99,3063526.292,12181077842.13998,4229804
1620864000000,2021-05-13 00:00:00,ETH/USDT,3829.89,4036.45,3491.53,3719.45,5852199.813,22134721314.84749,7847323
1620777600000,2021-05-12 00:00:00,ETH/USDT,4175.85,4379.18,3723.43,3828.99,4928002.067,20540714054.05621,6206838
1620691200000,2021-05-11 00:00:00,ETH/USDT,3950.32,4183.52,3778.17,4175.91,3394479.287,13477585470.55893,4132170
1620604800000,2021-05-10 00:00:00,ETH/USDT,3927.83,4214.92,3658.00,3950.33,5052309.882,20426765812.22148,5506108
1620518400000,2021-05-09 00:00:00,ETH/USDT,3914.95,3985.55,3730.00,3928.01,3118238.261,12120213502.67268,3541487
1620432000000,2021-05-08 00:00:00,ETH/USDT,3480.98,3964.83,3451.74,3914.47,3128854.033,11602305090.60812,3543096
1620345600000,2021-05-07 00:00:00,ETH/USDT,3493.17,3592.00,3355.00,3480.98,2326172.061,8094167086.99724,2597356
1620259200000,2021-05-06 00:00:00,ETH/USDT,3528.74,3616.00,3380.25,3493.16,3041910.825,10632727893.23226,3211347
1620172800000,2021-05-05 00:00:00,ETH/USDT,3243.65,3552.74,3211.00,3528.49,3838631.919,12937893760.98514,3812962
1620086400000,2021-05-04 00:00:00,ETH/USDT,3433.70,3529.64,3160.01,3243.67,6940584.205,23227206677.60779,6222637
1620000000000,2021-05-03 00:00:00,ETH/USDT,2950.91,3459.80,2950.70,3433.36,5116980.548,16382343434.80363,4435590
1619913600000,2021-05-02 00:00:00,ETH/USDT,2947.00,2986.97,2856.70,2950.98,2080727.947,6086611127.85545,1950830
1619827200000,2021-05-01 00:00:00,ETH/USDT,2773.16,2958.91,2754.04,2947.01,2293998.885,6589470501.42250,2139762
1619740800000,2021-04-30 00:00:00,ETH/USDT,2759.15,2803.55,2726.88,2773.15,1961665.845,5412494300.94511,1879324
1619654400000,2021-04-29 00:00:00,ETH/USDT,2748.33,2798.00,2668.87,2759.14,2827431.929,7750499577.39320,2503798
1619568000000,2021-04-28 00:00:00,ETH/USDT,2668.28,2762.10,2562.83,2748.33,3857131.883,10332188911.34269,3211060
1619481600000,2021-04-27 00:00:00,ETH/USDT,2534.17,2683.42,2481.43,2668.39,2604067.050,6743588001.19054,2397806
1619395200000,2021-04-26 00:00:00,ETH/USDT,2320.71,2545.50,2303.42,2534.25,3507145.533,8646978933.32786,2997476
1619308800000,2021-04-25 00:00:00,ETH/USDT,2215.55,2357.00,2162.90,2320.71,3570867.777,8083675412.60140,2864331
1619222400000,2021-04-24 00:00:00,ETH/USDT,2368.66,2370.04,2156.58,2215.54,3424662.228,7712787520.22163,2896447
1619136000000,2021-04-23 00:00:00,ETH/USDT,2399.20,2443.66,2110.00,2368.67,6753400.874,15240128936.78810,5287498
1619049600000,2021-04-22 00:00:00,ETH/USDT,2359.41,2645.63,2305.00,2398.94,6698438.657,16634756435.85801,5254044
1618963200000,2021-04-21 00:00:00,ETH/USDT,2330.07,2470.00,2238.96,2358.90,3556266.081,8376213677.30245,2869276
1618876800000,2021-04-20 00:00:00,ETH/USDT,2162.76,2347.00,2052.42,2329.96,3393046.281,7390689083.89487,2726060
1618790400000,2021-04-19 00:00:00,ETH/USDT,2235.32,2278.58,2079.12,2162.75,3029523.224,6625482639.95203,2298989
1618704000000,2021-04-18 00:00:00,ETH/USDT,2319.93,2341.91,1900.00,2235.32,4275573.298,9242083489.27048,3573690
1618617600000,2021-04-17 00:00:00,ETH/USDT,2427.29,2499.26,2314.49,2319.80,2057149.939,4945909137.13609,1733667
1618531200000,2021-04-16 00:00:00,ETH/USDT,2519.85,2553.00,2298.23,2427.29,3505534.172,8482048892.07963,2375308
1618444800000,2021-04-15 00:00:00,ETH/USDT,2436.74,2548.60,2403.14,2519.85,2600911.507,6417301595.81241,2000570
1618358400000,2021-04-14 00:00:00,ETH/USDT,2303.15,2450.00,2286.04,2437.08,3370771.796,7962169647.24720,2468771
1618272000000,2021-04-13 00:00:00,ETH/USDT,2139.24,2324.00,2137.21,2303.15,2311955.605,5176595617.26422,1780146
1618185600000,2021-04-12 00:00:00,ETH/USDT,2155.07,2209.99,2101.96,2139.25,1659510.107,3572221905.88937,1486039
1618099200000,2021-04-11 00:00:00,ETH/USDT,2135.99,2171.07,2115.56,2155.05,1290245.975,2765613090.77921,1262394
1618012800000,2021-04-10 00:00:00,ETH/USDT,2068.02,2211.94,2059.03,2135.96,2077350.376,4462334737.25942,1721187
1617926400000,2021-04-09 00:00:00,ETH/USDT,2082.02,2104.83,2052.00,2068.02,1237414.829,2571500898.67981,1159312
1617840000000,2021-04-08 00:00:00,ETH/USDT,1965.40,2086.67,1950.00,2082.08,1653807.764,3355215507.54095,1460069
1617753600000,2021-04-07 00:00:00,ETH/USDT,2114.48,2133.02,1930.10,1965.40,3144081.502,6331327536.57340,2315021
1617667200000,2021-04-06 00:00:00,ETH/USDT,2110.39,2161.02,2043.89,2114.47,2216031.293,4675497907.26923,1850400
1617580800000,2021-04-05 00:00:00,ETH/USDT,2077.85,2138.61,2002.16,2110.35,2029400.255,4215186592.34909,1754041
1617494400000,2021-04-04 00:00:00,ETH/USDT,2012.64,2093.72,1980.00,2077.73,1628243.592,3330679833.83388,1485985
1617408000000,2021-04-03 00:00:00,ETH/USDT,2138.01,2144.17,2002.00,2012.63,2961945.620,6150272520.34633,2154740
1617321600000,2021-04-02 00:00:00,ETH/USDT,1969.75,2150.00,1949.94,2138.01,2782619.002,5678697553.59085,2187811
1617235200000,2021-04-01 00:00:00,ETH/USDT,1923.07,1989.11,1882.10,1969.74,2282765.600,4435453780.00105,1864863
1617148800000,2021-03-31 00:00:00,ETH/USDT,1843.43,1952.98,1771.85,1923.07,2721505.354,5049966053.51530,2093530
1617062400000,2021-03-30 00:00:00,ETH/USDT,1818.43,1863.79,1788.30,1843.43,1627666.888,2977548709.20566,1367854
1616976000000,2021-03-29 00:00:00,ETH/USDT,1688.31,1845.00,1680.04,1818.44,1936361.877,3435359910.82720,1494348
1616889600000,2021-03-28 00:00:00,ETH/USDT,1714.14,1727.50,1662.54,1688.30,1167051.376,1983034035.73383,1118546
1616803200000,2021-03-27 00:00:00,ETH/USDT,1699.21,1734.88,1668.30,1714.34,1412714.740,2399338118.75358,1272307
1616716800000,2021-03-26 00:00:00,ETH/USDT,1587.44,1701.19,1587.03,1699.13,1630204.715,2675730180.49903,1296455
1616630400000,2021-03-25 00:00:00,ETH/USDT,1582.01,1622.54,1548.56,1587.50,2454402.206,3902283814.32379,1762270
1616544000000,2021-03-24 00:00:00,ETH/USDT,1669.33,1742.43,1540.22,1582.11,2657346.906,4399210528.81931,2011721
1616457600000,2021-03-23 00:00:00,ETH/USDT,1681.66,1722.52,1652.58,1669.33,1875276.276,3172273699.64815,1705140
1616371200000,2021-03-22 00:00:00,ETH/USDT,1784.78,1809.59,1653.67,1681.69,2062250.384,3606818027.20300,1816905
1616284800000,2021-03-21 00:00:00,ETH/USDT,1807.43,1818.61,1745.02,1784.67,1569940.157,2801382704.19012,1557526
1616198400000,2021-03-20 00:00:00,ETH/USDT,1811.04,1873.84,1802.50,1807.35,1400240.860,2573392189.53617,1433898
1616112000000,2021-03-19 00:00:00,ETH/USDT,1777.55,1844.32,1733.09,1811.04,1807873.070,3259787302.19901,1544047
1616025600000,2021-03-18 00:00:00,ETH/USDT,1825.94,1853.00,1758.48,1777.54,1948941.621,3527078371.44721,1636587
1615939200000,2021-03-17 00:00:00,ETH/USDT,1807.25,1841.86,1741.95,1825.77,2164536.182,3879170125.69688,1729032
1615852800000,2021-03-16 00:00:00,ETH/USDT,1795.09,1819.76,1712.00,1807.25,2500648.806,4444439699.43044,2007781
1615766400000,2021-03-15 00:00:00,ETH/USDT,1850.50,1896.30,1729.20,1794.89,3297299.618,5932093091.82662,2427808
1615680000000,2021-03-14 00:00:00,ETH/USDT,1924.94,1935.88,1836.00,1850.54,2244662.581,4225374618.59173,1884142
1615593600000,2021-03-13 00:00:00,ETH/USDT,1767.32,1948.75,1729.33,1924.94,2763730.381,5136048302.61478,2322825
1615507200000,2021-03-12 00:00:00,ETH/USDT,1828.96,1846.59,1719.92,1767.44,2753218.247,4887332853.92612,2301344
1615420800000,2021-03-11 00:00:00,ETH/USDT,1796.80,1850.07,1725.96,1829.00,3061111.766,5482129545.41183,2474950
1615334400000,2021-03-10 00:00:00,ETH/USDT,1873.37,1882.59,1760.00,1796.80,3413199.591,6215915591.53833,2552861
1615248000000,2021-03-09 00:00:00,ETH/USDT,1834.47,1873.86,1801.00,1873.31,2460568.209,4512195932.80944,2005441
1615161600000,2021-03-08 00:00:00,ETH/USDT,1727.73,1844.57,1667.86,1834.30,3501989.878,6080210583.95216,2433911
1615075200000,2021-03-07 00:00:00,ETH/USDT,1651.90,1736.89,1631.59,1727.23,2570034.976,4288738410.50978,1917251
1614988800000,2021-03-06 00:00:00,ETH/USDT,1529.75,1674.02,1515.16,1651.73,2839191.599,4507498262.31200,2111387
1614902400000,2021-03-05 00:00:00,ETH/USDT,1540.70,1551.00,1441.57,1529.88,3051666.755,4547100964.24997,2173938
1614816000000,2021-03-04 00:00:00,ETH/USDT,1568.63,1626.00,1506.99,1540.69,3087612.251,4819190828.68560,2412427
1614729600000,2021-03-03 00:00:00,ETH/USDT,1486.24,1664.00,1475.00,1568.63,3055043.878,4859941588.27233,2317178
1614643200000,2021-03-02 00:00:00,ETH/USDT,1571.20,1604.85,1455.30,1486.28,2884922.074,4419676882.47557,2055288
1614556800000,2021-03-01 00:00:00,ETH/USDT,1419.96,1573.42,1411.10,1571.20,2727916.510,4093786528.92125,2130657
1614470400000,2021-02-28 00:00:00,ETH/USDT,1458.64,1469.44,1292.80,1419.77,4109392.696,5629627203.07104,3035122
1614384000000,2021-02-27 00:00:00,ETH/USDT,1445.36,1530.19,1425.50,1458.65,2530875.338,3756706927.66827,2054630
1614297600000,2021-02-26 00:00:00,ETH/USDT,1482.13,1563.66,1401.01,1445.28,3880051.012,5737181606.49004,2740047
1614211200000,2021-02-25 00:00:00,ETH/USDT,1623.94,1672.49,1458.00,1482.09,2955804.261,4711814880.46952,2157420
1614124800000,2021-02-24 00:00:00,ETH/USDT,1579.75,1714.04,1501.09,1623.98,3593348.017,5867227964.60702,2633258
1614038400000,2021-02-23 00:00:00,ETH/USDT,1778.22,1784.08,1348.17,1579.75,7089349.585,10942958835.92679,5372037
1613952000000,2021-02-22 00:00:00,ETH/USDT,1934.59,1938.50,1552.20,1778.30,4972903.814,8838825736.40233,3509281
1613865600000,2021-02-21 00:00:00,ETH/USDT,1914.51,1981.04,1885.00,1934.75,2039425.917,3961287537.73876,1712993
1613779200000,2021-02-20 00:00:00,ETH/USDT,1958.59,2048.00,1792.00,1914.58,3273599.601,6470877708.60090,2451990
1613692800000,2021-02-19 00:00:00,ETH/USDT,1941.12,1980.00,1894.00,1958.58,1943898.870,3766473154.64299,1688871
1613606400000,2021-02-18 00:00:00,ETH/USDT,1849.87,1955.00,1849.37,1941.26,2447343.966,4677799273.31045,1991785
1613520000000,2021-02-17 00:00:00,ETH/USDT,1784.31,1864.26,1735.66,1849.86,2340915.266,4236223610.15366,1854144
1613433600000,2021-02-16 00:00:00,ETH/USDT,1781.34,1831.58,1726.01,1784.31,2536777.874,4526508138.96013,1955052
1613347200000,2021-02-15 00:00:00,ETH/USDT,1804.00,1839.63,1652.00,1781.34,3238695.810,5714101385.26495,2238984
1613260800000,2021-02-14 00:00:00,ETH/USDT,1817.86,1857.67,1785.23,1803.59,1773668.237,3236470817.88099,1480018
1613174400000,2021-02-13 00:00:00,ETH/USDT,1843.08,1878.88,1764.79,1818.02,2381458.551,4331083291.86820,1795873
1613088000000,2021-02-12 00:00:00,ETH/USDT,1789.32,1872.86,1740.22,1843.08,2650816.264,4780809285.80296,1942543
1613001600000,2021-02-11 00:00:00,ETH/USDT,1743.30,1827.07,1704.21,1789.32,2256762.199,3999256495.29382,1755149
1612915200000,2021-02-10 00:00:00,ETH/USDT,1770.99,1848.00,1680.00,1743.31,3442140.650,6073425415.15680,2403599
1612828800000,2021-02-09 00:00:00,ETH/USDT,1755.60,1830.47,1713.20,1770.79,3388435.791,5963865015.44841,2375549
1612742400000,2021-02-08 00:00:00,ETH/USDT,1612.00,1782.50,1566.22,1755.61,3884050.435,6554958213.11899,2752510
1612656000000,2021-02-07 00:00:00,ETH/USDT,1679.38,1695.50,1490.48,1611.99,4063794.078,6470840190.45740,2835190
1612569600000,2021-02-06 00:00:00,ETH/USDT,1721.03,1748.11,1647.09,1679.34,2991060.685,5059220432.83740,2363495
1612483200000,2021-02-05 00:00:00,ETH/USDT,1595.93,1767.19,1592.46,1721.16,3518469.104,5947779584.53895,2628410
1612396800000,2021-02-04 00:00:00,ETH/USDT,1666.10,1703.37,1557.00,1596.00,4966516.757,8136508279.05647,3470922
1612310400000,2021-02-03 00:00:00,ETH/USDT,1516.20,1672.76,1510.76,1666.00,4407760.724,6966221755.17020,3190764
1612224000000,2021-02-02 00:00:00,ETH/USDT,1376.74,1551.50,1363.00,1516.26,5098356.241,7431220730.79352,3355992
1612137600000,2021-02-01 00:00:00,ETH/USDT,1313.09,1379.73,1270.00,1376.48,2282184.993,3023615300.24649,1841919
1612051200000,2021-01-31 00:00:00,ETH/USDT,1380.42,1383.70,1281.96,1313.12,2091898.285,2789247028.64788,1745459
1611964800000,2021-01-30 00:00:00,ETH/USDT,1382.14,1409.35,1328.00,1380.48,2364036.673,3218442098.50122,2016654
1611878400000,2021-01-29 00:00:00,ETH/USDT,1330.28,1443.00,1285.46,1381.99,5010264.423,6852570488.05573,3646547
1611792000000,2021-01-28 00:00:00,ETH/USDT,1238.55,1362.94,1217.28,1329.86,3463945.921,4544323851.28896,2615492
1611705600000,2021-01-27 00:00:00,ETH/USDT,1368.48,1377.90,1206.00,1238.55,5277115.882,6718585856.24908,3583216
1611619200000,2021-01-26 00:00:00,ETH/USDT,1318.53,1379.50,1244.87,1368.40,4868106.344,6419154907.36397,3330274
1611532800000,2021-01-25 00:00:00,ETH/USDT,1394.23,1481.46,1293.00,1318.61,5138109.254,7203921848.37190,3373235
1611446400000,2021-01-24 00:00:00,ETH/USDT,1235.65,1401.88,1221.51,1394.24,3768553.334,4990725961.73751,2620391
1611360000000,2021-01-23 00:00:00,ETH/USDT,1234.54,1274.00,1197.00,1235.66,2920417.541,3621490157.81458,2103058
1611273600000,2021-01-22 00:00:00,ETH/USDT,1111.82,1274.52,1041.13,1234.55,5475223.381,6400413550.76259,3498939
1611187200000,2021-01-21 00:00:00,ETH/USDT,1379.23,1391.00,1083.40,1111.23,6820207.515,8422222242.52244,4232497
1611100800000,2021-01-20 00:00:00,ETH/USDT,1367.38,1411.38,1236.35,1379.24,5844273.198,7735368865.48017,3605568
1611014400000,2021-01-19 00:00:00,ETH/USDT,1263.00,1444.05,1255.51,1367.51,6288844.344,8661460016.53140,3890176
1610928000000,2021-01-18 00:00:00,ETH/USDT,1233.61,1265.96,1183.20,1262.99,2562805.077,3145780782.70752,2072463
1610841600000,2021-01-17 00:00:00,ETH/USDT,1230.32,1272.28,1165.00,1233.71,3396518.439,4148284417.37915,2848234
1610755200000,2021-01-16 00:00:00,ETH/USDT,1168.65,1296.79,1152.13,1230.19,3980782.071,4882690374.13278,2865431
1610668800000,2021-01-15 00:00:00,ETH/USDT,1234.50,1260.00,1070.00,1168.79,5020898.727,5936014554.39960,3358575
1610582400000,2021-01-14 00:00:00,ETH/USDT,1130.40,1249.32,1087.68,1234.86,4079502.435,4801436186.55306,2522658
1610496000000,2021-01-13 00:00:00,ETH/USDT,1050.67,1138.63,987.21,1130.40,4029644.646,4284303782.76047,2781096
1610409600000,2021-01-12 00:00:00,ETH/USDT,1086.84,1153.13,1007.00,1050.82,5531356.605,5979396463.61216,3566320
1610323200000,2021-01-11 00:00:00,ETH/USDT,1257.95,1264.50,915.20,1086.94,11237262.772,11884458713.94124,6888480
1610236800000,2021-01-10 00:00:00,ETH/USDT,1279.96,1354.66,1168.49,1257.96,5913298.389,7633413010.30207,3326148
1610150400000,2021-01-09 00:00:00,ETH/USDT,1218.55,1314.00,1173.00,1279.96,4157466.015,5122826054.03456,2332783
1610064000000,2021-01-08 00:00:00,ETH/USDT,1227.50,1279.06,1064.60,1218.39,6994773.234,8338888162.52835,3819568
1609977600000,2021-01-07 00:00:00,ETH/USDT,1212.98,1297.15,1150.00,1227.12,5807791.010,7101050891.07010,2990880
1609891200000,2021-01-06 00:00:00,ETH/USDT,1101.29,1218.00,1057.30,1212.64,6952861.553,7952492225.25109,3494566
1609804800000,2021-01-05 00:00:00,ETH/USDT,1043.12,1138.92,974.23,1101.29,7526097.093,7963297766.14071,3756458
1609718400000,2021-01-04 00:00:00,ETH/USDT,980.23,1173.94,890.00,1043.11,12057661.067,12280790632.57096,5214614
1609632000000,2021-01-03 00:00:00,ETH/USDT,775.04,1022.51,769.19,980.24,9610267.802,8696957087.56834,3584354
1609545600000,2021-01-02 00:00:00,ETH/USDT,729.70,788.71,715.60,775.02,4176508.581,3166570113.30716,1675287
1609459200000,2021-01-01 00:00:00,ETH/USDT,737.18,750.40,714.55,729.77,1952291.250,1435726001.91560,1022268
1609372800000,2020-12-31 00:00:00,ETH/USDT,753.05,757.00,721.75,737.19,2876756.193,2129347026.27606,1310873
1609286400000,2020-12-30 00:00:00,ETH/USDT,733.45,760.76,717.52,753.04,3348883.502,2472826955.60816,1537599
1609200000000,2020-12-29 00:00:00,ETH/USDT,731.06,742.00,690.10,733.45,4261041.716,3062141882.86711,1752957
1609113600000,2020-12-28 00:00:00,ETH/USDT,685.97,749.50,681.91,731.07,5455254.006,3965092828.22437,2092574
1609027200000,2020-12-27 00:00:00,ETH/USDT,637.89,718.75,625.00,685.97,6363000.477,4287976144.01719,2234484
1608940800000,2020-12-26 00:00:00,ETH/USDT,627.17,654.32,615.10,637.90,3122352.524,1980966584.01513,1165772
1608854400000,2020-12-25 00:00:00,ETH/USDT,612.31,634.96,604.50,627.18,2623370.085,1624993202.28557,1020133
1608768000000,2020-12-24 00:00:00,ETH/USDT,585.49,615.42,565.20,612.31,3154682.001,1850869925.29699,1169046
1608681600000,2020-12-23 00:00:00,ETH/USDT,637.20,639.54,546.81,585.34,4594542.183,2780347849.30735,1465155
1608595200000,2020-12-22 00:00:00,ETH/USDT,608.24,638.70,588.41,637.20,3285945.398,2018867691.25137,1058048
1608508800000,2020-12-21 00:00:00,ETH/USDT,638.25,648.88,595.54,608.18,3621682.355,2244492979.21308,1260169
1608422400000,2020-12-20 00:00:00,ETH/USDT,658.82,662.99,620.93,638.27,2759178.686,1784260076.65732,1034345
1608336000000,2020-12-19 00:00:00,ETH/USDT,654.44,671.95,646.00,658.81,2635211.184,1734368811.90602,1107104
1608249600000,2020-12-18 00:00:00,ETH/USDT,643.09,665.85,630.10,654.51,2995266.462,1938890105.18305,1193469
1608163200000,2020-12-17 00:00:00,ETH/USDT,637.79,678.20,625.00,643.12,6624640.551,4323918360.18859,2097193
1608076800000,2020-12-16 00:00:00,ETH/USDT,588.80,640.47,581.04,637.80,3634225.420,2224121861.38123,1304479
1607990400000,2020-12-15 00:00:00,ETH/USDT,586.32,598.00,579.00,588.80,1866136.289,1096639680.90851,823810
1607904000000,2020-12-14 00:00:00,ETH/USDT,590.92,591.63,575.57,586.33,1808415.505,1056642933.64741,801134
1607817600000,2020-12-13 00:00:00,ETH/USDT,568.30,595.47,563.11,590.91,2311572.280,1347203345.71772,798911
1607731200000,2020-12-12 00:00:00,ETH/USDT,544.80,574.00,543.34,568.34,1764546.873,986473193.62934,700318
1607644800000,2020-12-11 00:00:00,ETH/USDT,559.69,561.37,533.11,544.74,2929601.560,1599364273.38403,937661
1607558400000,2020-12-10 00:00:00,ETH/USDT,573.28,575.67,548.52,559.71,2293137.506,1286219630.44382,792141
1607472000000,2020-12-09 00:00:00,ETH/USDT,555.08,578.62,531.00,573.27,3460599.610,1926583484.51165,1102128
1607385600000,2020-12-08 00:00:00,ETH/USDT,591.84,595.75,548.00,555.17,3233758.126,1856322580.76521,1019489
1607299200000,2020-12-07 00:00:00,ETH/USDT,601.86,603.63,584.67,591.84,1665460.089,989095671.20030,676652
1607212800000,2020-12-06 00:00:00,ETH/USDT,596.98,607.93,583.20,601.86,2030749.593,1210476905.56092,934832
1607126400000,2020-12-05 00:00:00,ETH/USDT,567.69,598.20,561.06,596.97,2107815.290,1234522304.91226,881935
1607040000000,2020-12-04 00:00:00,ETH/USDT,616.21,620.99,564.91,567.68,3251195.251,1930987603.32641,1123400
1606953600000,2020-12-03 00:00:00,ETH/USDT,596.96,624.70,585.95,616.20,2791753.902,1695201269.41961,997759
1606867200000,2020-12-02 00:00:00,ETH/USDT,585.92,605.88,574.73,596.96,3460094.906,2049109615.60201,1117881
1606780800000,2020-12-01 00:00:00,ETH/USDT,617.50,638.66,558.00,585.98,7059013.364,4240637440.96608,1951189
1606694400000,2020-11-30 00:00:00,ETH/USDT,576.38,617.53,570.90,617.42,4836853.473,2884934969.37863,1368780
1606608000000,2020-11-29 00:00:00,ETH/USDT,537.37,577.00,530.50,576.38,2762989.981,1524874855.14498,943839
1606521600000,2020-11-28 00:00:00,ETH/USDT,518.89,548.00,507.00,537.46,2832550.126,1497243990.57013,906409
1606435200000,2020-11-27 00:00:00,ETH/USDT,520.20,530.83,493.80,518.92,3685801.761,1891984830.74204,1098744
1606348800000,2020-11-26 00:00:00,ETH/USDT,569.79,577.53,480.12,520.25,9591594.788,4964042842.54140,2411538
1606262400000,2020-11-25 00:00:00,ETH/USDT,605.71,607.09,555.00,569.79,4433328.336,2605337977.25365,1287051
1606176000000,2020-11-24 00:00:00,ETH/USDT,609.12,624.65,586.15,605.72,5651528.809,3439202254.39881,1535693
1606089600000,2020-11-23 00:00:00,ETH/USDT,560.41,611.88,550.81,609.12,7475301.504,4395596654.20608,1708344
1606003200000,2020-11-22 00:00:00,ETH/USDT,554.04,582.93,511.00,560.42,7317045.590,4022935662.18822,1515989
1605916800000,2020-11-21 00:00:00,ETH/USDT,510.43,555.44,502.80,554.10,5113556.271,2697114724.26534,1269280
1605830400000,2020-11-20 00:00:00,ETH/USDT,471.38,514.52,471.01,510.37,4646610.690,2320362796.89682,1231789
1605744000000,2020-11-19 00:00:00,ETH/USDT,478.60,480.68,465.15,471.38,2320768.365,1100330779.87607,736696
1605657600000,2020-11-18 00:00:00,ETH/USDT,482.56,497.00,455.00,478.61,5265683.829,2515967634.21523,1259021
1605571200000,2020-11-17 00:00:00,ETH/USDT,460.70,485.93,460.00,482.49,3589150.001,1700391157.31620,1004063
1605484800000,2020-11-16 00:00:00,ETH/USDT,448.16,466.60,445.53,460.72,2458564.459,1122837075.35513,799761
1605398400000,2020-11-15 00:00:00,ETH/USDT,461.02,462.96,440.10,448.16,2039952.113,923590510.34729,691121
1605312000000,2020-11-14 00:00:00,ETH/USDT,476.80,478.10,451.97,461.00,2199594.275,1018168657.35182,690421
1605225600000,2020-11-13 00:00:00,ETH/USDT,462.69,479.00,457.25,476.80,3013056.859,1409561751.13007,829046
1605139200000,2020-11-12 00:00:00,ETH/USDT,463.34,470.83,451.09,462.68,3184836.866,1466293500.10829,861884
1605052800000,2020-11-11 00:00:00,ETH/USDT,450.67,476.89,449.69,463.35,3760142.204,1745401777.20616,971963
1604966400000,2020-11-10 00:00:00,ETH/USDT,444.73,455.82,439.07,450.67,2457157.259,1101900928.72573,724815
1604880000000,2020-11-09 00:00:00,ETH/USDT,454.74,459.90,433.76,444.72,3414860.603,1529951231.33957,875666
1604793600000,2020-11-08 00:00:00,ETH/USDT,435.64,461.10,432.33,454.75,2450451.528,1096811295.30789,773991
1604707200000,2020-11-07 00:00:00,ETH/USDT,456.38,469.74,423.70,435.58,5035309.468,2267393644.26046,1412297
1604620800000,2020-11-06 00:00:00,ETH/USDT,417.13,459.00,414.81,456.38,5106137.581,2238630663.95929,1258910
1604534400000,2020-11-05 00:00:00,ETH/USDT,402.95,423.79,395.89,417.14,4634761.389,1891955855.84379,1290281
1604448000000,2020-11-04 00:00:00,ETH/USDT,388.11,408.99,375.71,402.92,3120949.650,1226524381.30970,985161
1604361600000,2020-11-03 00:00:00,ETH/USDT,383.16,390.28,370.00,388.11,2031329.509,772381755.52383,711968
1604275200000,2020-11-02 00:00:00,ETH/USDT,396.90,405.00,377.71,383.16,2316121.967,903392158.93109,713748
1604188800000,2020-11-01 00:00:00,ETH/USDT,386.28,398.00,384.32,396.82,1414350.496,551627820.47901,498079
1604102400000,2020-10-31 00:00:00,ETH/USDT,382.49,394.14,380.14,386.29,1672781.766,647983532.23330,552920
1604016000000,2020-10-30 00:00:00,ETH/USDT,386.94,392.10,373.03,382.40,2280687.856,869836730.23964,643478
1603929600000,2020-10-29 00:00:00,ETH/USDT,388.17,394.27,380.50,386.94,1923941.877,747193992.32758,564298
1603843200000,2020-10-28 00:00:00,ETH/USDT,403.59,409.65,379.28,388.17,2723288.874,1067492300.89028,738085
1603756800000,2020-10-27 00:00:00,ETH/USDT,392.43,410.58,390.00,403.60,2401387.340,963095983.72540,630010
1603670400000,2020-10-26 00:00:00,ETH/USDT,406.14,411.18,382.18,392.43,2786314.677,1107994114.66407,744207
1603584000000,2020-10-25 00:00:00,ETH/USDT,412.34,417.89,402.60,406.14,1346452.607,551028600.15098,517649
1603497600000,2020-10-24 00:00:00,ETH/USDT,409.41,417.16,407.33,412.34,1329608.930,548566702.97112,520856
1603411200000,2020-10-23 00:00:00,ETH/USDT,414.38,419.99,401.82,409.40,2104662.195,867793859.96589,646495
1603324800000,2020-10-22 00:00:00,ETH/USDT,390.95,421.90,390.57,414.39,3018734.084,1234905764.54365,856223
1603238400000,2020-10-21 00:00:00,ETH/USDT,368.74,402.80,367.90,390.96,3345842.465,1295884282.38578,876410
1603152000000,2020-10-20 00:00:00,ETH/USDT,379.47,381.19,364.90,368.74,1662321.815,619370716.71565,549359
1603065600000,2020-10-19 00:00:00,ETH/USDT,378.28,384.53,372.72,379.47,1306013.625,494223813.25818,512797
1602979200000,2020-10-18 00:00:00,ETH/USDT,368.26,378.80,367.16,378.29,806637.483,301425260.48222,440692
1602892800000,2020-10-17 00:00:00,ETH/USDT,365.42,370.91,363.19,368.26,710651.199,260959521.02027,420785
1602806400000,2020-10-16 00:00:00,ETH/USDT,377.63,379.92,360.53,365.41,1864106.370,687027290.77005,607914
1602720000000,2020-10-15 00:00:00,ETH/USDT,378.75,382.60,369.50,377.63,1617436.212,608124653.81412,578617
1602633600000,2020-10-14 00:00:00,ETH/USDT,381.11,387.72,373.12,378.75,1534026.379,582747917.14607,539010
1602547200000,2020-10-13 00:00:00,ETH/USDT,386.72,388.15,374.25,381.12,1684066.814,642910145.53332,590391
1602460800000,2020-10-12 00:00:00,ETH/USDT,374.39,395.43,365.50,386.73,2084977.674,792546271.84131,676742
1602374400000,2020-10-11 00:00:00,ETH/USDT,370.68,378.10,369.07,374.39,1029589.464,384600265.70501,486132
1602288000000,2020-10-10 00:00:00,ETH/USDT,365.03,378.70,364.71,370.68,1467956.111,548124498.85565,574278
1602201600000,2020-10-09 00:00:00,ETH/USDT,351.07,368.30,347.26,365.04,1327626.268,475540403.45352,545048
1602115200000,2020-10-08 00:00:00,ETH/USDT,341.42,353.43,333.88,351.08,1560418.728,536210648.99195,599963
1602028800000,2020-10-07 00:00:00,ETH/USDT,340.66,342.90,332.22,341.41,1228735.001,416785150.96720,543383
1601942400000,2020-10-06 00:00:00,ETH/USDT,353.45,354.95,336.44,340.65,1685300.902,583797555.33140,611831
1601856000000,2020-10-05 00:00:00,ETH/USDT,352.15,356.51,348.20,353.45,979059.824,344652651.01339,403413
1601769600000,2020-10-04 00:00:00,ETH/USDT,345.69,354.30,343.68,352.23,994011.923,346534414.39154,396500
1601683200000,2020-10-03 00:00:00,ETH/USDT,345.44,350.86,343.38,345.72,824121.901,285996343.36135,381089
1601596800000,2020-10-02 00:00:00,ETH/USDT,352.54,354.34,334.01,345.41,1991868.507,683375506.97021,624922
1601510400000,2020-10-01 00:00:00,ETH/USDT,359.71,370.44,345.10,352.53,2088409.078,746571670.36107,665864
1601424000000,2020-09-30 00:00:00,ETH/USDT,359.70,361.55,351.02,359.71,1168055.491,415896154.63899,488247
1601337600000,2020-09-29 00:00:00,ETH/USDT,353.84,360.55,350.07,359.70,1437671.627,510876559.74376,561451
1601251200000,2020-09-28 00:00:00,ETH/USDT,357.29,368.45,351.60,353.85,1849537.469,666373302.11207,605118
1601164800000,2020-09-27 00:00:00,ETH/USDT,353.89,362.22,346.79,357.40,1563883.714,555292723.13595,575645
1601078400000,2020-09-26 00:00:00,ETH/USDT,351.88,356.58,345.76,353.88,1293348.016,455072316.68204,574331
1600992000000,2020-09-25 00:00:00,ETH/USDT,348.73,357.88,337.50,351.88,2148472.096,743662627.24495,735803
1600905600000,2020-09-24 00:00:00,ETH/USDT,320.64,353.09,316.37,348.77,2679663.060,901752280.98076,870711
1600819200000,2020-09-23 00:00:00,ETH/USDT,344.05,344.60,312.36,320.64,2547487.165,846856958.49964,735772
1600732800000,2020-09-22 00:00:00,ETH/USDT,340.19,346.75,335.27,344.06,2105741.952,719805988.46761,617003
1600646400000,2020-09-21 00:00:00,ETH/USDT,370.86,377.20,330.66,340.19,3292780.639,1155637097.23577,885886
1600560000000,2020-09-20 00:00:00,ETH/USDT,384.95,385.33,364.52,370.85,1347492.449,503892954.65173,518499
1600473600000,2020-09-19 00:00:00,ETH/USDT,384.43,388.71,376.67,384.96,923238.785,353726036.38442,470233
1600387200000,2020-09-18 00:00:00,ETH/USDT,389.23,392.43,375.39,384.44,1502040.045,576509035.40646,631909
1600300800000,2020-09-17 00:00:00,ETH/USDT,364.97,394.07,363.10,389.24,2807865.002,1069882746.36399,839381
1600214400000,2020-09-16 00:00:00,ETH/USDT,364.00,373.30,354.75,364.95,1911187.036,696557257.65751,628834
1600128000000,2020-09-15 00:00:00,ETH/USDT,377.13,382.49,362.29,364.06,2013169.525,747292134.06940,701432
1600041600000,2020-09-14 00:00:00,ETH/USDT,366.24,384.42,355.48,377.13,2243256.424,832952559.07798,755165
1599955200000,2020-09-13 00:00:00,ETH/USDT,387.58,390.45,353.12,366.24,2318465.664,859558056.31093,750798
1599868800000,2020-09-12 00:00:00,ETH/USDT,373.42,388.36,364.43,387.65,1472243.835,551721286.62609,577135
1599782400000,2020-09-11 00:00:00,ETH/USDT,367.69,375.07,355.60,373.45,1837058.853,671565874.73255,658094
1599696000000,2020-09-10 00:00:00,ETH/USDT,350.58,377.00,349.66,367.69,2855720.317,1048583230.04711,785449
1599609600000,2020-09-09 00:00:00,ETH/USDT,337.38,359.00,330.58,350.65,1732784.863,600153424.58103,586359
1599523200000,2020-09-08 00:00:00,ETH/USDT,353.49,356.67,325.00,337.32,3008960.497,1022162050.92677,871201
1599436800000,2020-09-07 00:00:00,ETH/USDT,352.62,358.48,323.02,353.49,3268150.180,1119788439.21161,942280
1599350400000,2020-09-06 00:00:00,ETH/USDT,334.85,360.00,316.03,352.69,3681811.956,1260136199.59651,1111814
1599264000000,2020-09-05 00:00:00,ETH/USDT,385.24,394.89,307.36,334.85,5792598.731,2014890370.20582,1850618
1599177600000,2020-09-04 00:00:00,ETH/USDT,381.52,400.63,356.14,385.20,3806408.610,1466761495.79589,1181030
1599091200000,2020-09-03 00:00:00,ETH/USDT,439.74,450.91,371.00,381.62,4981606.249,2061198580.62087,1451171
1599004800000,2020-09-02 00:00:00,ETH/USDT,475.70,482.44,418.30,439.75,4128002.108,1848669079.41557,1198657
1598918400000,2020-09-01 00:00:00,ETH/USDT,434.03,489.32,429.25,475.61,3265577.517,1522749662.81293,981222
1598832000000,2020-08-31 00:00:00,ETH/USDT,429.12,439.49,418.20,434.03,1643669.582,708381941.47511,593545
1598745600000,2020-08-30 00:00:00,ETH/USDT,398.71,430.28,398.37,429.11,1442892.512,599192209.99373,530726
1598659200000,2020-08-29 00:00:00,ETH/USDT,395.16,405.80,391.81,398.66,987943.950,395131559.72597,409743
1598572800000,2020-08-28 00:00:00,ETH/USDT,383.58,398.80,379.94,395.14,1161424.748,454164125.32279,441158
1598486400000,2020-08-27 00:00:00,ETH/USDT,386.02,397.38,371.31,383.60,1885062.888,723029860.38872,634552
1598400000000,2020-08-26 00:00:00,ETH/USDT,383.07,393.44,377.63,386.02,1390706.382,535388937.61697,514169
1598313600000,2020-08-25 00:00:00,ETH/USDT,407.91,409.43,370.14,383.11,2394641.047,926182571.14738,772454
1598227200000,2020-08-24 00:00:00,ETH/USDT,391.00,410.70,387.64,407.94,1323796.078,532034653.91777,522224
1598140800000,2020-08-23 00:00:00,ETH/USDT,395.44,397.20,383.69,391.00,892915.856,348769199.20701,417650
1598054400000,2020-08-22 00:00:00,ETH/USDT,388.27,397.34,380.00,395.44,1122107.661,436143011.08409,484140
1597968000000,2020-08-21 00:00:00,ETH/USDT,416.30,418.95,385.09,388.25,1870166.525,753415032.24112,636597
1597881600000,2020-08-20 00:00:00,ETH/USDT,407.63,419.48,402.41,416.29,1235515.836,508701446.71645,490634
1597795200000,2020-08-19 00:00:00,ETH/USDT,422.33,427.10,393.28,407.65,2392945.290,978436819.67326,750946
1597708800000,2020-08-18 00:00:00,ETH/USDT,431.31,434.50,414.00,422.36,1639582.806,698827138.90995,538783
1597622400000,2020-08-17 00:00:00,ETH/USDT,434.19,449.00,421.01,431.33,2238985.810,968933324.12397,670317
1597536000000,2020-08-16 00:00:00,ETH/USDT,432.78,437.71,413.01,434.19,1739365.364,742240079.00529,523079
1597449600000,2020-08-15 00:00:00,ETH/USDT,438.71,443.90,426.68,432.75,1729353.597,753504069.85460,492660
1597363200000,2020-08-14 00:00:00,ETH/USDT,425.27,445.66,418.00,438.84,2795449.786,1207407794.98586,679006
1597276800000,2020-08-13 00:00:00,ETH/USDT,387.51,432.25,376.77,425.34,3595989.078,1440744340.82628,822314
1597190400000,2020-08-12 00:00:00,ETH/USDT,379.34,389.75,366.05,387.46,1576215.436,599199526.83731,400563
1597104000000,2020-08-11 00:00:00,ETH/USDT,395.83,398.78,367.00,379.30,2199154.835,845731729.15190,529635
1597017600000,2020-08-10 00:00:00,ETH/USDT,390.54,400.70,384.34,395.83,1547750.272,611218329.12583,402256
1596931200000,2020-08-09 00:00:00,ETH/USDT,397.56,400.73,383.75,390.54,1457418.137,571218683.77785,401401
1596844800000,2020-08-08 00:00:00,ETH/USDT,379.62,397.75,376.11,397.48,1345421.828,520508410.78516,405183
1596758400000,2020-08-07 00:00:00,ETH/USDT,395.10,398.86,361.27,379.63,2591811.422,992515267.80878,625089
1596672000000,2020-08-06 00:00:00,ETH/USDT,400.94,404.25,390.60,395.09,1643305.550,652554125.73757,461636
1596585600000,2020-08-05 00:00:00,ETH/USDT,390.02,407.88,384.31,400.95,2378190.463,942126678.78739,627789
1596499200000,2020-08-04 00:00:00,ETH/USDT,386.19,403.88,380.66,390.10,2702153.264,1057960148.06036,654517
1596412800000,2020-08-03 00:00:00,ETH/USDT,372.86,398.59,366.66,386.20,3020910.903,1173622514.82561,717019
1596326400000,2020-08-02 00:00:00,ETH/USDT,387.25,418.49,302.00,372.85,6320469.190,2395197027.14924,1334537
1596240000000,2020-08-01 00:00:00,ETH/USDT,346.42,394.80,343.40,387.24,4026011.453,1483605104.03266,826413
1596153600000,2020-07-31 00:00:00,ETH/USDT,335.31,349.83,329.00,346.42,2671758.151,912102990.69843,673762
1596067200000,2020-07-30 00:00:00,ETH/USDT,318.12,343.38,314.06,335.30,2332715.926,763116559.16756,516637
1595980800000,2020-07-29 00:00:00,ETH/USDT,317.19,325.99,313.00,318.12,1890408.946,606896653.93406,410157
1595894400000,2020-07-28 00:00:00,ETH/USDT,322.30,327.47,306.02,317.21,2856472.080,906295104.75718,648669
1595808000000,2020-07-27 00:00:00,ETH/USDT,311.36,335.00,311.00,322.33,5017477.237,1620266858.22627,1010311
1595721600000,2020-07-26 00:00:00,ETH/USDT,305.58,321.99,299.18,311.41,3709687.999,1149779086.62864,765341
1595635200000,2020-07-25 00:00:00,ETH/USDT,279.45,309.39,279.28,305.64,3122852.128,915502216.03662,671258
1595548800000,2020-07-24 00:00:00,ETH/USDT,275.50,287.76,268.32,279.45,2651233.303,736083875.03441,595521
1595462400000,2020-07-23 00:00:00,ETH/USDT,264.30,280.48,259.86,275.56,2725687.424,736552038.77903,655074
1595376000000,2020-07-22 00:00:00,ETH/USDT,245.56,270.80,241.52,264.27,1647528.096,418091059.37613,427122
1595289600000,2020-07-21 00:00:00,ETH/USDT,236.02,246.87,235.52,245.56,1191285.530,288862206.41801,362155
1595203200000,2020-07-20 00:00:00,ETH/USDT,239.18,239.81,234.00,236.03,693643.358,164752457.58157,241950
1595116800000,2020-07-19 00:00:00,ETH/USDT,235.69,239.93,233.28,239.19,573124.068,135124155.60153,207075
1595030400000,2020-07-18 00:00:00,ETH/USDT,232.72,236.95,232.35,235.69,466496.509,109492088.09960,205667
1594944000000,2020-07-17 00:00:00,ETH/USDT,233.75,235.05,231.81,232.72,557216.722,129976699.22534,222227
1594857600000,2020-07-16 00:00:00,ETH/USDT,238.59,239.58,229.84,233.74,1047566.611,244658931.71368,333572
1594771200000,2020-07-15 00:00:00,ETH/USDT,240.57,241.50,236.90,238.59,529634.834,126575225.98055,220091
1594684800000,2020-07-14 00:00:00,ETH/USDT,239.60,242.24,236.74,240.56,724653.885,173634906.59871,264606
1594598400000,2020-07-13 00:00:00,ETH/USDT,242.82,245.56,237.30,239.60,1099518.478,266174695.26564,366373
1594512000000,2020-07-12 00:00:00,ETH/USDT,239.25,244.35,236.00,242.82,899578.746,215562992.67344,310997
1594425600000,2020-07-11 00:00:00,ETH/USDT,241.38,241.79,237.61,239.25,478752.331,114661329.88100,212158
1594339200000,2020-07-10 00:00:00,ETH/USDT,242.00,242.25,235.73,241.37,789372.278,188835488.41670,271580
1594252800000,2020-07-09 00:00:00,ETH/USDT,247.10,247.94,238.04,242.01,1407925.425,342433597.13767,394925
1594166400000,2020-07-08 00:00:00,ETH/USDT,239.45,249.00,237.75,247.14,1430997.143,348773164.43888,444962
1594080000000,2020-07-07 00:00:00,ETH/USDT,241.66,243.90,234.44,239.45,1024076.026,244093092.67784,343892
1593993600000,2020-07-06 00:00:00,ETH/USDT,227.61,242.32,226.89,241.63,1361794.882,320359855.27586,380449
1593907200000,2020-07-05 00:00:00,ETH/USDT,229.21,229.88,223.26,227.61,681239.534,154164268.13412,235460
1593820800000,2020-07-04 00:00:00,ETH/USDT,224.82,230.77,224.31,229.20,534507.407,121465137.44154,221319
1593734400000,2020-07-03 00:00:00,ETH/USDT,226.54,228.17,224.11,224.83,579175.291,131241028.78854,249631
1593648000000,2020-07-02 00:00:00,ETH/USDT,231.02,231.99,222.76,226.54,1305858.588,297251172.93531,413390
1593561600000,2020-07-01 00:00:00,ETH/USDT,225.56,232.78,224.01,231.03,980442.364,224106226.55330,304623
1593475200000,2020-06-30 00:00:00,ETH/USDT,227.95,228.73,223.00,225.56,843327.995,190512620.41264,282693
1593388800000,2020-06-29 00:00:00,ETH/USDT,224.93,230.13,221.11,227.95,1101723.749,247970501.55192,353417
1593302400000,2020-06-28 00:00:00,ETH/USDT,220.95,227.90,217.81,224.96,967586.374,216318637.93915,317233
1593216000000,2020-06-27 00:00:00,ETH/USDT,229.65,231.40,213.59,220.94,1316665.336,294859175.09059,377007
1593129600000,2020-06-26 00:00:00,ETH/USDT,232.50,233.65,227.67,229.66,1096114.911,252514561.81677,413927
1593043200000,2020-06-25 00:00:00,ETH/USDT,234.54,235.50,227.53,232.50,1051198.670,244330169.16450,400908
1592956800000,2020-06-24 00:00:00,ETH/USDT,243.13,249.41,231.00,234.54,1872960.153,448953617.37941,482217
1592870400000,2020-06-23 00:00:00,ETH/USDT,243.13,244.90,240.70,243.12,880274.162,213875470.03441,254457
1592784000000,2020-06-22 00:00:00,ETH/USDT,228.07,247.00,227.50,243.14,1580083.705,377318824.05754,417611
1592697600000,2020-06-21 00:00:00,ETH/USDT,228.84,231.40,227.06,228.08,480312.941,110256923.45852,185644
1592611200000,2020-06-20 00:00:00,ETH/USDT,228.98,230.80,225.07,228.85,690552.179,157633384.57489,214484
1592524800000,2020-06-19 00:00:00,ETH/USDT,231.26,232.00,226.02,228.97,875231.698,200700324.69961,269891
1592438400000,2020-06-18 00:00:00,ETH/USDT,233.73,234.70,227.81,231.26,722224.653,167276182.33834,255571
1592352000000,2020-06-17 00:00:00,ETH/USDT,235.22,237.50,227.47,233.75,1098414.164,255862428.97339,321599
1592265600000,2020-06-16 00:00:00,ETH/USDT,230.85,236.00,228.75,235.22,989098.472,230773103.93013,314960
1592179200000,2020-06-15 00:00:00,ETH/USDT,231.92,233.64,218.02,230.86,1960437.997,443458580.66509,520180
1592092800000,2020-06-14 00:00:00,ETH/USDT,238.14,238.59,229.90,231.92,787142.212,184729377.14818,323956
1592006400000,2020-06-13 00:00:00,ETH/USDT,237.47,238.88,234.60,238.17,562091.362,133082474.15789,311442
1591920000000,2020-06-12 00:00:00,ETH/USDT,230.48,239.38,228.30,237.46,958938.087,225982481.27438,393900
1591833600000,2020-06-11 00:00:00,ETH/USDT,247.95,250.34,225.33,230.48,1937518.384,463593288.19211,581593
1591747200000,2020-06-10 00:00:00,ETH/USDT,243.98,251.00,241.00,247.95,1101191.092,270438018.28235,417318
1591660800000,2020-06-09 00:00:00,ETH/USDT,246.64,250.10,237.30,243.98,1120313.696,272824173.15009,423086
1591574400000,2020-06-08 00:00:00,ETH/USDT,244.67,248.05,241.04,246.65,857037.392,209012260.96756,359385
1591488000000,2020-06-07 00:00:00,ETH/USDT,242.06,245.61,234.64,244.66,1343974.146,322855661.22177,449450
1591401600000,2020-06-06 00:00:00,ETH/USDT,240.12,244.89,237.91,242.05,838620.358,202429929.69899,395601
1591315200000,2020-06-05 00:00:00,ETH/USDT,243.29,248.36,238.68,240.13,1287620.696,312982105.00055,492819
1591228800000,2020-06-04 00:00:00,ETH/USDT,244.52,246.70,235.75,243.28,1658566.857,402459677.30633,566658
1591142400000,2020-06-03 00:00:00,ETH/USDT,237.74,245.23,233.30,244.52,1177836.333,281645740.99126,488449
1591056000000,2020-06-02 00:00:00,ETH/USDT,248.91,254.48,220.00,237.73,1997511.516,482361317.69117,660078
1590969600000,2020-06-01 00:00:00,ETH/USDT,231.55,252.80,230.61,248.90,2168854.578,522438717.22123,587226
1590883200000,2020-05-31 00:00:00,ETH/USDT,243.73,245.30,229.54,231.55,2064900.485,489701677.03937,558819
1590796800000,2020-05-30 00:00:00,ETH/USDT,220.65,247.85,218.77,243.74,2496490.987,585564863.55064,755218
1590710400000,2020-05-29 00:00:00,ETH/USDT,220.31,225.00,217.00,220.65,1412528.305,311884016.19261,503061
1590624000000,2020-05-28 00:00:00,ETH/USDT,208.27,220.79,204.55,220.32,1302485.446,275853034.40081,456508
1590537600000,2020-05-27 00:00:00,ETH/USDT,200.89,208.48,200.69,208.27,949312.616,194678762.77842,354584
1590451200000,2020-05-26 00:00:00,ETH/USDT,204.10,205.05,196.68,200.91,1053386.195,212361617.55361,369707
1590364800000,2020-05-25 00:00:00,ETH/USDT,199.70,205.66,197.72,204.10,992843.927,201511206.07324,396003
1590278400000,2020-05-24 00:00:00,ETH/USDT,206.46,210.54,199.24,199.70,1534431.164,316070681.24532,450498
1590192000000,2020-05-23 00:00:00,ETH/USDT,207.31,211.20,204.47,206.51,1093535.486,227019949.01277,306675
1590105600000,2020-05-22 00:00:00,ETH/USDT,198.69,209.22,195.95,207.28,1415586.292,287619795.23226,378567
1590019200000,2020-05-21 00:00:00,ETH/USDT,209.99,211.69,191.61,198.68,1812327.033,366782519.68942,478043
1589932800000,2020-05-20 00:00:00,ETH/USDT,214.69,215.85,206.02,209.96,1322809.976,279696340.13428,450724
1589846400000,2020-05-19 00:00:00,ETH/USDT,214.83,215.99,209.32,214.70,1209630.470,257251108.96285,478427
1589760000000,2020-05-18 00:00:00,ETH/USDT,206.90,217.20,206.90,214.83,1527493.953,325316559.17037,486047
1589673600000,2020-05-17 00:00:00,ETH/USDT,200.40,210.16,199.50,206.93,1067367.779,218892160.12065,376453
1589587200000,2020-05-16 00:00:00,ETH/USDT,194.72,203.46,193.20,200.39,1100996.922,220055609.94610,379947
1589500800000,2020-05-15 00:00:00,ETH/USDT,203.10,203.99,191.21,194.71,1377796.956,273307743.27705,419743
1589414400000,2020-05-14 00:00:00,ETH/USDT,199.53,205.95,195.56,203.13,1892551.091,380305674.97201,476240
1589328000000,2020-05-13 00:00:00,ETH/USDT,189.64,200.95,187.64,199.54,1373737.580,267245495.97600,346257
1589241600000,2020-05-12 00:00:00,ETH/USDT,185.68,192.31,185.40,189.64,1261058.639,238588953.57139,340517
1589155200000,2020-05-11 00:00:00,ETH/USDT,187.48,193.44,175.50,185.69,2311029.197,429270139.29081,527835
1589068800000,2020-05-10 00:00:00,ETH/USDT,210.32,210.36,177.89,187.52,3056317.482,577999455.74581,620956
1588982400000,2020-05-09 00:00:00,ETH/USDT,211.47,214.81,208.30,210.31,1444064.449,306213858.72979,388625
1588896000000,2020-05-08 00:00:00,ETH/USDT,212.25,216.95,207.01,211.47,1698296.769,360076385.66326,440233
1588809600000,2020-05-07 00:00:00,ETH/USDT,199.09,215.63,196.14,212.25,2470908.382,513526641.19670,593638
1588723200000,2020-05-06 00:00:00,ETH/USDT,205.36,211.13,198.04,199.06,1868966.306,386076250.92430,440463
1588636800000,2020-05-05 00:00:00,ETH/USDT,206.69,212.02,201.14,205.39,1814876.244,374058470.58590,478967
1588550400000,2020-05-04 00:00:00,ETH/USDT,209.94,210.83,195.10,206.73,2313604.876,469274368.72380,538466
1588464000000,2020-05-03 00:00:00,ETH/USDT,213.99,219.84,205.00,209.95,1688070.223,359428511.96159,415590
1588377600000,2020-05-02 00:00:00,ETH/USDT,212.21,215.63,210.55,213.99,1246430.868,265476896.91763,376623
1588291200000,2020-05-01 00:00:00,ETH/USDT,206.21,217.49,206.12,212.22,1902796.913,403173248.22679,486182
1588204800000,2020-04-30 00:00:00,ETH/USDT,215.50,227.50,201.90,206.22,4371759.191,936458258.32876,878149
1588118400000,2020-04-29 00:00:00,ETH/USDT,196.34,219.50,196.31,215.50,3776173.452,788440824.81620,689336
1588032000000,2020-04-28 00:00:00,ETH/USDT,196.39,197.72,192.28,196.31,1903267.470,372049036.21292,334612
1587945600000,2020-04-27 00:00:00,ETH/USDT,197.46,199.00,189.51,196.37,2321318.544,452448671.70133,427019
1587859200000,2020-04-26 00:00:00,ETH/USDT,194.22,199.99,192.27,197.46,2056340.656,402336362.15937,382181
1587772800000,2020-04-25 00:00:00,ETH/USDT,187.67,198.53,185.70,194.25,2370712.476,458631945.16971,454073
1587686400000,2020-04-24 00:00:00,ETH/USDT,185.54,189.77,184.49,187.65,1865428.754,349685296.23952,388552
1587600000000,2020-04-23 00:00:00,ETH/USDT,182.63,194.40,178.00,185.53,3351092.377,621753420.53678,618026
1587513600000,2020-04-22 00:00:00,ETH/USDT,170.66,183.98,169.80,182.63,2433000.659,432861105.37288,451332
1587427200000,2020-04-21 00:00:00,ETH/USDT,170.19,174.63,167.92,170.66,2195445.346,375960392.81830,464362
1587340800000,2020-04-20 00:00:00,ETH/USDT,179.96,186.47,166.60,170.19,3452651.911,611827298.66674,671337
1587254400000,2020-04-19 00:00:00,ETH/USDT,187.52,188.30,176.27,179.97,2326412.534,423672004.55212,427548
1587168000000,2020-04-18 00:00:00,ETH/USDT,170.56,189.68,170.28,187.48,2159964.294,389663555.13636,437965
1587081600000,2020-04-17 00:00:00,ETH/USDT,172.31,174.88,168.21,170.56,1341267.776,228893903.77257,308154
1586995200000,2020-04-16 00:00:00,ETH/USDT,152.64,174.92,148.07,172.27,3073088.701,509884815.63486,630949
1586908800000,2020-04-15 00:00:00,ETH/USDT,158.42,161.32,151.90,152.64,1352926.571,212884736.06398,292804
1586822400000,2020-04-14 00:00:00,ETH/USDT,156.38,161.83,155.07,158.43,1342786.247,212907622.90640,297080
1586736000000,2020-04-13 00:00:00,ETH/USDT,158.69,159.08,149.55,156.37,1787879.914,275149048.62074,405320
1586649600000,2020-04-12 00:00:00,ETH/USDT,158.21,164.90,154.85,158.72,1402479.422,224914825.57336,277592
1586563200000,2020-04-11 00:00:00,ETH/USDT,157.69,161.25,153.78,158.19,1157138.069,182597930.42972,276994
1586476800000,2020-04-10 00:00:00,ETH/USDT,169.48,170.10,152.00,157.69,2238955.865,356355836.18656,494548
1586390400000,2020-04-09 00:00:00,ETH/USDT,173.18,173.44,164.89,169.46,1307817.881,222508469.51894,331023
1586304000000,2020-04-08 00:00:00,ETH/USDT,164.56,174.59,163.55,173.19,1871521.554,317822104.24189,458894
1586217600000,2020-04-07 00:00:00,ETH/USDT,171.15,176.16,162.13,164.55,3033756.235,517045468.00622,701681
1586131200000,2020-04-06 00:00:00,ETH/USDT,142.59,171.99,142.51,171.15,2847455.204,449513671.57668,562880
1586044800000,2020-04-05 00:00:00,ETH/USDT,143.97,145.52,140.60,142.59,780295.149,111570542.90690,172991
1585958400000,2020-04-04 00:00:00,ETH/USDT,141.20,146.14,138.79,144.02,977437.997,139027717.81503,223233
1585872000000,2020-04-03 00:00:00,ETH/USDT,141.29,146.78,137.68,141.23,1307374.677,186309257.94885,325138
1585785600000,2020-04-02 00:00:00,ETH/USDT,135.60,149.97,135.00,141.30,1694646.358,238001714.23101,380867
1585699200000,2020-04-01 00:00:00,ETH/USDT,132.60,137.22,128.27,135.60,1143905.195,151016360.22430,230834
1585612800000,2020-03-31 00:00:00,ETH/USDT,132.07,135.00,130.33,132.61,896493.378,118826469.17698,205235
1585526400000,2020-03-30 00:00:00,ETH/USDT,124.42,135.13,123.93,132.04,1187536.733,155662722.12980,266063
1585440000000,2020-03-29 00:00:00,ETH/USDT,130.97,131.77,123.74,124.40,848667.965,108415730.52964,218262
1585353600000,2020-03-28 00:00:00,ETH/USDT,131.24,132.93,124.52,130.95,1335630.330,171695997.87213,342445
1585267200000,2020-03-27 00:00:00,ETH/USDT,138.36,141.44,129.16,131.27,1024307.980,139707188.15309,277914
1585180800000,2020-03-26 00:00:00,ETH/USDT,136.11,139.80,133.18,138.41,1069528.365,144970764.16497,307363
1585094400000,2020-03-25 00:00:00,ETH/USDT,138.39,142.46,132.36,136.10,1448291.794,198316846.12547,431364
1585008000000,2020-03-24 00:00:00,ETH/USDT,135.96,143.44,132.41,138.38,1745190.832,239985908.84741,517026
1584921600000,2020-03-23 00:00:00,ETH/USDT,122.27,137.67,119.00,135.96,1950909.243,250208240.74389,464331
1584835200000,2020-03-22 00:00:00,ETH/USDT,132.64,137.20,121.00,122.25,1724360.751,222080052.34143,362939
1584748800000,2020-03-21 00:00:00,ETH/USDT,133.48,137.58,125.58,132.67,1933564.299,254848453.29529,402245
1584662400000,2020-03-20 00:00:00,ETH/USDT,136.42,152.68,116.67,133.52,3128620.956,431165491.64371,607243
1584576000000,2020-03-19 00:00:00,ETH/USDT,118.12,143.34,115.50,136.42,2098800.654,270554423.25128,422407
1584489600000,2020-03-18 00:00:00,ETH/USDT,115.67,118.59,109.78,118.16,1583517.464,181277993.24376,367376
1584403200000,2020-03-17 00:00:00,ETH/USDT,111.04,121.55,109.34,115.68,2053691.349,239015139.83578,432785
1584316800000,2020-03-16 00:00:00,ETH/USDT,123.87,124.40,100.11,111.06,3622097.906,400195138.40241,633699
1584230400000,2020-03-15 00:00:00,ETH/USDT,122.56,133.85,120.40,123.89,1802030.406,224638895.20642,341902
1584144000000,2020-03-14 00:00:00,ETH/USDT,134.10,134.67,121.16,122.55,1845475.252,237313127.06988,291746
1584057600000,2020-03-13 00:00:00,ETH/USDT,106.97,323.00,84.23,134.13,6584772.112,787562869.66480,1143787
1583971200000,2020-03-12 00:00:00,ETH/USDT,194.77,195.81,95.00,106.71,7116256.717,1042747529.18930,876766
1583884800000,2020-03-11 00:00:00,ETH/USDT,200.90,203.26,181.88,194.81,2125322.090,410229505.12859,377831
1583798400000,2020-03-10 00:00:00,ETH/USDT,202.95,206.32,195.66,200.95,2008333.356,405031566.29724,342612
1583712000000,2020-03-09 00:00:00,ETH/USDT,199.54,208.65,190.02,203.02,3885205.704,778277652.87276,558024
1583625600000,2020-03-08 00:00:00,ETH/USDT,237.36,237.38,195.35,199.54,3150036.792,684775390.09688,435510
1583539200000,2020-03-07 00:00:00,ETH/USDT,244.97,251.80,236.30,237.34,1637057.953,398551973.39385,262341
1583452800000,2020-03-06 00:00:00,ETH/USDT,228.63,245.38,227.60,244.94,1307956.340,309193535.18403,210885
1583366400000,2020-03-05 00:00:00,ETH/USDT,224.43,234.26,224.43,228.64,1142530.928,262593712.18975,190706
1583280000000,2020-03-04 00:00:00,ETH/USDT,224.10,229.00,220.45,224.47,1027175.512,230726528.92651,164273
1583193600000,2020-03-03 00:00:00,ETH/USDT,232.24,232.67,220.21,224.10,1544830.651,350368765.18825,250480
1583107200000,2020-03-02 00:00:00,ETH/USDT,218.01,234.50,216.24,232.22,1604040.396,362061880.36415,252090
1583020800000,2020-03-01 00:00:00,ETH/USDT,217.37,228.00,212.33,218.01,1775078.523,390456164.99470,319189
1582934400000,2020-02-29 00:00:00,ETH/USDT,227.04,233.33,217.14,217.31,1309444.250,295997709.37920,239830
1582848000000,2020-02-28 00:00:00,ETH/USDT,227.93,234.93,214.25,227.09,2026863.186,454376453.34299,416639
1582761600000,2020-02-27 00:00:00,ETH/USDT,224.13,238.58,210.01,227.92,2374539.334,536493997.29536,538634
1582675200000,2020-02-26 00:00:00,ETH/USDT,247.03,250.54,215.75,224.10,2729291.802,633303689.86963,505295
1582588800000,2020-02-25 00:00:00,ETH/USDT,265.69,266.40,244.57,247.03,1563901.657,399165818.02308,307867
1582502400000,2020-02-24 00:00:00,ETH/USDT,274.66,277.26,257.50,265.70,1483265.023,396190156.06157,292530
1582416000000,2020-02-23 00:00:00,ETH/USDT,261.82,275.84,261.50,274.67,940831.980,254128741.02017,195861
1582329600000,2020-02-22 00:00:00,ETH/USDT,265.45,267.16,256.23,261.83,752957.418,196960689.68890,168666
1582243200000,2020-02-21 00:00:00,ETH/USDT,257.18,268.50,253.89,265.44,985301.295,258780144.08535,186008
1582156800000,2020-02-20 00:00:00,ETH/USDT,258.39,264.32,245.91,257.11,1618473.989,415072958.53042,371065
1582070400000,2020-02-19 00:00:00,ETH/USDT,282.96,286.70,250.00,258.43,1677778.697,459670219.19239,276538
1581984000000,2020-02-18 00:00:00,ETH/USDT,267.99,286.48,258.78,282.96,1885124.383,515176525.90584,295234
1581897600000,2020-02-17 00:00:00,ETH/USDT,258.87,268.81,242.32,268.00,2129022.892,538264137.14580,384716
1581811200000,2020-02-16 00:00:00,ETH/USDT,265.16,274.30,237.86,258.87,2297491.401,594576100.72784,379609
1581724800000,2020-02-15 00:00:00,ETH/USDT,285.40,289.00,262.41,265.08,1925220.413,529235758.42768,300463
1581638400000,2020-02-14 00:00:00,ETH/USDT,268.48,287.58,260.53,285.40,1447161.175,395789382.38502,239287
1581552000000,2020-02-13 00:00:00,ETH/USDT,266.26,278.80,256.20,268.48,2386998.020,639755030.53358,373205
1581465600000,2020-02-12 00:00:00,ETH/USDT,237.17,277.97,237.17,266.24,2223807.477,574225360.14547,334904
1581379200000,2020-02-11 00:00:00,ETH/USDT,223.04,239.98,218.64,237.16,1194286.448,272327898.64944,165529
1581292800000,2020-02-10 00:00:00,ETH/USDT,228.71,229.96,217.32,223.03,1175671.024,262203105.94020,160175
1581206400000,2020-02-09 00:00:00,ETH/USDT,223.57,230.90,223.50,228.64,969021.787,220695663.91218,120637
1581120000000,2020-02-08 00:00:00,ETH/USDT,223.57,228.02,213.35,223.57,1090545.108,243043392.21839,136512
1581033600000,2020-02-07 00:00:00,ETH/USDT,213.30,225.36,213.30,223.57,1054174.736,232249153.37736,135137
1580947200000,2020-02-06 00:00:00,ETH/USDT,204.10,216.70,201.28,213.27,1254989.317,264288535.88063,171238
1580860800000,2020-02-05 00:00:00,ETH/USDT,189.00,208.18,188.26,204.10,902811.615,178375200.47346,110642
1580774400000,2020-02-04 00:00:00,ETH/USDT,189.89,191.76,184.71,189.01,614290.379,115364577.74246,80668
1580688000000,2020-02-03 00:00:00,ETH/USDT,188.64,195.45,186.65,189.92,652054.538,124122130.70399,91435
1580601600000,2020-02-02 00:00:00,ETH/USDT,183.80,193.70,179.00,188.59,907342.798,170846713.44708,136351
1580515200000,2020-02-01 00:00:00,ETH/USDT,180.14,184.58,179.41,183.82,526688.019,96080885.54872,73274
1580428800000,2020-01-31 00:00:00,ETH/USDT,185.16,186.34,175.50,180.14,672522.049,121744510.77084,82806
1580342400000,2020-01-30 00:00:00,ETH/USDT,173.86,187.40,171.07,185.14,653770.608,116665433.71156,86918
1580256000000,2020-01-29 00:00:00,ETH/USDT,175.89,178.85,173.30,173.80,401619.605,70901067.68041,57915
1580169600000,2020-01-28 00:00:00,ETH/USDT,170.25,176.70,170.22,175.88,525282.459,90758791.20274,72110
1580083200000,2020-01-27 00:00:00,ETH/USDT,167.98,172.26,165.28,170.21,418039.792,70720869.02324,53201
1579996800000,2020-01-26 00:00:00,ETH/USDT,160.50,168.16,159.50,167.90,326188.863,53409274.40732,43835
1579910400000,2020-01-25 00:00:00,ETH/USDT,162.66,163.00,157.80,160.52,282785.555,45339862.12769,42072
1579824000000,2020-01-24 00:00:00,ETH/USDT,162.97,164.65,155.72,162.63,472568.424,75924771.97144,64720
1579737600000,2020-01-23 00:00:00,ETH/USDT,168.24,168.38,159.41,162.97,481102.220,78583548.01533,67538
1579651200000,2020-01-22 00:00:00,ETH/USDT,169.62,171.61,166.12,168.19,334378.174,56350595.56504,46337
1579564800000,2020-01-21 00:00:00,ETH/USDT,167.01,170.34,165.02,169.52,351565.999,58986902.98569,48717
1579478400000,2020-01-20 00:00:00,ETH/USDT,167.04,169.48,161.50,167.03,390055.869,64624702.00634,60886
1579392000000,2020-01-19 00:00:00,ETH/USDT,174.37,178.42,161.81,167.04,742371.819,125956521.72340,123733
1579305600000,2020-01-18 00:00:00,ETH/USDT,170.06,179.57,165.08,174.43,819444.357,142262348.68168,126514
1579219200000,2020-01-17 00:00:00,ETH/USDT,164.39,174.79,162.27,170.06,946707.348,160259747.79844,132234
1579132800000,2020-01-16 00:00:00,ETH/USDT,166.61,167.63,158.43,164.37,784199.474,127461014.43638,96110
1579046400000,2020-01-15 00:00:00,ETH/USDT,165.75,172.18,159.35,166.60,1391999.279,230286716.67757,161755
1578960000000,2020-01-14 00:00:00,ETH/USDT,143.57,171.00,143.49,165.77,2169559.414,342187335.94531,200718
1578873600000,2020-01-13 00:00:00,ETH/USDT,146.57,147.00,142.32,143.58,558655.672,80266745.59378,55178
1578787200000,2020-01-12 00:00:00,ETH/USDT,142.40,146.60,141.71,146.57,630256.911,90941158.24868,63661
1578700800000,2020-01-11 00:00:00,ETH/USDT,144.80,148.03,142.00,142.40,832163.204,119977193.63432,83777
1578614400000,2020-01-10 00:00:00,ETH/USDT,137.73,145.15,135.22,144.80,908378.249,127143267.90469,88107
1578528000000,2020-01-09 00:00:00,ETH/USDT,140.76,141.52,135.33,137.73,956864.213,132349219.83971,79801
1578441600000,2020-01-08 00:00:00,ETH/USDT,142.86,147.94,137.15,140.75,1208133.766,171733898.79286,117669
1578355200000,2020-01-07 00:00:00,ETH/USDT,144.11,145.25,138.70,142.86,963331.505,137384193.55172,82275
1578268800000,2020-01-06 00:00:00,ETH/USDT,135.32,144.38,134.82,144.04,1095147.166,153993462.03959,89851
1578182400000,2020-01-05 00:00:00,ETH/USDT,134.14,138.17,134.12,135.33,669677.687,91098597.42478,71080
1578096000000,2020-01-04 00:00:00,ETH/USDT,134.31,135.80,132.41,134.14,509778.108,68153930.41227,65138
1578009600000,2020-01-03 00:00:00,ETH/USDT,127.11,135.07,125.78,134.29,951123.597,125018928.04077,106861
1577923200000,2020-01-02 00:00:00,ETH/USDT,130.63,130.75,126.25,127.11,523582.924,67377970.84502,47479
1577836800000,2020-01-01 00:00:00,ETH/USDT,129.12,132.96,128.62,130.62,466063.929,61037558.40428,40168
1577750400000,2019-12-31 00:00:00,ETH/USDT,131.53,133.64,128.15,129.12,647743.359,84614091.61629,54948
1577664000000,2019-12-30 00:00:00,ETH/USDT,134.22,136.21,130.19,131.52,692165.824,91950597.99650,58885
1577577600000,2019-12-29 00:00:00,ETH/USDT,128.02,138.25,127.50,134.28,771614.663,102246841.95888,65386
1577491200000,2019-12-28 00:00:00,ETH/USDT,126.24,129.62,125.77,128.04,468730.855,59832626.86938,40944
1577404800000,2019-12-27 00:00:00,ETH/USDT,125.53,127.06,122,126.21,567887.536,71062171.64403,53297
1577318400000,2019-12-26 00:00:00,ETH/USDT,125.06,132.44,124.33,125.53,583380.778,74015092.19705,59409
1577232000000,2019-12-25 00:00:00,ETH/USDT,127.72,127.83,123,125.06,455279.225,56922516.85419,41175
1577145600000,2019-12-24 00:00:00,ETH/USDT,127.75,129.67,126.45,127.76,497534.945,63643418.56040,43791
1577059200000,2019-12-23 00:00:00,ETH/USDT,132.18,135.09,126.01,127.73,698722.014,91842141.56236,67719
1576972800000,2019-12-22 00:00:00,ETH/USDT,126.99,133.33,126.78,132.14,443907.086,57782448.27002,46744
1576886400000,2019-12-21 00:00:00,ETH/USDT,128.13,128.52,126.50,126.99,208331.595,26494884.59958,26490
1576800000000,2019-12-20 00:00:00,ETH/USDT,128.03,129.33,125.73,128.13,346553.796,44173865.86824,36582
1576713600000,2019-12-19 00:00:00,ETH/USDT,132.78,133.79,125.66,128.03,637508.534,81427182.50507,75003
1576627200000,2019-12-18 00:00:00,ETH/USDT,121.90,134.75,115.95,132.74,1013697.094,126878213.28292,127648
1576540800000,2019-12-17 00:00:00,ETH/USDT,132.60,132.84,119.10,121.87,613475.540,77808074.34792,73757
1576454400000,2019-12-16 00:00:00,ETH/USDT,142.46,142.63,128.59,132.59,553596.159,74937085.70597,67884
1576368000000,2019-12-15 00:00:00,ETH/USDT,141.77,144,139.89,142.39,230729.834,32774496.51484,22835
1576281600000,2019-12-14 00:00:00,ETH/USDT,144.71,144.97,141.05,141.77,187036.667,26688162.93104,18526
1576195200000,2019-12-13 00:00:00,ETH/USDT,144.80,145.20,143,144.70,183068.201,26428341.34049,20860
1576108800000,2019-12-12 00:00:00,ETH/USDT,143.36,145.80,139.05,144.80,372077.814,53279718.29956,34519
1576022400000,2019-12-11 00:00:00,ETH/USDT,142.83,142.87,142.74,142.76,158.649,22655.78275,33
1575936000000,2019-12-10 00:00:00,ETH/USDT,147.36,148.39,143.78,145.55,253852.598,37152298.15565,27022
1575849600000,2019-12-09 00:00:00,ETH/USDT,150.41,151.15,146.55,147.37,296475.449,44161248.94511,26976
1575763200000,2019-12-08 00:00:00,ETH/USDT,147.08,156.25,146.01,150.41,260610.870,38821520.15034,25401
1575676800000,2019-12-07 00:00:00,ETH/USDT,148.41,149.42,146.77,147.10,239185.310,35392175.44071,25825
1575590400000,2019-12-06 00:00:00,ETH/USDT,148.08,149.50,145.66,148.41,334645.217,49359338.35101,32781
1575504000000,2019-12-05 00:00:00,ETH/USDT,145.36,148.88,143.77,148.04,441113.912,64620018.03792,31714
1575417600000,2019-12-04 00:00:00,ETH/USDT,147.12,152.22,142.96,145.35,684404.817,100448763.87067,47342
1575331200000,2019-12-03 00:00:00,ETH/USDT,148.59,149.80,145.62,147.10,495996.573,73434360.19026,47707
1575244800000,2019-12-02 00:00:00,ETH/USDT,150.72,151.30,146.67,148.59,395630.910,58829106.54673,42498
1575158400000,2019-12-01 00:00:00,ETH/USDT,151.38,152.50,145.50,150.65,394494.119,58741811.96827,46005
1575072000000,2019-11-30 00:00:00,ETH/USDT,154.40,155.15,149.66,151.38,370491.615,56539195.08197,44923
1574985600000,2019-11-29 00:00:00,ETH/USDT,150.56,157.40,150.55,154.41,167906.104,25824932.01289,31539
1574899200000,2019-11-28 00:00:00,ETH/USDT,154.29,156.52,146.41,150.48,116824.070,17742043.26991,19847
1574812800000,2019-11-27 00:00:00,ETH/USDT,146,155.66,125.03,152.52,115911.840,17460431.98330,13143
